<?xml version="1.0" encoding="UTF-8" standalone="no"?>
<!-- Created with Inkscape (http://www.inkscape.org/) -->

<svg
   xmlns:dc="http://purl.org/dc/elements/1.1/"
   xmlns:cc="http://creativecommons.org/ns#"
   xmlns:rdf="http://www.w3.org/1999/02/22-rdf-syntax-ns#"
   xmlns:svg="http://www.w3.org/2000/svg"
   xmlns="http://www.w3.org/2000/svg"
   xmlns:xlink="http://www.w3.org/1999/xlink"
   xmlns:sodipodi="http://sodipodi.sourceforge.net/DTD/sodipodi-0.dtd"
   xmlns:inkscape="http://www.inkscape.org/namespaces/inkscape"
   version="1.1"
   id="svg2"
   width="2560"
   height="1560"
   viewBox="0 0 2560 1560"
   sodipodi:docname="feature-bg.svg"
   inkscape:version="0.92.4 5da689c313, 2019-01-14"
   inkscape:export-filename="/home/wugang/Documents/Work/Mosaik/Website/static/img/feature-bg.png"
   inkscape:export-xdpi="252.632"
   inkscape:export-ydpi="252.632">
  <metadata
     id="metadata8">
    <rdf:RDF>
      <cc:Work
         rdf:about="">
        <dc:format>image/svg+xml</dc:format>
        <dc:type
           rdf:resource="http://purl.org/dc/dcmitype/StillImage" />
        <dc:title></dc:title>
      </cc:Work>
    </rdf:RDF>
  </metadata>
  <defs
     id="defs6" />
  <sodipodi:namedview
     pagecolor="#ffffff"
     bordercolor="#666666"
     borderopacity="1"
     objecttolerance="10"
     gridtolerance="10"
     guidetolerance="10"
     inkscape:pageopacity="0"
     inkscape:pageshadow="2"
     inkscape:window-width="1920"
     inkscape:window-height="1024"
     id="namedview4"
     showgrid="true"
     inkscape:zoom="0.38324845"
     inkscape:cx="1165.7492"
     inkscape:cy="820.94649"
     inkscape:window-x="0"
     inkscape:window-y="56"
     inkscape:window-maximized="0"
     inkscape:current-layer="svg2"
     units="px">
    <inkscape:grid
       type="xygrid"
       id="grid821" />
  </sodipodi:namedview>
  <rect
     style="opacity:0;fill:#ffffff;fill-opacity:0.94090911;stroke-width:10.22633457"
     id="rect817"
     width="2560"
     height="1560"
     x="2.1316282e-14"
     y="0"
     inkscape:export-xdpi="96"
     inkscape:export-ydpi="96" />
  <image
     width="1964.1422"
     height="1281.6356"
     preserveAspectRatio="none"
     style="image-rendering:optimizeQuality"
     xlink:href="data:image/png;base64,iVBORw0KGgoAAAANSUhEUgAABnEAAAQ0CAMAAAHhyPn7AAAAAXNSR0IArs4c6QAAAARnQU1BAACx jwv8YQUAAAE+UExURQAAAAAAAAAAAAAAAAAAAAAAAAAAAAAAAAAAAAAAAMnJyQAAAAAAAMHBwd3d 3QAAALm5udnZ2QAAAAAAAAAAAK+vr9LS0gAAAKqqqs3NzQAAAKOjowAAAP///8bGxp6engAAAAAA AMLCwpeXl////wAAAL29vQAAAJGRkbi4uAAAAP39/QAAAIuLi7OzswAAAAAAAP39/YWFha6urgAA AP39/QAAAICAgAAAAKqqqgAAAP7+/gAAAP7+/gAAAHZ2dqOjo/7+/gAAAP7+/pycnAAAAP7+/gAA AG9vb/7+/v7+/pSUlAAAAP7+/v7+/gAAAP7+/v7+/v7+/v7+/v7+/gAAAP7+/v7+/v////7+/v7+ /v7+/v7+/v7+/v7+/v7+/v7+/v7+/v7+/gAAAFxcXHx8fICAgLKysunp6f///+gp9BIAAABjdFJO UwAMDxYYGR4lJi8vMTg6PEJFSUpMTVBVWFpgZGRlaGxucXN1eHx/gIOEiYuMjY+Ul5qam56hp6io qaqtsbKyt7e3u7y9w8XHysvQ0dXZ2dzd4OHm6evs7e7w8fLz9fb3+Pv9/t6AT54AAAAJcEhZcwAA FxEAABcRAcom8z8AAP3sSURBVHhe7P17kyS3luCJOSO7kpFkspPdFZxgD3OHyqZNx+3drom7vNTW thTTdY3bM1PSbW3ZmlT6Y01mMluk0cTv/wV0Xv5+AQ7AAY84v6oMB+B4nHOA4/C3F8o1Y4wEmE50 W4zJjulb1muIbXXUvLBm0yPvaqFeOXB4E8yMIlhtHg7nw3NRPMJf8XQqHmjsGfNgzvgj43BPv9lD wh4KA/8pLrASB/g94A+QhT4tGT24uo1FDvrMieAqYmKVyuZHxFgkXUKVqqbDypBQI8GYN6Z4KxFi Tqbp9bw2pV5tfeYl8dM3BotbNF/jVCqRcVbWqNOcQ+vGtEZm5qxsVj9OslwBskts41zqXTBTXCTU YFOdAxizQ6HJnQd8emvqJCGakVJZP1a7dARWmOdi90hNHCl1BSIpxEeUBo4tH+AIE3ikZCZom+uN hLGWvCQAIxEShbgEKmIqOFS3TXvN3mTGSvX1iaUQjTgJN5hvDcpdKBcO1Beeu3bmhOmY2oaT2g3N N7EUx5ob2SEo8vPCPOFysr7xlZPFIhGkzZFKUugzzdDIHSE/4YdwUKijEW0NG1vE5fSqGKhzsZij PJCjia91yji0ZoFHbeHOhoZVaSlPTYXI9gfpgQHuZMXY+jxUanIvyzFY4nGnmdcI5rsZ2nXEtJGB yeoAs/BZ4l5YjfSY2jTwaUaM8cALJIrQqx149BnTx1XPTv7GwB6tqdpWwGJ8wLgK4gtOI9Bmu1nc Lz0Pzy4EXu6qC0H5RZt683g5mCPW83g/1EqVNrRyHFLHrQiChsCrfK7NdUCrmenzbl71C3JwNF4V r5HrklEIWzXU9gK/ZuCkXh/vpiOahQA1zBnGEl79TkRsFVu4NraqcEtxEXILCjVlDCGvZR2uTQ3s YQY5UnMCGmw3OSTBrFAzGaZW+9bNVJkgUGswWXR4pX0HWGdcAopBDfAS5+yo7SHdkWCLXakqFwbW GOfcAvwGb2q/8IA/kCCdauZrXdjuXDGY9vEOt9MD7BXDPzAKhpYQyDAVdX2mIdBcK7yevYDOEay2 UzMjGaw+oyb4H3gycMgSjpB12QLuD83if9wSLN3wjDNV30xboUWxoG5y7NRUR6hWdIk+M2Xs6VUE CbJxl0UX8xlXScQCzNowi0PJJfSqh7FJ/ynYB9f9IuEF4PB3MYY9IvRw3d4tNqWGTZOEGixqYbqQ +VoCEzg2i0pYF2lldGwoPkOjaE7Ixvow+szK8PqKP99/x7E+kntYGrOn8+qmOMKfOR4Gzq6GUWOC jjo/vPtY/EEiA4CYEhoG19O/R2MOh0fPU/TRlYcmem3MKdhjoZRWxVzrnsrfUHWhyNNYVBq03UZl Q9uKAISo9r4wT8X+UOzLujqVDjQB7gOp9YqBLAuZVMiymZ2B46TD3CTfX9tIsWzJhoBVTTHTzKS2 GdKSbkjUIAr5uM+dLOegJjzaCcTsI4BiC1ZL5OV7OfukUQdbNWf2bGP5SOPTI90OdzcpMqxboNFy I5CpTXE+wh9eR4O9KouRaHfUAnm49hEaK2yqiwXLaC+BKT59IcE2OBZGawqr4UhtZbc0+8ei4U/m v4fD8hZS6tc6uAYgtyAJJY34qDjL5VxRQ6Td3Hjj3TVuYq6lFLdTt7a0XSrnIbRH0T7lbW1A0HqJ 8DWO4tCUt1Tx1XJpYUUjh+M3+Ff8+bd/KP5eErxwNIGnxSaK/6ssPcC5NecuXSJbZH0MnjenNvZ+ bdmWdW3DOT/sccP/y73L3lqf7jjyqcsPvK+a9xifHaTAEwoSRFoFJ2s5meJJgtFYYMyBIlUXTVYH uRLeYjsGijx6jzn09ddvJHwN4ADOertcU0lJgb0ctM/KjvcILyemacz+bC7G3JsTLg577Alw8RkM qA6ZMN+Otj30qHlMOe3Am6v3OJwK8wwioViHw4EfJpwEz7A+7Sh4pqfMn6CM7RmxuIT1DLvKovak WTZ/lDJFlc2exibrXh4CoVuYKGSBFDZPUM1p+h74IMyYrbUBHrhpqbW+QZ2M3gLav5inE8yoB3tL ECPVjwMFxu6hc6wKe3K2eefrqs76yLKLaz2DOFt3gBCCNOroiuRSfbNsqx77SvBdIn7MtNVdPX7D Zzvn0q4y95cHmMGh9OPefQ99vtGlci0FdkL2IBa1OrN17EoWQdKlt+suAuSnXRf8uQZQH3wZUeD9 qbludhoGeAyIEzEWMvh0VQ1NDyWSFp6Rml/xP97x5KYOPyMIP1PHtpRn2Z7H63v4+YHDeYFKmdOp eDb36D0hju2dLL+MwSZom7PDG1kAPDp7AHWOnluiFZQhBtqpJe9u15YKZVsuiNKOlbi26ZA/iDpL sGx47X2FmvGGJ2RatmqMwLqPVWcpme+UFVgbJEKVtpji998lGJKEGkXRB1hdpegNtht4/Qn+aL9q w9QqffP6Y/Ej7S3a4mDvNceCX1sWpddUhlnSopSZK7q+MsyCdnEimp6LUikjODb/dlKZxLqUBBEj E11KfHZoMlOlgbNk+arSZL6zfLozLXhUzkiCotwanbG/YVcYFX2DOs2IvKlNloWo29Fng2NpnGll Ft7mkS33eFX1Aa9J3l9oyOGoe9gVkExXXNe8QjiLxTg7yU0N5Dvwg/dMQYCuB8W/HSU6QxbIYjsR UIQNbPZcJcxDo2EpFsmWg0JDMuRh6CXgtuq/te9/3q4yhDFNdWaVsXH7XCwyJwe9x1bCo2xFGaB1 58gIcldT7tgKub4yAy1aCpGJ4Q/45IA8eOL3bIAlcZswZk9PVZl73DZnYuNIXIF2jbtvtqoNyn0s nmG0nQ8bv0nyEf2HtgUHY04H/M5GCK7KC+lgG5DoeuBmelmr3VL1JzhxTXvtaooZGGISdINsT2cF 6J7kes4an73W0cm1FckPC/x/b3bgb+Wchftlk/aZWheL0TbDCBNVpX7lI83NSuHk+5C1nduhrD9W jdlLRMrQlz7ABOiBaIoUm8JAmIfz8fnRXC6gAj5k2SCyTo7VB5FmcSXdgnPxCepnV3AgHczx8Hg5 PI+cnZ+rd7FCUyysFLfX8IsT0vhhN2aaqn+2bVdXW6iMFccD+Ay+17J6t2WfmfZp4wGM1xBTgSVM ygMrn54O+A4MSZjCWrOhjLCDbl1+kjC1OMANtpqFiQRMhtMJvn1wTCJIHygbkLpepxbIp1slUJNd sdvtQJ3Bx8wgO//nyEKFaJxh2dbLU3yhSp0rrNWZYyrX/cCno4WAKlp/9I41mmnZQbCAOrQA289q ZN32EiGlTBj9zDNvBNwHYVgSN7+YpHL3Gg8mzUa6w0XM6byuCg/4y7wLuTYyxdAUMFD/rFCW69uL gKCAVCsERFj8nWpoZN2sqiV1PtsSgkX2SghYctBaLB+G2vBvV+Y5rIgr208cfARmQUNzRVofJrfn WL0vhBuQiw6rWSIwcDCDd6w9wcDEp8uf5SjATp1WLkcLzGRfvF9N56ahetwtMwd67xenzNJokYLd uC/n3fMj/JfYzuYGATtspQuiBYH3C0JtYNnKuOEqtydFm4OgIPgng69HNoLaADMvLcaEtj7cZM4G DsgrolpiSC5Im1ZnWqbeOqin6mXcVA62KUsPTPFpWGSHzTMwmJGqYC6B5R8t+emTBFpgdvizba+V z7aQF+6NlCXmn8Cu6u43Mt+sm2ATTc3ABV7/8Fr88AEDFB2nWX8dpjGGXnO6BP4Oqqs+os7r6/vi 9eO308/9j9aNK8w9/IMQZRrKOVp6EsdS1tkHNyWAs5TL1LLEtvLRfLg5LldK3zBjJWxbrHAp4Fx5 n2a/NasbqBqT5luczzHKRFH2hDrDyHBrpY4NyRJYPZMD6OVozG0zjOcTTWwrsmZRheP6tFcslnak 4Hx9i1u0IWrlgbAeauPq4KTIR1G2R6m2rNo7pSWeD4DBV20Pq2MtVFDpTXF4otdoYnio5pHWTIEX lPGNlXgeYYFIVGRBuQlQjzu2Lp1AsFPHfqsIjGblFcOrHep3pVM1RFtT+xiSBTUf/qo21GLM0LfX LCp3om38OlKGmusn2p5YxZgX+sLaAmarHgKsJ0gC04rOy1z+OpWawaP8ZNGOpjW+AkcjpmBDdXNa tFabFUvY4oXMXXGiiefKIkHmtemkOLaySCiiKulShUXe5RKFoNf6P8Pfb/x1tT9xiiPtGrv1p9V2 CbXEuHciIV5krM64YM01juK7Zm/kx3cuwMK+hmbO0ZlpVejEePWBDHPEfQPn72Ug3V0KWXrjVhGp A0X47Rh0f6mVnSHTYfSbXRNU1xXyAt/f0lG7MkMe486JHYg8NihRnZf/JpFUBDZpuOqW1WRVip5r mcVFgMBWrLCs16N5HISmvJGdDlJpOcuiJu0KdT6Xz1+5sgDmtDPKbw4n0gOqMXZdvRBrGyy7+Wdt rNWhMQL4nEW0bmwxcy3wUMcAhg8HfEoV4cR5sJh8bfsIIbMrZ24brFspQbkmCokDIxgwhzOeFwXx ZPIZU6yRCkoA4G0csDcE4pQZgQJjX+axqqvKxLLOlHHd2XFTHhjJ71rNIE3tglQ4z1AzzbSufbr5 J8VsrJzMN4Zz5/SZqaGzuvFF/S7tNc3YTBM1kPG5eMRpjgay9XRXMtuQtb04X53btlyLshL8LPTO 0e8WNThCWVe9lQlZ+wiyGQ7e0nSF0RQz/DHaxuQSgoCVgWT4YfDnPSx3O9O6y5W8SZAkVxZ+qYM+ nfb+9UeJ2oOi4kktFnlK6s4+sgWvxTev7z8WPxTfjao1XSfekbUKgYdbAqAXL7DTv9/hjv/Tae/5 TlpLc6xqtaWNrSmkY1uuoq1qb2KyxcGVljK6qRJO8YmaxldNbM4Xb+ljYyvY8rmKWUv/NdqBNv6r BEMyJHp8dbCF32Oos05frEut0bevr18VP75bvCs2z6rWe/0Ierz7qfj4rSSEZUVd/JrKcch6yDRX NJW67u2+MW/omGqcVLowjq2/mSyRVpWSIFLkoUqFnTiDuTa/C1eRrSZNLITchB4D4FkUQVIURXFG nKiJrOmhrrYKtmae6CklPAuNTZ2kPRUPb9NOb/SUpahNc0U7Jle8egYKyw0mfPPeslv4miJs497G dfB1GppkTlgP9MuBfvHJW6hWng7ABvgPEugjGJQb+xFfq4zfc6keikH2TxZPrN0EDaMsBau4gz7a FYcddhTG5QsJiPQOrzDmngpgbuodLtfuHYXIzyLoh7prAvjbII4ZsdZb76Bx9a0Ms4r1brWLenq3 Buu0VVa22a12UQPa1r95C6YwbyVpCL8NzvLC2kPSO/AzjL+F/GooS99kT00r7WESY/6NywfYF4MK rnl/YYlqHubAotQpX/8iAW9C1JEn85r1cvgbA2qAfgljVDmw5ciGmTSIrXpBzRCgsrqKoJKtj5zh eijM47HA78TB335//3wpiovd+/lDGSCWIbfcQdw7pAGrsSvPPMqbZKbZhOqbEPKWubkO2pjCmxMX 9wjoFzdtBt+xjldb4PfZ7MwjheQTNX2SKXuibfESkom8BOgQEpj/QOdTceEU4EB9g0v8txlmOmBm dY44i5xSxxFPZqqxdX3YKhbCAGDj3tPOTQ/FNl46TWEEN7MD7ZfJVr1jkSUjSNpBpYcIoxvU8lDQ MZV5pGOspwf6+Nlj8zgLbW0eDOU7PNkIKFnmlLGoKRtQVhl7kakboaVE4PiK5nma6TCtOs6SuPxx mhtjWs3WtaSxeESUZpWOn8ZVgrv9/LehV8RKelcj+/VKBHfm+pbvkWeMi6nCmDVC/8iJqxPWi+cT YdNJs56BFJziCGw3fMPLCSdLWLXIiBwMxpFfnogVm4K/VlpPbyUtNfLqqwFsxIunQy7GSdNL/o1G Ebs1MXML8HtufKk0CWt30Ux7fquXM7DbhG3hl2TPdIMvHr9i2PXt8rBxIz+ALRrdBkzbLqd3teez rZsSZG0h8WW98CuzOfZOGXYBc1PvHO5YA/xx7WIu5QEUv4+4HfCULi+WKeNjAizLO/dypnnYIaea GF3nI9cI81U+lC+YzehYcbEheFdwJw9W4KcjBquaqH9k1WKJrBitnVaQTrgP3P3nSLdAOXIXdLxz 22EYbDa2LMMOTsAa7Id7+j0VT/CPHuwBk+JeghVcOw/cVlNyWLPILZv12HHPh1phcRfDFvo+PX2j fqJ7AoCVSxudlvwadiorTZU7nzwiSCQKLcJH+ElYLvMFNTDTynMYKbgWmwatca+n3OGkvyOWH9j9 tKs2lBJ+4DDDgWceHnmHx+zpwdMlSLFwinnXNFSBRaXhNPAEX8SOJzGrrZApHka+njFGpUs2SjVY IFOOajRw+4zDjDLpde1KkLn118XXGAGMOVPFTXRX1ko2hSvDssy7c3B/eABZO8lKigVpplEJB/dm L+cFrRizibWx7FhSWVAB3AnUOB5odxDTjujnrPYCO02170xdT6e+ierDtOwPyN61Aie0kjHczeaK bXmSyLOtIZzqjND+Qrq2oFiZBotY5lqXUoHtaGJxwi+ZLnEbhtqnG8igD51Ox/rK+9Jvr1ll8y5q JKh5hivLoAcCEeLuyL28mw3/qDbaJcH4E16FPsDKE72ALTCDvVAmDq4ExtLXAz9oKcEmkQSjyYtv s4BuMY94uhkD8odXasw99hJnD8WINs3kaEbwqQTP8e6xBp4p+cZ/+OV/mExLSs6KGBI51Wmd2UtS g/cOnegNj43e2Z25dwp8OBFb8GojOE1peFyNM7raT6W8DDJLQ1xrydGyZWaHXXbMyJvDX53KOUGf LzX4KlJP4ojnRFMEC3NRDtAdLVzmpqg1xvxVUUDnLGamrTPe+oN5+vlQ0EhDYgaPRk3xy9svSZ95 0SkD5ZPMUmK24GqgaPgzcgdipaKtsqFxqRTzkjKfOG6D1E8LOvfKuDQ7wUw1YNRADTFha7NiYYtu xfq5rcuPZxxcM2fBiQ6zE2msvF3pWXrV2NfrKEGdvVswwDcz21UOGn1IXEjDeZCesTJ7g08SPzxe +G4Z/u3fLdNjpOJIuNRsvbVoZqvD2C/fFK+v799/hNAP8P87SXWhUbetOALlNvxE8Y4fjttDeA8R OpFhfTujW7O2DNcavK12hWGrx9pwTpmptbXaWgLqOTvCakVEqHKe0I1a9E2HMne3GEQHK7KrvZnL rsRyQtXfrye25EP02hzr0rF+thO6ymWXfZqZOgI0MVTFgmqxSFmMT5j6yjbUN9SKrFhav5RbWrzJ fB3DA8ySkaJLanwpLnwojzeo8K8L9rlLhQdLWFVDmewb9AGH0rIOGi+0pLo77BM8tw77u/DveVEl wlhRmyptm/UQLzFpJfdt3a4P19DR+8roIE6SV557gM0ZL/HP6Wpdo0GrtmcyOckfkVbvgJ2sbDL7 cMCsds1m6YQ+9gb+28mGTXoHt3NOTLXcXBfA/km68AzN4h/eLYAhOqHLCQ9gKwzNdqFL7+CVwhd8 byn2CBTEhqreKZ6tHi4v25tst71yKGtz+p2sCoD1c1niwJMznuSQXSfsoAM+PUwChegdyMJIbIy9 letILeViuNJuajM+XGISLLKgWAjKU4M2pwiHmC1l1zeLGKm2n1inWPbntTCqV22HgN1DtbQqLj4Z 88vbZvVDLZVpLAhuTympzlqHesiqiRw2eBafAxUbaKKRNJKDVkioxXDqFFigW+gTJpnPEuuv78BV wD/zdSvvTDFgPscUfqWXMtfq+PqRPluRVvtjwtTpqcVdwKTI0ysXdM9AAU6SFVMVdtfNxa+BcZ1a a4ayuZqDpouIbLn2EYYb7aUOZQst73x97i2GlnFlBsTPWSNH2TrZvTRLYZZum/My/Plvit+KP/0D /Pz1b8U//03xp+JvZM0koZSbqsddmQ1hNcv/9tfwV/zd32HgN/qH/2cJaKjBqjCxu5/SzxhQinWJ K/hU7e4tD5TgpFbvjOZail/pfBnVa+l+3FipRvrWbCnPvbXBlIfmWxdX1GrJIdPVcjk80RlsNAta 5oymob+X4iLvG8bnMjgUn9GW6nQnWczhcpSX/m4QehjmUD7NdX6Bvyd81rf8DhK/vxQCs9cdrKiM 5GytZgGHwvicJeV3btCaeDWvzR5f7Ii4qkTbO/7BGCdaQAWkVCxi1t1n3dYsQaGM+acCH67LjVUN lmXvWHEZmLYam+TtKtYgmBJY0fhTnt1m/JvlGnBLtoOdGoBuozjBxpRitGZfwEz6QvenMMG0XYlg 8uLdITyaD8UZAhjEPcNHieGeFN/Mg5/3s2x2Itv+EVeXe6AEN3LhGLWBn1vCtZwUjMDVjROuIXwR Mvy/M4ficiSrwd+duaPYC/WK9M+5oHcLh+Gy938u25lw4k+zVjtZsDllwwsMNTZesRvbIFj/0TzD 9gyORA87mIQgjf5ws2ogvd5TCCoLVQYtBK20i2flKF6nCkqBrc2JNmM4NfB7keAwvv11YCrrrl2n BMU4yfAMhxE8aYV/lB4Jd9EdKa3j3o6INlAQk+5g/T38ce9QLxnYp+rpU7XfX9VkZvUIsJ/SKrWg iimWCeWEtODSTHSZrBmSZFy4CGJH7x+H6gdFad4EP0Qs8cdGbj5jJwRWykyoPNM7s8ZaZMzxQvG3 NhXQ0GptDeOt66y13BuYLDHmUhGAlvDhguJ0vNBeCH25g1f57I+gBmXhsWsFgXUMVV27mqFKhxsK qw0DdYL1UDP4u+cltsP7Qx7fYsSa8B0aF6ifn/fBf45PR60Nat6mnzKcNpyYLdg7/IO+wx9tw99s ydK8pRUbdOMAbakmtx0zq+MQ4H1IiKXk30B7736En69ei5+/Kd5JMhBL8/K5Q6ifvm2Px3b4D79U 6NTmXO8F57X4Q/H6Wrz+UHzg6Pev+EokR9xkfi2++654/QqW+C86IBu+tBX/4fOH+AFGjvG/RXAx nLQO5rk4gv4P8HcgO+CPm0FGAfu8vv7w/l3x8bX4+Idv3e0VSI5kLBMfSz3Rx6XxrD7+8pOmsqoo nq3f4xSLgP2StostWx/cro3tSyNpRm7oVtP2DRHTkGt1Uox2MugawUc7m6Kxdini9X4+fcMslMfR QAH6Kf7eY25dIyzQ28tWUHi2vEWWkGTaMxW28onNclfHAVP8/rsEs8ZhtF5H77AW/8Pv2+ge5Iq8 Yoo1t5uhmRB9hbMdkdlyx9R0lfj4vZxroQ56xZeDfwupGNkK17ZhmBxoG/Kj63CYYZLpFqDha+6X Fmvp+eYtNGXwNVJeRz030y9N4h8nvnn769svfvm6/bIuB26yWzrkZwPtlT7xfMm2Xu0VGwL203xF 8TewVwwYL7j1YtSpEGhaB+Nydu0MRVEURUmBzMNNZE0Pna1XY6ob5tYq8bA2vHbQurh7RFlAOyou Sz2ByqkbRcTPuDgJae/Ewd+w2juRCGFU6hztndCoRbNFuyZbtGuyxaNrqvmlrKNZl3a5N14mrF4K 0vwtWVSzlzhXhqctqHPMAz2lvec/esqevk4Ky8czpj4ei9OJcz1y7idzgl8MmcPDvvmeCe2cEm9L wGbtAXsIa8JuoH/4xhX8KDLWXr5d9UDv4cGnsDk3pko5DJbc7U3GbwRZlaZZlsGeAwFTPFNHmOKh er0OptedA8vn4h7fj1CXoT9c1LRjt0sAO1Dn8Nufjbk/lR9xwJdAcv3YKfghkYO8I6koc8M6eWs0 R5QmuVmETi1oNxHZmUE7pyRLI2jvEP4miGNFrPXW+6etfhWztkps+9149zRxNMU6I/tG+6entpMd 1jPaLXZPv2/srbDydHBzs09f3/Ye0oQ9EpjqtrpnQFnqHFP8x7d/nLREKjPdTvcMacqdwz00iqeJ vIrXhT2lyJth5TAV/j6N677IKM1CfpunurRXNXkzoVrlOQN5AljEr3PK8gEEyZZlui21CJR7Y8yX xb/8C0a87QoVXPPZayvNupm8zIHv3fji5e0b9Et/u95q34yu8zMHeM4fqY4wneNfRa5YadbJ5GuN N2+/lr2MIHa94YtyvYHpaQkojpu1t8a8kRRPSJ6b7Z42mZmhFGfjvRNo9s2N6+idQekdVQpigVhm 3HL3kOw4eeI9e/fPl2J/pJjc82dBWO3D23LDvWMOB/xmG+sAf/hFPQof6U6/eTCvEge27Ym/MSV/ +IFswOrjd5w1czYh5AC0Q0D/cMdA/jB2Lh7Ni2QaZStab7V3SpbIvx2dt9477mxJ49vrnU2xre7B ZypsGNZqe0NxUxKfimezM4/wWxQHg7f1403+FwO/tJuAKbS7MKRVMk1PtmOqz5Z6B7V8Jon5ATPs JVPs5JOurAv85dU3k7Dc4+Qp9SDYOfXTShA7lZ/uZCVxPSyHOidTLWfFylTuAcrOMY8PuHzAjoD/ 8jxgGSrMufdoX646zsuVq+ThSKghHSr7sNHesRY7nX60o9JAkp3YZO9YqxpCuwHDdhO6cfyI8kiX DKeOYZ8zG1btG5zu5urpClR94XqioF0nBdFgTayHXhjNqHNoh+NC14/ojRDl+yL4OpJ5wozm6UHS 8IHrWUg6FzfKGx5s/GtBCLWhKWnuiN0BS95pL98XwdeRaI14GKZgnlka4l1ZD1ngp3DdSmVp6gK6 flS/L4KvI0Eav+1DsPAc7ukGizsor/eC2KmxVNdGtzBkdLxmBMmwqnr/A6XxdaQyvuN8pppzxul1 DrKogzb40pYlai60ziIGOwdxFWH/1Hr7UWKshF9g5PU6BhntHMBNks15jqud/ToGp8HAPcv1PZgH it0w/oal3gncPQDWyLVOTGIR2l2OjSwO8obRLUrfVJ1j9s+FOe7vn5/vy5fwwSEV5YjT8GIsZLEW N5xiaKPgVsIK+e8g7xHD2KEwckhFXYM6VIH8sRUyqDJsLA6HguqkvwN0B95CiTHunIp2o7l3kZ10 cZQIXCmZGn/gH4UwkS5rwSHVOHF0syBMu/GkT2WXDmn6Z7ZRC6kiCF5XmWzYdslGkJp5iaLI3KxU wjJr94jS/jAZ9s8UccQdfC0xdM4jNwh/NGlw2E0CU9zVBTBkcd6uiVtrKXE0jAMDFdMuFaQfcR11 D4TH3GkMzHyEDjlANdzFeFbVuYp1mGlpevV6YiLQDydp8pnussPwks5Bb0F/wfv28Mawl+KeUq1Z S+/pdibXriViyeVwNsUT+Mr++IQH9RSGI30nOSDzPXYIXuqjfWj8tbrQ2sJTd8tt8eJWPMVLhjng 5mx/hr/LDjvngr3ljq/+NuUn84yv9BXtCvA0Ad42UZzh2Pel2ENksLZlTVxX37hv1RgvK1B/4NYN /3gODEKErrHYBlfb6Tte5ICHJerOecCIa+eMtewh0SzjdeMaXhtskAVgoS2MwccGTrTziXdRhFJq oTiWjNeOa/jvAHu+L7zB3j8Xjws2SuSDzabKcDPNDvcSQRhuNrIw45s3XMF/BwlyXtj5ct0V5oL0 I5TNNtNsWVLGEreqIwrCWHXOExzzQLDsHPsZnU8J8eTVagmSKNpMs2ZRIStGax5aEUuMT8Z8Tdaq Jv0B6OaM0wtOpEfoDd5g48b6PPvGBIG7QDqi3VKZyDFHnEpBZuv8YxkH0p1kcOJTUXz+n0nsic4J AHkO94P0Rolfwy5lsW1oDv/jH5/hoyCmtLGv1z6nM+A5vxZvf0UR+xIGh5qQlqrdcr92HQpTw9Qh cgK3/Dv2q+nGhX7ySMYggOeYNzYbJ9oDFXjEuSOluHjjwoSXgvaFKWcp+zPow+FBbSxrtcwWlz1e zpEwhzyODqgi8Z814XbrE7gPF37MBRIf6aLILF2J19ZgGJRiDx1yEHXMHt+i4HgPZ1uV5iU9PyWT mShuw3XtM+3wajoPBQfV+O9Q7FyPcWQZHs+arYt3MsZTiCnrn2sHr95gh2B/lJ0TcrPkWVUEM0Wo 0h0UwkKQC+3p8CtgID/+s3ppX03VyGBrnrbwLD5QfqDGVpJvi5FZKl4UtXwr7ZWfqTCKEsmotRnW y1fb+OWbOXxby4uGNhtRrCfm9lTIB3+DtWuYqO/K+sZCHW+N/U02WUO90r+hrFhHnci9U5Jl3+AJ lz6y0p7RErkp3ZanirmIGVslqx6YydRaFVHgEFV369gDmFqmz7QxaolpC7mypLbhMu2k8UoDCu9B LUVDHlGs7qM+luayzNanLLa4AsazeGqgB3ryS9+MKOas8AILiQAc8SVUPW4EaXTAdFXn1GsktFhP p4LY8tKGRmCNOGxD4OYXUhuiloc1aRqIwo34ImzLY8u+bQ3RrTNCE01CVD9gCYo3U/tZFhKmluW0 1EgtjB1i+krYdozWB+qcHGirOUYAfX2rKMv365EU3Le+jo5pKGGjUAY6X4XZrehousqA82pj8HHl iLReYAJ0DSbLGAzUvUb3eOEioHc/QmPd9hp3NUW11VDlQ0d4DULIE1WnFiE6B37wHcUH+KO3ET8X xW7/8PjweOIEXGkO67yrjsWh4BDrGTYAId56eTb0HgHUG2/bxBtnOLp/gV9aWb7FaTWiNuZV+eAu 8qH3TB/1SojpCXuARd4XO1hi50CME2kl3iGI0ZDM1Jfp3ihKNbQN6d7gGkZ6GgnyjuLikZYQwmOo M2zoniGBvnQVqrmK+epQsOxgmdhK9T+8m5K/PfVQXCQtO+ztOZKxnTxQXRClPSrBovxSkeo9FvSL nkM37YHMdFcy5cmSWdHGMnTTe90zVXOITfwc0D7My0/wb7BznjBHhp3TFGdONAfRO90zVdK+cxza 70KP7uzMjjqg7hxMxV9cjZ1j+0hfAmY2bx62mWKVzgnIEilwKEhIAq6fmcQN7wSxTLPGZi0xYLrK ejNW7vDJmLfwN1dsYt1Ma1Svm0ybYF4jGXesP4fREA6mwEcU+Xeq0FR9822RDw9mc+o0h6wrMC85 dw6pWGd26xwqK5Ex7KvrU56jHagDBXWo2keKILQEmJecOodUbKrpovKn4uWXObXtaxvkjh4L7leC crPkDvKGxbndN2+hDIprIXPtOU0NsawEQzBd10xL+BUy2kUdztcQOqTI0zRacm30DZkZ/zfsPQXt qXXzWpW0YqamajWK25UCeDL0Dl7ynjlsm/KkWY9jnW/e/vqWC9kVbObi+0wJq8J1ptHs0/UM9ocP U7UFbajErVLarAUQxKqG2UxjGUJ3Sk2seiti19/Atyks71ZHq1uGipruVXRXfHWaJm7tTaK21K+8 N6xH2vfsnRUNuIz08nUkcNnenIrTCS+V0zd/6Tq6KU74OSq6dn7BNz3OkGf3BJDq/Q9/KN5j4Ofi h9fitYD/8ONKUxCniYC2e4fyUjlw5PPyuK8CCeZCi1n6eWxKzeJbibUphvP9UBQfiq+K9+/hh/rl w8ei+Ip6y4G67glxxtfQGXm8VE6fObqT94TQ/4G3bQ3Sy2RVao4glVgw1s4374uP74pX6Bf8T27z o6yyBaumTpkeKOMrD3SpHIvzV31xya+pwtBkpTWdbJalssBaVvdtGlYNJrQ1ohs49Uhwjna+KNII geuOKSoQrW+EyOI7E1SeNfpmro3B9UOlhjPKchq7XNaMVxewocAyd7Fzmn6mkR4drs1OB7tctkzV FqqlsBIHY6hvMGGsr63UCKrrZGVBWgoq7iTduyJb9MVw7Rw7TawyhcG/qUDCYjVVVSN1TjY1sHKk F6TPylPmDSYbKLHKFAZoyqu1UKKiwe5hQUfv/PWMLmDUSd9pM66YeNRA59hpY5UpEAPOb004Oc0F 74SE+h7gD0+uDFTt0tpwXkoVfYc6xw4XOTyRgbSEgFKaYge1gWegMCiSY92d7COlJZkWyztnrHZX 5qshQyxqLZCIjCnMHf7uiwt00x0+SeJEO/tMYW/Jw6huV8uS3lnsbgkJJ3KQmjZowUXY6VnlysMs N9g5Nir7myXEhmO2igBt+FLuIeOEw0v8w39L5uwJhax1tckYwHAzVeBX0SS4Lo0DFhCg/GgBy1L/ LpBtqkhj3UzNFg0vkK3LbBXNDLa7bR47oSWNds78NU3cUOA/+iTYHYdh/9rupflVdVbyWzBfT4CW nKqwzewtV9dhsRu4c+TJX+ko+Of2WddJyTpNTjO3HmWT0GKcKqDMpriHPzgihEFLhxvlvyf4wyd+ cbU3jSogSIpShxzoYWI8TSD/fNpyLuvT2AKcmqPM+AN/aBe0DC3xF5MpxFkCcqH7LfA1Vrvz4Vwc zTO/XMLgXed48/ksbYFGxOskN6NDJUZqaWKRZRKn8pQZf+CPOoYmAzxmrzul/PMFux6R6BiO3zci 3MUbLBFCy2mcWiBjUYkzfv7p7lIczwYnZ0ikZPNIS9dPQg1BPTPbN05IZSOV9lIbCQvkcC/RZ1kd l73cwvr8aPW4hDtBu4brKWtbUO9wiclq2m0uw690HNgU9BusfxqaUuegq3MzlNZYXdMu8cmYT1+3 5RkoE5TY9TvSGNUQbMRqFkrcqpcbMuatpM1AJT4VX34uXj5L0iosVNWCQctO0M0P8cEa3CUerOUL U3yGf+XKwVpbiZ8o2s43WIoo14znyIARCzcY7YSxZAm40SyFYeiaN585UCYN0Ez+VHxhOpu1CWzz ZQJ1QhtZM4hMCT2WdU4sW83XG6vlhIyrNNOnA0D+uSKj613bugEmTDLncHZUVXBgqr3Ospt5pOhE jS4EqiYkUyK5dw5kX1/HRos+ja8v+AwNgQJcesD65lS0NAFm62e1LLyMqJW70xInSOfMMmOBJQZq lcnMwstp902A1yZDjb7Gj1x+K3TVCOE5AfYfpmuI2jn+wgcijSAxWg1XZy6dE0eOOccJ0GouBoyH jYa/yTIgloadzNZb2U2wbCRX5sX/E3TNb/9a/OWvYfnXGPnTX2TNJDOOY202L/v6FPZqeCHtNmcl YJ/5DcHln4p/pjj+TDNds4PmU1k7x8UOtc4TtDJLmm3atP8f/oKeA///BruE/v/pT7JuMU6Kj2cO c0YpI2ptFur172Q5zWTlji0PZOdu6XSOY7VzBK7OhqrJBG0L4VqO6jnpDBSZKcWWKD1Wptk5Q3mW tHX1jBplqbVGys15Tr6d09wktx52hlT4X96x6fActC2jNlm+GZotOJhhcXOIV+E5oHJ6i1kP+tzI k0RidM4YnRk8Puu25gJIhh81hGX5MRg5UfyMC7z3vTjD6sNqGsz1TXhB/GqMaRhzAKeQBqBzGobZ 4U3puArTVhvMwd0GP7FZHA6GP+Y1xFqquUOSwQ9/6QrveucbqinR0Asc0VyH/fDGzxlzuBxxRHAb DjQLOBSuso6XcRaljWfxKahq+OEvXeFd73znO/3hHe8nelaNeikE+CpVqquazobpNbfUowy+8gWX 9DuEp2aexS3Zz9grCPhxS9JnWifYunX2QRZ2zr7c4RkvvqziK4X3OGYeq+pajOaiN8bUt+jaARsE yn8//tyLU30D+JZ3JGJzUDXvZUjcFugcU39yJigRtb0lwHMKfKYxLN71ae8i6Dm0fQuK2nYlDL5A v01teziWlhAja/w7Z5vdexkY5g0DBVcKKxz/aki3uXDNB1dkBdBOMSwwWacxe3rhAj9Ejq9dwAMr juFhNi7xHx9u3S6sPVpiZ+hTeGi0wwmOPPjbzbgGrIVRyxexEONGxfsc2VkPxRkCGIRf8ygxOpVD /+RdI6EIWNVaoMi4oYclmoiTDjsMUQyHMoVwLa2egQuNA+se9/CD/kG10u8zNkOxA72agbuH3jVC 6bfJnr7VUZ2gQyAKoUtpF1jSK1vxj5I8wQ+5wP87A8Y/8jknfBXDHcVeQBR8by91Dp3WRfj3FsHv RsKwPT+ZXTmOD8XpjC/ngX+QYPCdPBi+s9+szYOvT7YlUOcEqmZ9qrdWKEoSNus63fk+qiKm6L1V pn3w2SKcKGVNE43lCWzWVhtZ5h5fDk8TGs1s8A92D2AX4RkmuGecBdsjJRhS62qKLgFPf5FtGlDn 4Acl0WR7/KCkOTzcP1+Kh8eQOwKEkV02agvcCJYHOI4607VD/IN0q/fALQNUz9h3BvoG0x6wh/CD kvSfDVecjp2+4cKd0rO0StBdKRjHNh5gb77c0uCRL/41a3dtyYIIVdZ4VY5WGjAue051HFJ1Dh7T 46KG+qadNEk/M1ZNld4/P+PZGwjCEQ96q/w9HeudR4eWLHCSfBFuxmki5QZKU+fIByXBQmQxWpZl GpTNT8uBaydWj4EbuHgsEskJ1rrxyX07AorVqwpFqpHERezo47wVgW3pK908CxqIPmCsGRR+PenW 6B0J2JFVzwz2zaiAESTPqXMG886Ujyb+yLhdtXNi945t7SNizH5hYa5+t7muZqRvYpsrQ6Y0njHG nLGWdQ5WOlzx6GCZkcMdY+qd9GR4jcU5x1r0Up2JKsccKg7jNy+ugq+ms7YK2jUTnROly/CBGjne fcDzRnD8e9nj4xp4UTEuIcZg8JG8sLYIxhLNjngNEU9WcedQSz7bu4bFWkI3I6FsytUE66FQ9YSB N2t3xRnPfkPX4D0tICF+qTM4VZ0BR3tQOduVOZzXiGEtALrCQIeAuYy5h7/yDgq83ccL7GO8nQtv 98IR4P69TyvC1RlwxGRPeTsXqgx9f4Zlzp1zS12DncO3c1HnwOaTv8YWnDB1+tUSQ6+4lLdzkeTn l6J4RufJEku5XmXZJZJaWC2O8Blw7wuQ2ADTazPHumtePxQfv4LlV+/g550kx6O8ZRGXuH8GA5ys fMId6XGhqauGkPUbwkXmVwSX74qfOYWIpDU92AWdIzf9VoLC0sDetUOra/fM+x/+ULzHwM/FDzCk aVzTCjdcZIYW4P833FijtVh6g0XvsXOgftq0nS68Xw9xbNKh2TqrlO3iUJcFPxTFh+Kr4v17+EGr FR8+FsVX1Fv2eA2nb2UZWLEGd1g3btbkQRO8hx6BwxI8MlnSLldwhKrIlww+gEx1wz+83cuYIDcS ffO++Ahbfh7N+FcUP8oqSwIZNVrfxKAUlt52QzMXdBe4Jv7D272C31jGOG7TvJymSbK+WdQw3tmF HUEnGk4HmLiwGu4c4j6ZPiXBeiZh3zhpUec0z3gWaH/ZmdOlOOwv0CvP/IxGdfo7JQF7JmnfAJat D15LniybRq3AraZRooGlAAPZ5koGHcPzhG9uXfmHiSjDWgdHUdrJoW+AqGLE7qC1BkA6PPSzKRrL gPH6Ja8OXyyNtYHC9lBch8mrb4CFArkZCWzqq3jcbkGy6xpkkVCLTLWojwJ0rA2rNLKERRaT0BLQ 3jPlKcuK9sq1axBX2cJajjoi4dA1v0sgV6xt036y6AoAxX/PvXfsu+eqQKV///33/zPHcubWukfG I3RO9q6D3FL3VLr+/vt/3kTnVKPp6tmqmtffPZsegdftPttXblCD1+LHH/HK/ke8y+sVb1b5SdZs hisZdz015H6L19ePEPqKb5KBJadugqvaInSUef9T8eNP0EffvxYf3uMSfqpbveIQ0prX1DNM4sEW rPWrcpoGKfUK0/S19gyzpnbNpkK0e909wyTR0ftk9S30DLOapqb45S3esOjXObfTMUJ8hbEB7BNj fvXpnJvrGWGNDuJ/S7nVnhHiqm+Krz+9Mf8kMTduvGOENa4sO7agHdMiH3NoxwwS2izO1a3hw5sm gn1satR+sSagqeYr0n5ZQHyjabf4EsOCUKd2S0DQnt4G1U6JDPWSg40dsyshYeN3kHWKoiiKoiiK oiiKEhc5DrU7EJW8etSq3Cahhn+gahQlb+IN9Hg1K0pCVhvXrYbUmZTNsprLtKFWsW31HWVzJB+1 7DmAxBUld7IYrew1jCQpSrbkN0zVd5Tc0fGpKK6o1yiKK+o1iuJKKq8xl8PhgF8wrTGNz3JjeEyy 4BLrhkNxI+WBt8FvysqgfTL0pQXynGdjHkkyfvvUPSS9QGB3Mi+YFcH04gTZDpRmijMWgeL4YU2o 66mAFMp4V9fdKFC3ty8bw9Q+iT/UqeRJQq9ByHPuzUXG5x38lPMMfjpdwo/wt5NoYR7gB5fwHz/k Xa6DMC3h7wH+IPRQkEc8N+quC9RpGDhhAAt1wc+tIhJVFCT9gOA55xnHbTlCyVvM6dDwHBz9POgl D4KrcUHexGFaYhFMY9cjr6vKYSYpUKdhnPMOo3OO0iK92wD13tqd2YkLHYrzGacFDvOANi+0Rwbp NI8guBoX7AjoXMUZ5i6Ow24YDfgj7bDVddcFmu1Ne46i1GThNkHRca9E5/rcBgipk+zJMZKm3Do6 FKwQtwEkQbltshgHGxmP5Dd8KkFSlBvFfgTEGiqbG4WVtOo+t8t01w+tDDlWrmPLrf5ze8z0+NiI CDJQrmy4qfvcDvNdPToaPAfJ1Y4y9Z4bwKKTYYAHHwpX6zQV16/hTWPVuZXnvKHQZwh9bd5igmUF baSy2GQxcNV7rhO7biV3oSHwBv3ljfn6jfmy9BxHuJ74DLeSZhiPqZxGGsUfy55jvxHPIb4QH3Ik +faXlUjBUMuQktogyhKcek0yk78c8aPfrp6T3GuQdJ6DtFuHSBY2URwJ1mkWFa08YEcbAzlSD9aq fVgmFkVZwoIBNFJitqJUY1V2LN8Un3GBKRRPJE0DEgH+0kuiuLJs+CwolGScSpu0O/mr+RrDv1Aa e04KkXqAFFnIobiwfOx0C05XlHiMgud8ySLQcRmRVqIKEEMPcraHX4fV/T1dT/pxIXPOWxAFeCOp OQCmYeuo8ygtMtkj6pOHWJXjIOo8iqBDYRqwT8dEarGE0Av9AIlO0OulsN2WyyAYkCOb8TkkWzbC 3Rryihh8u96ufFELv5ivenkfLJ+xi2Bd9T6/F1gG7LO8+n9jg3Fj4l4LdBBs+H1HjzSAqxfzUdpD /fKkOukJ8+HrxoKQ5WaTzSKR3NmMoNdENefIe8ggRX547NRXD5pJtHNXrvBCOz0Mase1qT3nxfBc Ur2YT17eh31Cr7Oskwrcs+NXK/sRoApFUN9JzWodoF0dGrVoUtaxvnZyFNSsV452cDzUtBFpnBYI w/5OAjao20RGDRyN4J7DJ9usuLlupbORK6O+Ewn0HDxPhgbG82l4eRM/XEafGpPvXGAcZ346hUZ/ zQIPcv4NT7LhRVFbz9EuXQk1dBTIc3BZX+TkJcTZCQ6mvAhKV3DIazAPF+A0KUB5qdAs1I5iB5pX gotQ34lAz3Ng5sDPKWG8+p4f3lOAIfzi5aXtOXTdhwo6eI72pBtoXgkuRC0enL7nXOSTsLiWvyHL N7EBd2e+V61ZoDjSp2Mrz9nRNdIpbrYXaW5eAJmbgx7cqtXXIrp9b9JveJcWkQQnsFAIq92i5VMR fJjfoN+IywiS2EJWlUhqDaYEsdsNWj8NQ73oRTY9R48ivczvV44ds4keos+oVrKTy4y4xQRcAsAw J/mSTQ9cGw27Vn0WjIx6Ta5ioUDlc0amOB3k+SM6vpODPXMPSzwtP/Q8kuGTJhSTIlW+PcRbnrMc rAX+wvRIGJGUDpVZuZdCWjmrrR15zgOKxCc68PQhjHs560Gfar/jlXhSsfmIUut5JEwHN4FFswjl w0ebQumM1UpQ8OqdMEIpLcSo3DEARwOQ3G9EoVJBnnOAKhnXlGurNHADmITQC8o08owqI/ydIK1e XefD9eHmnNGKuDVHwoilNKhMSh0SzsBpumpciYbn4LEOPWeES/iB+eQOL2o9Q5gnkBfc+6rzNZ5H ogVNXXURyXe5VM8H+oKVzFc0pmocaI5VhgDLBDPOulYedZetgspYK7SG9gdq5LqMHI5wZlnLwFfb l6iVs2aRjaFzzhjBDBN/NKPHJOnHVO06sAERr4xwjiPLKKQeFjguSyQpa4w5HU4tUfl8xwI2oW8C Qtklln2zGarkNIQkZMx9KaO5544xYseDueCVqN3JnHaUfDKPkEhXpcqrVA1I3Q3om4Qwdoli3tw6 jcfRFkZSJSMEKAg/MOfQDfHPkIS39tIDV3QOnq5iVVepBNG1QpKVkjAWCW3XXLuqFCv3gVRdXAJ3 oSD8YFBO0IsSHODT8aWn0BpCEhBJqRhJvi1CqB/UhlvpkbzFPNCdRc/oFTiv4EUpCO9ojjnIA79n +MMle051lcqVG/WhEDqHs9vGuuDmN7tN0IFuyRz+ugay1lbNrs7T4Ub8Jw/H2YqtRy4JdsSnja+h +6670I5Rj41o7wLoL6FrxVc/bwNtx8TWt6GUTzVYKxbTAhcU+SKRFtgq/Dm9Ms8RG2ttFU/N/Ipv zrB2t6E0TmCVr946QVL5+AIqXabTUfkFI3E4SdX1Ta815arBaTAcV+o9fkp52eR6N0cyTNHNcIOP r97a4QLvvUbPwSzEWYZtPEtUNRtuCk9Wo7Oe8J15lMwiof8OTkxhAF0ldDV4KbS88PV6DcKes6Mh idfkL+AheIr4cKk9R9LpymTEGyrLewKgicpznshrRQ74D+n0sAVljMh1dbqPMgvLXrfXIDQyzzxm y1dv3Z3MmS+lsN3K9OIZZx4KxWCPE929OYEHUXtgfPIg3EHEVnGBcfOM0050yGMTQS3fDx/yLWC5 IstscP1ukx3PBiY8vMD5ZC70roQD+vDlWHoOvzLPHCnzCqQaAtIsbUDwtAnur9JJH4jf4/KeEyjX EJhnBMlhxQL1HVtQ1mOP7wpfjyQDQdrEtjkI0y9uM2BjwjdO4JP0mGDHUhWcy6nXKE3WHw/SIL2/ hUO8owqeg2c+6fwnJYzB08sgksMCR7U34TaBZGzcL1Yy2R+3y8qjwhwAvj59b573z/j4hXgOiPJQ vxvJimWyu6m8YbdZIDr2AwGdQEHYsuFGCTqGamvuYR/PdVp856qUKZcdusl3K/j7AgNnwiLBXQpt 1zQAj2s36vEJLkNL+H/gPel7cSb45aNy/IM0PKt1jnyEXusyphWkt1ZEPFfeYESY7Fkitn2ZrVql pDuWbBh4FpO8Qw49ea3sYWME11FaaFoDHzWR+LhSlEnWWd9pFIB1WgmNu9C2JbZpjyYLh079/L8x +yMGzpc9hvGSSWsPm/Iciidz3Jd3yYSj4TmkiEQbwR60DuDYOnMOE7EpVsn+nJktziLbFRjtnAwR UT/B8guQ+xfz9ZfmV0xhm9PKrXG33z+Z/Z4uxrIaokgjOACvTaJytEZLvWkRENcKrfJvcrh9okHz BoNvzVv4pTiAKRuknjIaekhwTKepddGJ1DLXinM8NtC7AxeiFwjjEn9ICDxxPXuBi0rYY5E9nen9 wDkHJpw34Df/xCmuxskV6JHSIcg1AIoM7JBhPJ3WUYYOnYymR6VIOaK+Axf2pukuQ2oZfuo8c7LM rW8zn9utviwQkXnO+YWXnyjJRxnokgP8DZ0xw2rhjw51VqCjRTM6fCgzmLgOEXynrhFDvTtwZQUu 8eQOLquP4U4yt77FbGVOtWXDmNQ+2pSmgCV5CF7m2Te/u8pbNnyoLOLTOUin9lZ05CRAXIFmCN14 XR+FOnfg4haOtm74HSTIwLkhEeajGRwEncm6Ub+JQ2WL2nNoienyB3HculWnsePQrb0VHz19Flem abYyjuzFnMy5cbfpS++pT7mbdqw952QuRxqq8ofpuKGL+DAzt9XCUi/LbHFIO5isWw+R7xqmm6YK AdShPTG6rIOXavDbOlgp3UogfzwHnel7i7HAptr0U4axzReHtK1bjmdLISeyJVYzb2YuwT3GNN7A ALBvLnGvpm7eon07EUdz2bmnMsjUc1T+DNXt0F7qjk3e/qwANhKO5UmtnTLOYN+4dFjqzk0+uOZ8 x0LAkSzJVVPGGe4cpy5L3r/pB9i088zKN5whvVrKKCOd49hnybs4gzE25Ttz4g2uz0AnZZSx3nHt tfS9nMM4G3eeGekGVuegjzLK0p7uk76jsxhqo77TSW9H+4WyUCZf6L4aRlKskCKEJC1jvPSCejPo 6wxEAIY7pZkofYeX6YhegSCKSCsthpM5f9bEE5Rrdqt6IvcSGTPogAxEQAb7oZ1WxtrdxoGh0hZw VT7DSyrwqCEkKYSxanNy/RJ5czB4DjIQbN2WOIOySVfxOgo4qkClHcvYEKveIVoNrdjuJKNyTAq3 TPIs9JVlesjyLXGGZONcvEbCVipYZ/QnclNUPTRAPznC4pXMCLlQhRw0z8b8ZHBAosiAaM0sFB6U v5E6kmMFYrSMdTKSkDEk5ZycC/XIQ/1MpKiQBKQvWiMDZR4QntMJSUlKODlIpQpJzBqUclLUxVrk oX4+ncBjoiFPT7R6bTtjlRWTGY4r6Wh0wUiHLO+kPLo3q0HWtnFXtHpdqyewEFC+zA6RNUoqBrqg 1y/LeymT/k0rxugDtE5kYsoVqa5vZcl4f9Tu49NnmfR3OjHWfOfplZGzzeZlwz730SAX7VPKEWbO yRLYgTxcJr89BrrT0/8SbUDJo/MKb2/G1yfFckNIp9Yl7E4uoyYXOUKS3CXli9D0+2ToxVqmeOF3 BD2bC8fRAdD8ewxgCX6VEyejZ0DJJ8x5gBzNNwdl22W2gkm+hd6TjfrZ9sNCstgNfEYJcNiTE+O3 lum9MriExSO/A7Ux5+BruslbyuQDfyoa345KqoR/TXpw7CVs5FzSUdmYIv8+cSX5nMPfgqaXBTNi ZfzBD5mjn8D/0nNe6Ld8lZN4Di7oFU8UqL4ilSsOHtDLSQayJxtTpBLkRLsg1kbjkTRBNgZFpfAL TqjaHYbwBU0kHS7vq/dvk4tgjDXDHJQTk/EP/K/0pNw9x2noD+Z18J58TJFGEnrfV8nAh/faYbQs bH5xLwjfYE1f1scUyYd5KKakwMny45ltuzCfjk4iSdNKHATPwFeCYQRdpRkuN8MYxffpGXxjJa+n fLhJpgRligETBbCaYxXT2W28Z6nM4T83GsB67pQvxsMDaQ7KLj1GxFuaYfrjKAbk9JXE1XOW4j1T O5efLzDnPUtFjnD8G75GC2Cv6xn2tHqftkZhINAN03f6OErpxuwf0X0oTp7zAAHFDd99XPfSliX8 xBog0jnX4HIqs5DNO4bv9gP0NJ+n82S0f/3G0pKyHs35EuWca0J98mLQEBGswyO2O/RwIMdoTJY9 vNpbVDKCdmm5OoUWMWKFEIO5fXRaDtj+uMU1iESDUn65F/iab2jwaGuhhF6K0dmgR9zBp2ru8Xys PXGMqq4DjNkgxEBu7ilU41UWLWgdIvGAlF9RxGuvX2ACxQEMu7FUOj+t6KCYkHrY/+cRPSPY1Fel q8bf5q2j0zpcBVoMp4YA5hyecr42X3PKwm5fLp2nXjv8DC3WIfVY2Ims2UCSAxKhSk8GJIov5Bsy 72cMfpbWKIWDy6nmHKoNqIOcXkNJQbtY6qJvXn82b4pfq8qXtOIhmUdRgC7l8T18UpHl+VS2MyBx oBP1IVA1ARmSKJ6UUvMb85aPAj79kQaa2DjgQIaquDqut66500TAJkfNtqAJL6k8VTLm5fDMtsMP pPMlDU+aPbAQ3/KhGZEnlphSL805/0RB9hyMI5QUgHZFVUxaaZ1HCOo8QfAVCIuLpiW8Ijk+kmTW S6PixDU2zTnchMw5YenU2YwONRdO2X5FzlUvE4YdhMoGUyYWLKYrmak1IU4cSUdrDdhcryqLusM1 36zJvVanEpWztAinSkzcvScrvaaFiSLqSKUB2+pXFUWRGFgJOuguNZbKyjGMxGwJa8lJPXqEbduT GWHctwvpGZJ5To1XWaZlztozHlNi2WecDSvEB8mrp8qL3YlOrsGCruLsL3yurXo8nbLzc+fPkMWy tXHsvce7qYBYyLKKuAEbGaxqtP7vwWteX398Lb59ff/6LUXAi14p8uNHWL+eT03YwM5jBNuclO+E j59j5fVT5XyrLy8kyo+lV4+nY/hkwNVgeU/lfLFUL0hbYbASJYq8ta0cBsU8I5UNpX73+vEbWKBr fPtKi9fiw1e4pih+/Jkc6BuejN69/oFSIzImt4vLCLYF6nzoHXy68QAuQ0nUMjV+9wKLXffxdMpJ RWybm8NG0VBt+WMrST4STzNq/cH0n15/ht8f3qNriOf8+K4oPn6HkR8ogXzrh9cP8BsTEa8pJY3a JVgXqzOSC1RPlcPfI7gFPfH4yC9vuMBOWfvxdH7gBOarM64PxKzKAdvyxF6SfGQeZ8LwC8X/CRwp OqXYuInHoCyWMlqWZojw+MjaZ1r1sG154CSIV3euwZR8y2R//UECESklI78BJLqY8Qq8q+6Br7Wg l6gEZcIG4VVYiKMgWfvOtGw5S46Q0zCSspCx4lJ5e94JabOgg2O0spCNeLBAjFydZ06sTMUWZFiH EHKijsYqq/Z4tYNUIQfHSF0BW/BhmRiZCN/AosfyEzoOs3qKzyCSMoast8jZIKjzyLJJwOp9WCpG SPP4YyVMVhJHZF5PchpAouNIDrvMDQKOjn5V4er2wUeKXJzHVo5VxC2F6QmFZ3BLLCRZLqxNSXKF +Yxljk52q3epLVegS1fQcDX74CmFhfVjYy/CKrKaC39F4dJtLR/PIYtZma3Mw55TlbB8r024wdGu KVi1XvhLAVo1rbouTu2uIiNYg95zja0Z8/CAEh7M097g1UJIeMJHKy0kWSzsXEEXk5VZyW8ADLu8 S82peyZp1hSsUi9CSOFgyqC4NrmKhIZu4sI3QRYnejUq/FLDpzIBV+NymsXCThd0qraVuRGxnHMI pwanqCsKVqUPQYQQzwEkYQWWNLaKeNDI5eUF33gv78E3z9wwzDnVh3kiSjJVtaPNOrmXCh1M2bKi YBX6EEgI9htEEuKysJlVhMNGSD74o09A4OP7uMTjHLxhEnfm4kkyUbNzo90Ci6UOpa70e6jqvAgu xAq+s7iFLCwemVEd3ZXvlfCwXyjTUz2hKvMiCyHW4gaUHVNxgeoDRXwMGMr4UE+oqrzwFsLlYDE1 GxJ1KYMqLtsPGCrkZcFA5l9hr8YGbynUc4D6FcxNmndWDoUjiDNU5cKRNlzKS+ZAYz4P1/ET4m6/ fzL7fZBvZ6yAv8VHthO1z5TPe8ESTwYU9IJZPCWAV0GeeT39wX8+aRDoSWRioKalw2ysmJ+wQVSl S2XJ8ZZhdM4JrV25pfbAX6QxbetXMNeeU0lMX/LFKznnU5VOeeH/C/wFeHem0JNu8eZ5vNzSGgXP 4ghUEaAWX+KJUNdscFjRB0dlM1tuiPETvnTNAx+OwmE2+FFfLi0xL7wrGPEcfi0Mv4IZ1ThWnnPA R41RZUp/7nkO/J1xTy8MPeF6CcKsLSdWz5Scxbe8VOBdjS/xBMChzj1EbcAPLcsn1sFjTjRmcAXe rnI+cg72scZHfcsljj0/qCovxvbWqlcwP8l9Nijt+bI/wL7s5QL6GXPa451sLc95oO0D1RCCbk2N +GAr4y1PyjS5ssNgXpcKBpDinrV4E6/9umYKwQ8tYQNcbohP/D2mRlYMkIfA0KMbVSjIP1l4TngC ytSuqhVz9M/p3GNrrRtxE6ZLWdqvFm/iNU8vjzwc9tIG/OzNEba76DnVhhg2yrDiCVbQjSn0x56D K/mjvlIaP/rrCVXli8ylgiQuhU7KBaIlS1uycUkHk+e0Gl7vYA0fu9VFPSoJwJqt06RhYKdM2GMC voNoLcI0hcOQkYQ8aErTFc1JWIusg1ncGpGlO42SyysJwKqNwwTDx9LC7mTOa57R9lO2HBm4lGBO NATqylYLzJ9gfMsB/nhhL7Msp+nnoprrRv4Iga/N5y8xYQi7ZgZoFlxcSQBStr06y5QtB0QFxjER kaT01JL0ZapllQ/JFV+Yf2lM/k1sNerlq9qoGvk/fS7eyJceB2q1bahDu9jCSkKQsOn1cVC2Hgdd eA0jSTOsYeO6jcnWaDr4Kw7zVyY72MvayUn2ACDIExt+VfhXXgxj31STbrOyTEDCpr2g3rEdu8Jc brsqORcg8Tnsc3pQNjHWlKTjdPBifoG/45f03exOibHiQ4zmxUbwA6m4NL9S0mDeJXbpFVlQRyDS tRwUHsuMJPVprZHMgCRYAvmdCrm3sABpwbclt+K91iROe2u/wGHUlxPHOYS7uP0S7nUEIlnDCfDX VQaLQ0XoONFdR+r3bMZdzG6BsQpGK3ZtcSC/axXBSNZwAjx1XeIA7DixjUz1z7UytLqZtkTIJWVa OFYwp8OqJGt4fTxUXTr4V/Ecqt63jWXle6r1q5mu2KnZ4cxOVQQkVbsJWKqq38iHwmUFcZyIqrSt VwToyrFcrn7BZspstS7tjuR1qSIkqdpNwCJVx8bU6OMVXWIbGOv3dUif4p5tO5Qey+qp/GJStbs+ zpqODgqnt/XJMhZQv2cTKf3OofR4Rk/5l5Ko2QS4aToznnKZc6B6zxb8BfRzPcvCE9n8NVhEomYT 4KCp72a4QVz7Qu1+DYQRz6sWq8KTmcIo4UyiZtfHUlHLvbAsMJ69F05Vj4qsik5mCqaFG4maXR8b RQMNpd9kGRtPcYN2/fLKLErOZAmqiD2Jml2dWT3DuM3f/eXP6Dn/+NufIPLXf/7L3+EvRv71P0Eo qE/5CRy635dLM98zshwjtCqWJGp2dSb1DLCP9je//QZe8mf4+/vfaNb5rfjn/wCe9HfF3+BKmokw +V9/+3vK742XyDF6falAVGyi7Gy1MZSxIVW7azOqp7/XAH/67R9xQc7CnsNu9A9/L24EE85/+gdM /bvffgNf8sZH6lhd7iJTmZVO8AMS7WNRZyx95kjV7soMqxnEbYS/hp2yv/nLv6Kb/Om3f4aEv/nX f/3rovgPEP7t32EaJIFnhWG53DH7296cVcYZz7GpMKZGU6Rqd2X6ak70VwT+zBNRIJZKHl1lqwb2 +z2+HvaOIpOeYyVubJ1GSdZwUjat9ULh19lUWDXSyDThOZbyrqLWAKnaVZbi3GNUYL1+dvTQUc+x rWY9zToka1hZhHN/TWzVI+HW3Ih01nWsq1uTdC37wq8DteonznOHix0XoDfzNgjwKtE1cHUC8hvX Qv64NDiY176C1XWrSdi0H/IiXZAfv7XB73fHL9yiD1Tvegceq+0avTv0Cd+Uju96rgvAaswd8s2b eYDqExK/QhKqtlmryqB4lCHPeogPyLveaXm4K3WESQfnHXxBL6yoClBpcr7rQgwkMRv6eaMa5WjM ieZ+krP1NktrUvbaVkdM9fJ2nmZYDfEcCg8sD/ghgUf+BkmzALpPXV8m+A0sLCNBW9bdeLxQa/TU Brdbfu/CiVVF7pK08eV0POfePO+fzT1Fyne9P5rDHocD+gtyx2ODf5sF6GfdgTNHmIHVYL64u6/5 cKhfNyrNLtldXlPiPmlbDww5whUQZmA1mO3liVkq1gjZn6nJUsEFzcSSzJLEzYdEXjh+HfgPrJLW pfsR0HPGmogwQkqtqqD147ZNIgjmROr247JJ7URoXHBw0cBqMFecHIcyvcHPHvzCP56NTlE3yKFF x5kR5bMjuQAx2aZyPJzqUOwTGNwKNvimDJlffs3ddunly91CHlyxaoERS+Gc8yv8lQ6UMxmId73j Sz3HEdpb+9p8gmA552RrwxwEu9oBpp5jzZipXE1o8GvKcg3AlblCrfWLWghOHlKEJz+9VhtYgXCt szyhfsTrzHTABOBdT7jE4zVzhMAzLOkymqH8sg5+Kfke4/eYBQNUGVDd+yG4ShaJTMQITXZqrTew FtAv715jVQJkre6MKq/k4oKC8AOa4K2DFbIOkuk2jwKMQBWgcRBMlSDTiiQkFznCkp1WlUDRB9Yy mlUsqo5cmZfo5VwJCFlFKAF+KKG4f0ZFGusgfKJTifBL6VD2gPM0bV5whdAMJyYjUYKRnU6rDaxk wAR4gMkQ5kqSb2+O+wtq+7KHNeXEyJrguiezb6x7oELGPDygoWoF9/vLBTI0FcxCWSEnWQKRn0pr DaxcQBmrfdSQZKVsjpb3I3uNog2sbIDNxLKHCKbJrWevzXfy1yfSwLp6suvZK3Oda9sSbAoy/uPM hoF2OVtY9VmGHXtdY20L2pjL4XCAAxmJtoDE/tDaCiD8/eyEej2e0xMqSxlt2YLwcj8nifpkzBOG cTjhGTc8dwBhekrvEdJ2J36UYn/ZwD6euS83B3j+/B7CdPodIrDgkyTwH9TjZLxAvKP3RNASE8sV PYbSMqC9+ctUSDuSCo/XJyskbQDynHu8ePNAueQMGnoOyk+egytO5blrWc8ON8tEy+EY1BCc+542 BCwD6oJL+L08ww/8wxdJkHoIOBSqhemyrFb06DeWCU3BshXShnTCc6czkjQCzzl0JZNGDM41GGh6 jsSr+u5eYAEb5mE4lyBpMZhpgNbQeg7Bf/SjJwycH4ozBli9PQQuZ95y7A0v6YUrsqILrs8VFLsK bRPu17pn11KkbrLZ+jiNvTUcKfgUG75Igd4Oh/+bnkO3HTzyiwouk4/AYttEIxQAqcqqLs50Ki80 4Q/sbdKbSeg+CLyAy6rdneV53mfelSuOsqxWtKDqssXWPBlDXSxaSBi7KRrYgATzYFggTG0iyQNI BkKS1sE87yfOyeVl5A5irqxlnKWjQjxlWs0ohJ1JFpktb1vjYEAkuk3ia7B5E4WHjA5IdJol1svf 4A4GyJSI8ltW7fnqja1ZH63CSMIM1hkbbMQmS1TLiBjiO9Xp6zlbsz4YB5HYLC55hQ1ZZHO91yCo 7M7dfLfHW533eGZ1GQsGVhvft005wbK6iIz6OWq4pkKKL87dW+M1dN3HVQt6YtSrBnsWNcPiORVc RRkvzAHARz5uG9eODQuNK6/215lzlsrI+rmUTtgZtrCIpFT3VqnOrVWQ9XTATOXK5TsnGeHWoXGg UZVejGk85WuWnlc2c1sQJOMLzjnkIfWtUgO3VoGrcCbexNHn0bZLPmMVRxIi0fyYkM1WaCfl8rVE AxYS5xHuPYjzrVLkI3QjSOU5mBETG3kT4NTqUOZkkk/QFOgESDAHJoxFg8Dufg0Xi2fXO4OwlHj7 VPdWqaFbq8iMj3J3OL+aZXW4VXoT0xH7TabL8iVM1UcQn2FJtxpugUzlnN/E2Apur+BWumx7sGWr O9LLW48pGcN4suN8LE6UYSvdkJ+csN2RUBCsK9tKj20QNi06S/0Spabn0GqYKulsRxnLnbzkDOw1 DiRr+BZg27LnlC9RanhO+RFE6AR8BROmboB85AxpsldZWrOV7iIOMOoAGnwcHGVYL9hAVUiSD4Gq UdwJavnvPr5Hz/np9R1Evnr/8Tv8xciHP0Bo2Ke25TjyLqM5z1miFDpBB1kzgWQkJOlacd4kRyS0 td+Dp/zwSiq+Fj9/D570XfFNUXwDCfy/z8a6G8StntijP3mtJL52EpYP5pH2ffZ0MYdecULfeoZ8 /EXo8LDTCJJ2ZcBAen19/fG1+Pb1/eu3FMHhRJEfP8L6wZEViyhmJmdhz2E3+vEHcSOYcP7wIyW3 2Vhfo0McUWbxnPpVxrhE9k90mlr+OLkMcCwwgy7Dt2ZJZBJUBO9uiCKbP9+9foRNLw2ib8tN8oev cA0Mrp/Jgb6h5OLdK+zWRMbSpkv45uMH1OPd688Y+YA6fg9h3FC8I/3aZNpdo/C5XTSfeA5fo4Ed ODq5e9pxtP6jeBXg2AqYh+ZiltXkWsBPNJR+eE8DiD3nR9j7h+MAiMD+DSSQb/3w+gF+oxHRZ+Z4 33ecnDtskPJCoXksPQd2xwDYG6NN/31xhl+85sjeBcl4nRG/WUElpXh0mr2MLn0CCSgNdzSrBNyH fGFFcFX9Ei+cSHkbsAl+wmPqiEAPSigTttM1m4POMgN7cI4ndGmIo4fQxRxJkBfLND2HVsC0usMF vv5vE7z+IIEIgB0klA8ZihSbSN0wdMM871VWbyq7YACzlTekQgLNnzD3ND0Hj3cuZ7orrzg0v+50 c+C2Q4J5cYN+w0RQfPhRkyN/DhCnmfNdcTmChxz5oYgyAV/dJfew4TkNrKV8idfdCfMQN9dT2foM crN+w4RU3/65ZJprFpL1aApF/krettswITtpnccbkWt1oE3odQPbLls2OwxxoF1DN25JD3WbDum6 LkC7Wxp5TTYn91VspyKQpBuDtrmRobgNKXuo30yxtnViDSKsN6uezk4gN9RrbFjTSisMJxqySXo+ WcOBUbdxYKUeX39scYuIJARDqgUk4TpQt3FnhTHAIy1134gUHWSlIIl9ZP018vv/rm6znKi2k8Gn 3ZMf0Cv/9fff/x8SU5YReGyfTie8p1tQt8kN6e7/+++//39+/51SFA+izQzqOTnR6OXf/8ff/+v/ 7ff/p8QUL2K4j3pOJnQ69/ff/7vf/yv8SlTxJ7D7qOekZ6BL/5ffwWt+//3/+/t/lgQlDBEmHyUJ 0XbDlVGW23zgRRDK+qjTJMXZ/D+/4ruVvnr/8VuI/IFei/HT64dv2J9ev8csSmSg09RpssCqI/it keQfxTvwkO/fUeSn4jtO/uFD8f1HfHfMR3kZkxIB9Zn8mO6T715f8Z1K4jnvKUyR90U14eCLJIF3 rz/RchtsZyiq02TNZPfg22HAL8BBvvtIO2b8Vr/3r9/xC8tgsnkPy60wqGmOo1N9ZitAT7l31btX 3G3bDCMK5jZG1Wk2yCL/2Tr56Kw+s3Fuy39Q29Tq3pbFr55r7M03OEbN56L4Ahb0grjEnpOybSUq ScdVOESHN+ZtUXxtXr4QtxHHSaBikkaV9dl6R1eeA/wTLYtfzRtcwfDqVVi3NSUPVh5kwaE5B1Uw 5ov/i/lCUtdh67ZTAoCDYGOjYFTc6Hqoxyh9NjQqRuSMJ756jDIPjhIdJoyaQllA3i4UUbK8FVe2 A42kDIdSJVII2XJVUrkOrm18XZs+yhbgUbe1YSdSq7comSADMsMRma1gijKAjFdEUtZAWiQkSVGu ARnVTWSNBVKgg6xUFEVRFEVRFEVRFEVRFEVRFEVRFEVRlJtALpfPIJmtgSJ7CSrKNcEOYekSkldv R1FuGA8fkKLqP8pNEWrUB6pGUfIn+GAPXqGiZEa0IU7Oo96jXCHxR3avBfUkZdvEd5qSVkM6Bykb Zj2vYar2MKCuo2ySNGOXW8Vf9Rxle6Qctuw1iCQoyiZIPmbJaxCJK0r+ZDBe2WsQSVCUvMlirLLP CJKmKPmSyzhllxEkTVEyJb8xqp6j5I4OUEVxRt1GUZxRt1EUZ9RtFMUZdRtFcUbdRlGcSeQ20Kwx p53EiI4c5iCBDuYkAUVJRrLZxhyAi2l6TlMSCK/mOGMNKcoY6XbSuGFzpgXTcZwx1nOcZMZR8ibl sY04Di52J/NCEfjbnymMEyGM5zPlMndF8VS/mBAcxxweweV2Z0zDsBQ/HbAu3P8z95DwAqWl7maB RnsvGMB9Roz2GUlWbpuUblMOSpw97s3z/oJR+Hswj/sTLPcwwsFxdpj8CD/GPDyZBypCjmMuexju DwfY1YMjJSqCiY9Y1zN4Dc1k5rGqu1mgbs8cIBHaeh55WShmUpQWo5vZlaDWX/AYh/aU0CtwgFOY /zAMY78wzzC2IemOikAcHQeXXJbDmBennyeIPBlyNvS6su5Wgao9mMmqRnvgRAQMrlNulsRuU47L C4YweoSphwL7J9zDKsczhuH/iQ5raD0swHGOEkU/wPARKqI4/NEv/H+RNKy7VUDSOAA/w86x38O0 t9+jcymKQGMmKSwBzCblpp2STuZypOkFozQzyJ6aZEHoGIdWUR4KHzCTpNEvVIwTSlmwVUDSODMu Bx0HoAyKUpJ8ugFYhBMci1TC4BiWJYVpsN/j3hodw5R0HQd8r7igA0oa/T4YOj7iOOWTDDLjIBSA H1o5RJVTUYAc/EYGJXpEeSBPYxiCz/iDYRzPRzqxdoeHJ5QOdB0HlpWTUG6u8IXOpkndrQKN9uiH VirKNFm4jYxa2sWifScazDjw4XCcdqNk90rEfcI84DxI13GOsArcgGu8QAQPnCCAv2XdzQLN9ujn OROTKDlzdYOE/UtRYnKF29awjoOzUYkkKco1DoaQjiMeI0iicuvoUJhHfAaRFOXW0aFgg3gNIAnK baMDwRbxGzWYAuQxDDYyGsVvNiKtEpEchsCGxiH5jQRoqdwm9r0fa5xsbQTW4qrv3C5uPR9+oGx8 7IH46js3yHSvD60MOkyuYtSp79weMz0+vDrUKLmi8aauc1vMdffI+iCD5MrGmrrODTHvNyMZ/MfI NY4z9Z0bYbabYSREGQpXO8LUdW6B+T6O4zhXPbrUda4eiw6ecJylw+MGBpa6zjVj07voN2EHwQ24 DXIjat4iVj1LjkMZP1Hoawh99hgSUllschi0K6mqrIxdt5K3UM5P8PsFBL+sB4TzwFhpKA21sk7L bWpL9UghjhICuzFMbsNZ0XGKT5+LT3+kEOLY+yu5zTBpGhfb9UhqCsUDy55jv6HMvKv2hkK0DtbK 0gauZAVGmkk1VIfbhcRE8ihe2A4jchYAguw4v1KI1rn0PVexBmPtpHKcwZYhJZk4igdLRhG5yy84 5Tg7znpuMwo6vQTXp9c0xJNbRHFn0RgidzHmC3fHWXPIjjWV1HG6JoBISmGUhTgOIcnNu2q/UIhT 7Fh1wI62ldhxWmaAUFpZlEW4jiCvTk48XEvI6SWcikoAWOZhFcWJYJ02X1GiwUqT4x8h8KUxf0sp 5DipR6sIAL+pJVEWsF6nrT9UpT3eq/xUfI0L/ponQStTgiLwf2VrLOm0RR2dYqBKi3QQ9tkUv8IS /AfIxHFIjkpMZUOE67OZmlIOU3ScL81nCtPpDHIbgFLSAkLkIIbiRrg+m64p7RjlXbUvMMg3pFIc wHBa0G8yEENxY3mXdUtO1pRsiEqzMOP8ysc2n9l98gEkzMODFQd8+qtVdrqidONCGsZdtc94j0N2 IxTkQZHUczaFZ29Vxae7PeWgkKbRcfAJiF9w404nB3x1DwTahiVR19kOIfpqfi8jhxFBZ9V+MS/o N3k5Ti2Ieo7SIPVwyHs0NvwGUNdRhHyHQh6CtR1HPUdhchgIwyLkMUJBirYg6jkJof14s+QDsYew 3ZbJKMh3LIJkPeHUdZJhDsReouP0fCus4+gQsKBvIzVbKqwNH9dxMhoA+Q7FQcnUddJQmd1c8OcF HOSRr5oXT8bQRHQwlz30D/ZQmbSHZUDHyavz28JkJdoQ6jlJqKx+Z+6LE8SMOe1xCYGHJ/OAy/3R 7PfmGb2Hkw7maW/OwTosu66v5clNsiHUc1JApwbI9GezMzvpBtgv2+PyzhQPuHw2zaTC3GEejAUg z36vzLIFNiPoFSEnByhIu2jmCD/HS3E6UVpxxl04DB2qJN4O07Tkj3Z6ANSIq9Ow+IUnEnQiOH7h TS4syVsovUziQmGOcbTHg6Cesza1wfeGD22e4efyXE0otHw80YxTZqZliGMc7e9gqCXXpbY3Tiln Hss7+LvDAx44ttnhPITrDlVScYHdt12AQa9+ExA15qrI7hfuh/GZNXOE6COsecJ08JRHXKLDmCqJ SvnvqmlXB0XNmRTwoXXQfg6NWjQlazmO9nIE1KbpWMlx1G+ioFa9crSDI6EbpGtGezceatvrRfs2 JmrdeAQ37fzjPA20ZyOj9o1FcMu6VKjdGh01cSRSOs7NdaqRZ5jWRD0nDmBXc4AOPZ7hR8J4i5p5 NIfiApFL8YS2x1tv7iGK4WYByoOnrek2g2ccGxCxwjrj1XA6ne4luB63Z+ZVALPirTN79BbzyAcd dEsaBOjeTXOm+AtmfIC0C66rC3AezgeexWEb7B1M8UMNHQMc6jDkeewf+MkBfNiG4vCHv/hwDuxj HCneLYD3q52PHKeVuJxH/cYeMjUHF6GmjgAYlfe08I9ufObHaygOf/j7gDdGQ4ChfJIBbwhF8FZq ziuF5lC/cYBMzcFlqLHDAzbtOc5LZ8aB/y/oGvIcW7sApQAUoLwWqN+4gMbyM5iaOzhg0pYf0BLf y4HLJ/jBUwOXI+6R0UmCXgE8TXRxnHHUb5wgU3NwKWrx0IBB245z2l/Kjro3z/tnc0+n0yAKK/eP OO00CzyZo7wJh3LAf/C6GSjrTbJM88q8HqjnBAbs2XKcw5FfpUZ23p3MCQ/++bUdRXHk59qaBYq7 c6MA/ODpt2lmM1wpeDAoQTewlLfR1HOiQj4Rl9vsQDqHktJx1HOiEt9xbrL7xG2SOs5tWn4tOo4T fit1g70nPjOO5BsFMgQx2w3aPhHqNwEQ72AkrYWsqpDkGkgJY7cbtH4ShjrRj1x6jgZoeVlqnDFx 5a0+Yp7qHXM9ZAW1xnDCJJITkASsxqagBYGqUSZp9l0Ysuk3etvvvHZjGSrHoXcCzzoOQa7gZlAp goWcyk0Qqh6lxV3zCId7LCT59BpLYjHnDFM6zpneFGznOMQii5LvABL1I0wtShv6BoEQrq9KMuoz FoX0k+/8mAMqT9//oetXcm2KX+6L/jHwPSBzootW5DhlkSrfC8Q5my9YC/0F6ZIwMiktGo4Tppea 5NRjLAvdBVF++ucEMRjzRxj2eMeE3D6BN7cWj/Az9D0gLAFzNDpOXaSs7wLuxdl8oWo5iPV79kvY TlWI2nG4f0LaOKv+ImFOMJHU3/mBv8b3fyCBb9jDWyXMcyMf7pyJYcBxMB0dpyxS5qP7+tDhAoC1 dGry6R31nMDgY51ldzSCgcikt0QtWuAuVf2dHxj51fd/8OeI05E8wNfMh0s5qqEZ68KOg3EoUua7 0D1KnM0XrGWoJtJBwi6o5wSnnHGoSwCOhSB1X4lCpUqVOFUqOg46QjsRI7Kn1kiqTg5gfnNHjiPr qyXOQIG0xlpGa+Lm3HAuoMwQzXES9tSgKlVU5g5IgZFOEfz+DydxNnOPe2t1Pvypj3HQiaoZByjz PdPkVab6gbVM1jSg4DT+PRtGs6uhdJwFfTFJwKocIB2Gm64Sq+/8oONU3/+hR8Px4AaWR/KSwe8B 8QxFTZRF6vpgKf7lC9YyW9OoqnFYsamNEbIf1uxRhobRRKv1qvI7P7RvJd//oeLkCZiD6xn6HhA7 zl2rSJkPq5p/wsIKqp6D02DTEozNWu1sD9xdl6Avq/Umg8PnqvoVlLHXZw3lycL8UjClQ0DjrziK qT8lfD2ARm5KxbbCfr838Icn5pUOAQ2/0ki+TqdBQCtnxWIb4zotHYBwhlnFxFfrNMIS5aLa5Kqt 7UE4u8S3cCqnSdWuCxsQ8boIZu7I/ZZ08GLjiEQzpSngM78XXIlGqMEQdVAlH7QoQIkk5czR4DuM 5IVFzBbE3hLB/CZex2QxWMllGEnJmD292qt45KcemGVib0PfFIQySyzzZtNzKAgh8ZwphYQlXYI5 0J119CQR7b89GXpzqzk8mnOxO5N/VU8ZNdiMwgkIZJY41s2q13gUbWIYlTPNvnacPaTtzXGPChjz 8MDLC8TNw8Hs6qeMKlhdQOJKk0BWiWHc7PqMRhEg0YypRKwdB9MoTF+kwOUDKIRLvgmJ11XvNBZV ayRdEcIYJIJZc+wrHkAbGEWVgB3H4UR+kAh+6eQBJqLjYBo+mESgphWDCbdOECMEN2WunSNyZT90 ytNpx0HHoSQ67uEZiFLII5qKSQIgCTVj6bdEEO3DmjDnLikly3zUlI8KGX5TAj30gP/xlu/TDh+F gMhz23EwbYBxD8E1oyuvnSBqB7XdVroibzENPm5ED0GgD9FDRfgf/ugZ1z0/j9VynPLBJEdu1HlC qBzQbFvqg7xFxQ+E8zsUMUC7avRn5BtItGw6Dq1D51kAFpXgrRBA33Am25r5b260THFjzuOvazBz bdHw6jotbsd5AqgZxlJbtbh6TocbcR1/JYOYaSPWHhRSXafLLfiOt4YhTLQZQ4+I2REf1AHKK4kt BivAA/drYzNduhRv9fztsyEbjwna1oAi93xGy4ZrdBzq1qvUS/DVzds22zEvjgQAT+BOwwrd08VG G2I6zgPJXN2A1oBOQMNf47mD0EDLEro6fBXzLr8hy1q/7kV0wnv06XoJhI+yhD+D3zUo08kbIzrO gR4ieB7y9jItXuPIljrYBU+1PM2yOavaySu5UDvc1uPb3THpAkc9mIRX7av0c/2q0BjILWvHgRbW cRyoP3YDSfBUyqv4Bi1qJ7HkAv14wMJP+XgMBsFX6nRa0m8MqrkMvKRsEpqjMxfoOJgMrfMzbdFe UHCNruOnkk/pa7SmIJrh/ZUM76rhaTYI0oBlJOvQfBCGysgQoCD8vOBJC1iK42CQXntN6yNxfZ3t pZBHYRo114qohs+JNc5JP4qj0GAt0ylroLdODzDkOAQsG46DX6KL573EtXW4lzaLC1+125R2wc04 faqNRmm9xMFap+MuXDxr1N8rkc+Z4M9ZJrvacfCeaAxG5bo63UeXpWWv3G1AQf48/D0Gzf4Rpxdj Huh5fvyPI7RM3+NnfOPZ455qvocp5Z67q2qfl6Xj4BcdcXVcrqjffTRZWvba3QY1BORQGw5u6AkX ecUZ6M6b9jL97mIeI56OJmPjAwbUNDkSNYbLhuMUhufA2KTre+oT3piFwEePZWWv323ywpjT4URO Sh/ZBuubF1zuasfBq6PD10gjkKr/+ajybH1RegYPLRYVVbdZnYeTOT3scLrDt6aB/XcXiMAkVzoO nZqIefNCm0RDQE7HhGp9eTWLSqrf5Mq5PM23AklGgTgOfVO/evwVZl7apcZ9WTpJ/4hbkhGw0AiS w4oFyqvb5Mo9v2dtLRyHWhDEcWjcVi9cOPNRH1/Ggoi9XNYZu7gXVLfJl8NaRzgl6w+GhuPUr/iR BBamCthgn7ONu+LqN0qTtceDOE71Zh86ysMlJuCyDthgn7ONa7ltuI3r7uow9dtlSiLeuL9dVh4S 4jh4Rbh+jSku4YclqQIjYLeOIDnmsc/JbMFvhmRcInb9PrOKDWifglXNwo6zw9mmfnE2LeE/3uOK F7LsJbLP2cKt2BbcZlilBYI33qBZsQX9U7DmwDCXw+Fw5harTzVQBE8QPO+f6TQbJlhhn7OJW6kt +M2wiEskH3hnM83lOKM/Ns6EPsNy10jjUjGpmrBUdvzEbDBWHBpoY3OWneby40AYxp/dyZzwyqi9 OIsEdyq0om2WMyLjEtmrIrXjYBrep0b3uzTOhGL1tIMgD7XFpVJmRKue8w5nC8wqjURgkdwuhZaM vdUZk3HJRFCVaDsO3epxuGudCaVrb42H3aJS6zKmVFfb2BIxmxggfZZI7VBmo1YpWeQ4sjfQ+BIa WkwqoqTyTChFaE8OwRXxqFsYbQqzNFdFlqgktuZxWCK0fZmN2GRMys5AsqMsAktyDJxP+D/SOhNa Ok7jNEJApEWmocq4UpipkQshP4/NmDw5s0Bm6yKjHZQZo2LS0JGwNY2vPdOXaLEG/I+pzU8I4oId p3qoLSzNChuaTOhEueq1wSUaxd3KyVkgsW2RzVhjVM7WMLLmCNvpAz1882Se9oY+6PQAjoQPrGGd 9ZlQcRxI44fawoItCKSIxBvBLrQKKKOyXIExifLFXWDLEpszxRsaM5/xLntjfsEUSliixnP5FNuT uezxGAdv3L870xnQ5pnQ0nHQ12iaCgfLLntaEmmEKdiHV5arx3LFINpwEY1CPb9W4SyvZYFohojG G/O2KP4j/IDzfDJfQAqbnNdujea7E1kP0aQR7MMrk6gcq1WeycPX7lyhXYEktl+IyEqO88Z8/cV/ eVu8NW9wRbphFIJScFGDo81wn8mVkYnUbnmnDUUC4lqhVf5tDTYRlnfV/huFWQFK2JYuTSrBm3o0 wwNMrYtOlJbl2BHqbr15GJ9gwyUu4GiU9mnxIgHmobt0eSd3HFdhbfIntP0SRFp2HNpH+0y/c4Ns Q1R6UACgVKA7PHBVOoVjtMyOgzcQtt88DImXE10dwNmochzMY/V2xrn1HWyyO1aZHJGXdtUK8wn+ 2G+uB9BQnIW8BqBkoNdXlFXC6xOhZVH4EUKtNw/zZery6Y/KcSAP3+RxllsOR3GTdT53QrP7QY5z NL8WnwJpQC/JkHAL7KXZXYGAtPXBWJUyqGog/ZcQvmm6KZpOZ5LZGd5Vo9kGQKcqHQeXmDb/9W0n Ueczb9Zvyl01WeLJAT/ktUwSa1I6zlqmarfTig2LsJZgAwQfP3KMA5DJq5i8kbgo7p/xzkF0mPJ+ djsRnASdzbxJvxmV2UcZscSQQah3cMmL2HSaqaO0hRg6DF5JsEFCj6C249RvHuYlXW87XKp7PNhx cDfuEnLGmc3rUtl1w6+eBUz96lm8MEo33kDvwB+MWXzWAMKB3pE3QqdTWtHOupKR5FUI3HbbccDo rTcS781x/wSOUt7jQXmeILF65/YoLnLO5U1pbx9G5PZRZ+hl5+a8fxCnwb+92d/hKj5gjUa39lZ8 pOmkOw5h2+44Dh7c0E0asMTD/7uTOeNVYrnHg/PcnWkGmsZBzJmsSa3tx6DkXupUxsD5n5ZcIXRO 6TiUhAemc+dvvOj1SiveXVkylr4KSRu3xkHK6awb9psIDDlOUcBGDZYNx8Gb2GhNNHq12zUXV6gZ kjZujbWU0xm37TcDwvvpgzMLAR5CQfjB82ydGWdXPlQQi17llq1FFWqWlK1btx0mY1pDB6CjgLc+ tANmnshRKF6c6QwOxmvHKcwD73LHoqdHL2EE23xxSNm67RQQwpLbnm6Ylgr++tBn0nd0shffs3YG xzlTAsQbjgPHqJw/Dv3KbZtL26VJW7ds3NqSshwgrZGDUaoRRp0HukiC32PBLwceDV+lvsezbKXj YDvtV36Gpq+JtW5BjLCYpEPKrnFLCSeyJVUyd55mLtLgdBSNgY6x76u0vZp2UFk1bifheC71Gw/w FWvRGKrbvr3E3ZrYcyxatxJwPFNi+24buo09GkNd49BdiXs2bfMWnmMl4FgmnW7yZahrXLorddem bX9+ZNvIN5ZH/SZfBrvGqb9Sd27i9ueatxFvJI/6TcYM9o1Th6Xu3dTDa659C/GGs6jfZMxIl8nS jtT9m7z9aQHmxRvOoX6TMSOd49ZlyTs4tQDTQ3xeusEc6jc5M9I5bn2WvoeTSzApwJx0g+vVb3Jm rHMcOy15H6cfZVMSzAk3tF79JmfGese109J3cgYSjIswI9zQavWbrBnrHedeS9/NGUgwLsK0cANr 1W+yZrR3nLstg37OWYTOis4NVP1i6jeW4A3R1kgZf8arcm8jfU/nMNjGZOgktx2nX0b9ZhpxBERS rJAiiKQsZLy4e8UZdHUGIlh6zozjxPIb7wGTFh7yiCR4IBUtq2qi0IL6MuiTDEQYG/SN1EOny3oF wgxvaaXJaGruRJR0QdUTuZeImEEHZCACMChFI/Fuj69o29Pt7pjcze83QGQgOFQi+eOMS19WEs2p mYlsSwTNwe45yIC9IIEmrbRyV63dXRxYOkq4Lo8xJuWXVxCWFMJYtTm1fpG8GVg8k14fEqOV1HYc oIwtU6GuIgRha7Oh29r6ErSYbn5SsEVSJ1S1IgcZALZ7W5gh0aiLgGaMw7YsKGJFrHqHaLW0ZsMT jIoxLdwiyTNQNxMhAJCjY/khyah7gEaEglY4Zl9A/BaAupE6lAlDAk0LuEz8HJTOxvBk9KY0Q5Jx JlnTisxgndGfyE1h9dAA/2ZIR7BpGRdqkIXi2VifLN6UZkCyVh6ODA6fVtpInphEaxIrZiQhTyoB Z8RcqkUW2mfSBTQaWuNhQLBmHg4PjaBm6nCOFYjSMFbKSEK+kJBzci5VIwv18+gDGg2IxJG+ZM0c FB7qmSp5ePWKBBYAqyuRpLyZFXSpGnmon4UUNBoISQD6gjUzNMNNKJ2RlJSEE4M0qpDEvAEpp2Vd rEYW+mfSCTQeEIkDPckaqztZq7vZKB2QaA7kJMuaiN4TvbHYMnmYNJeOpQE/5zgS6naHOA6mMhRV EtLqycEeWd5JeXRvRoOsM+a7ktUr2/lKx8HUEkpW0tHpgYEuWd5HmfRuToOsNea7gtWrWr1Q3j/d QNYoyRjogm6/ePRSHh2cVopu603rdtY1HEeWhNw/rR6TESMd0eohj87KpJ+TihGk8erkwM1wd5BA lkx0R+07Hn2WSXcnFSNI47fnOFlrPD3zl3sGHhrkonwyOdCGQNZbzzzJ2XHm95ip1yW8iEy0TybG Hg5N4C/m5/MScnc2lycJDyJbjLENx1S3ZO04spzEz3Ny0T6hHBkPAE+ezfnwPDk86JO1vOiCxUaL dt/DkBeWYnkpkIvqCeWI1nRy2/J3aPEz6VOMiDknfb4zjq1gmG+x72SjfbbdsJzkKrEATyf42Z3M C6Yc9sY8QmB/IX+CqQaHDk08BKTBHAU5KIxRKHnCD0Wb4oWqKMnWcazl4oystDu5qJ9rN3iQXKX6 S7T35hlchUbJ/mAeigfzyPEDOMCeHAeO9MCpIOm8f5Bk1ABLPpt7LIpOJ/UBuTqOtR9U+Za5Tjbq Z9oPS4HeQEaOutdhhxKcabpAOcBhaIiceIopYCbCJSSJmEdci38HTOOwwZMLTxjA/T5MzBt7J2hm BDtJyJpsTJF/nziRy+m6J4Mjnox7PBXmCEtwi6OcbWs5zr1MUDAnYRqEZFEHOJYz9hK2czq7Tjam yL9PXEmtkXitudCwQNhDcD65e4Horu04fBbBmNOhOeNgWhXgWMY4CNjNivZxIB9TpJKEhtSDRCZB CcujhjEac0xq057AY3ABcpSilI5DUp7lrIAk87g5o/ds1nFc5BvI6+Q62dgikSBkrCc7zwHmpOSN dxbckSx8lH+GkHmsHOcF1bi8NB0H3Ag5Q044NqJk/KNkLE6r6SdfXMQbzuvgOtnYIo0gYqln29bn 8mXkOMUjTaZ8MAPg6BfHoTgu0HFap6PphMK9gcMhXA25LxDHqYsUp59scZJuLLMMiHnysUUSSXhc Mfc0aCDtGZY4gvB6RjMM/2mYwe/xjEEeVzgazRECzzT8qC5lddwMP57bsgfz6eckkjQbxZ0avDxB 22ZY0lnYZhjzYHQH2eBYAJyJ92TwD/Ld48qMZpx8ibF5caxyKrdVVeE1WEwKURpt8u4aThu8oJW9 MPwHH+HwoQAfguOAI8dppTrOHGSqDkNpbgT0G8CitsUihx8h/tZzR65d4NkyHvNwBIBy8P4Xy9QK 11EM4K4ZHz1AvFqpuELm88F1CpvNPl/hUpm9de0RvsZ54DAYwT2xEwXhF+WwdRxYEBQoVyqjVAZr 4TrsezhXYJF/rs6lMvvqOkCEKuc40M4W7Y09UPN4YwouLB0HJ6yLzjie+DqOe3mrAtPVLpXZU9ch IlQ5y9lcDie2kDEPDxjCyKjjgF81HOfJHPd4hZHi+HO+yL6fMgBZaQDfkwXupf3aWw7v24fevCbR 5u5kTvccfOKrHijGmOO8yH0rZfrdmW+2xzj+7OjUgeIGDCUJLcK9sFdznsRoO6U+GbKCOaiJTjvd ZnETKcE4eDawoGxcfaaJ0XZKffIi8lAt4WY6bXWH8QmQoBejKqHjLNd3ScnlrfkTo+2U+mTFkCEi GEfGa3fU+g1kd3zaW1ZwTe1W4eoUWsSwFcKPZRmv/VGLK8I3x7yhuj/L8gtIocDC1haW89IN764q DYfIEXJSInXWthgxQoiR3DqbQ73OS06ooDWARMMgtb0xb4viF/wpis+U5tHW0mKyXMSePAVb5ouA Z76iYUtgqwpRKt0YIzYIMo6bVVTDtVw2oHWIxEMgdZHjfE3nIl/MG0xZ3tRS+bzUkvOmUIdcPXeQ Yqmis0Sp9DoIYvFGFdSHGC+XTSiNkIQASFW8i0YR8yulcMKClhZL56WVPLkEiOM8WlYneno1Pkqc Wq+BICava6AupBrLZQtKBCQaAqmLHOefMPRCRzjIsmaWS+elFj5kcuD7TeRko1V1qDYjCWGJU+uG GDWAv8mp1+SqtYSxxirQhBOD9oZUhrtqv9IhzufPnLKQ5dL5qvV4AtPgg1vWjsPWrJHkgESo8joI Y++yBqoNqcKcXjOcGgA6xuGGf+GUZXgIF0It3GETx7F4xRxbU2jEeW0IAlYViL5EMWWUuj+RWXGz /DX9lqamoAdVBVwdRutQG0rzbrCPnBz4VHwhmi3DxxZ+WklptA47Dt2saAEbGpA40In6EKiaYAzJ E1FGqfoTLL9Ak/6R3UdM7N1wXUFVHweqFdXmk5PqAv6M1rWgES9T+CnFT9vfQSXsODve+bWjZWtm IGkJAaoIypA8IfScBh0Hr3K8MV+y45B1Q7ZrqEoMCJzc2++Ir+sSvKTy1OgRDhMPF3y3o7kcDodz EAs1emAhufXToDzRRxPvquExAO3ZsGEBDAaBasL6uvX2dthDN9rHvQE/mQYKsxUESRtl92LMC71Z GDmHeo7EpukJvEwSgWF5YktJjvNXGGo7TrB2WxVVkcHv3oRrdNhs7tV7CkTFRVOB0tPjJUouSjBj 0kSWEnbV6BCncpzAtMWvYvL97O42NLKyrviIQ26CSDw7lsuWl0qj0kQSU6rFY5yX5q5a2AY7dTWj g+dWg7UdoqJldZC3ABjklHxZ5jp5qTUuTRw5pVY5OfAmjuN0O6YZHb4oEW4LPdG0Fe6SVA4jBFMl Ii2BLclKrylhttABw3Qlt9Akmuc44iRH12WYYJpExd11stJrSphwY6nJCur3mrBpM6BcpeEWGNC6 yLDPEHZVcAWNFyRb4XJJZ44x+cdwt2ZEJoVZ0PE50Bd7M3rYWZyGvIQHsNOWrtG8uL56JaTjAE4j LKdenJEliqjDlQZsql/VXOWvskyNxTia9hnE0pJ8V4DtEwPRcHGd1LI2mBPFaYtgy1CdAdsZqGqu 9kwcZ07MeadBLE0p96FhblOcDtXXt4uDoVfnPcmniZ85Wn/GG7LL97n3xjzgN1X8sB9j3k2FY1aU KJ4TlSGB55TIwnGmTW3nNIhtNnIcerurMZfHxte390dwGfAJ+hqZOe1x2fiMN6zi73MfzBOkWTY3 RWDNVsBCkhCG6dGtM2Abg/KO1v9VUfzw+v4VHOf19SP8fguRH4pvJAkyvBY/cM7oTBja3mkQy6zk OPRiV3rPMZ0meDLsSc+GTtrTfZ6wfDzxsQ2UIMfB70TiKlpiBl8s9QvRVBhsJAlimS7tOkO2MFjX SAM/vH4s3eP790Xx7nuJvII/QejDH3Dxh9d3lDkyo2Z28xp7Y2K9/C06KsLFTHGWD6vSfASJBmYi CHU+482rcEmfwPfHSscwTYXASpIontNoOmj1w5UNpv78+hMu2Ffeg6989Z4iwLc/vYfQV6/FO/Ad mIZev+H0eIwYwdFpENsCcoyDYBEuZqpDHwZCcKyDp97an/GmH1r6H+MIFpqGasofO0nieA7Wy10T kJHqhpJfP8iS/l7fI+I4P338tkymePGjLGMxaIaF1rEtM+I49NDa46l6dg2nm13vM970Q0v6THEQ tuQ5loLE8pzgjMk5mP7Vx9fvYcEe8g4OZb7/gBGYZ2RXrXhHDvPVBzjsiYrYt2nm5dsU22Idxym/ vr3DIxdzuMN3qeEn/PB8AThO5zPe9IMnC+gD3qGYrStgW15YyxHSOhEZlXJsxTtwDDwfAAs+OYBn Cr4tvoffD3DQU6DHvH4EN4qKWLfhKou9ZsIGXTqOU319mz7lzXto6DwUxQ8rI7BoOA6lBTrGYebU DtmWD/ZyLO/IFRmXcan0OOFER4STkUkBSljGaNk7GPIReKn9LwTTuvsYJiQOcmzAcyYkXCj8dzjr RKY0LPkNwfGljBYfvivcB/7WEl0lDcek/sFVWIiLHNl7TniDv5fTBzHp+g3HPBitIbzj3KPAeDtB WCaMEFyFZTiKkYnUI2xiSzUKOQ0hCUsZLx/ecZqErHzcCFFVsMdVjADbw2hMy5ax4IQ4DSIpSxkp P/iuhRmz8FpbgUIOjtG6Arbhg7MYIY0TlhnJspWbkVFNSNJSxst3Zpz5tni1tUBBB8dIXSGb8MBd jFw9x24M5Ao5DCBRHybqaDqOTYOy1kGskKNjuK6ADfiwRIyQxgnGrFA5Cl0zN4QdmKiodBz2GYTj Y9TZOWBByMExWFfA+j1YJkVI4wRiXqL8ZI7ErKLsMoSkjCHr5zM2CTg6hqoKV7sPC6XIzXNs5MlM 5HjMKso+g0jCKJLBJmuDgKNjoKpwlfuwWIo8xBeseioriSNioSc5DSDRUcoMNnlbBLR1r6qAdXuw XIqAmxVf7ETJR14LPO6NsdCTvMbCapLDMneTgKOjW1O4mn3wkSIX17EUYxVpDT5pDPBTlU0acbxJ cgaPK5UWJW09QbJ0s9s4dTzPCVexD15S5OE5tkKsImw5wFoDjWjEozqORUGQrS/fEJIH3aZZwEo2 qwbs6NQUrmIPPIUIaJ2F2EuwiqhGHv4qlzWNeGLHQZPZmU0yieNURazKhhwb7ZrC1euBrxBknYAm csWh6VWEBId5hMUDOU71siV8kxI2Dwn4SqU5xxm+N8aS2VL21ZY5RZyqoG0N9i3N0aopXLXLCSAD 2LNh03VxangVGc2JHuoyR3Cc+mVLlz34At5J/Fy9XmmGaDPOEouR1wDNiM1xjlNj0zQrClapByFk EEtKbE3cGl1FQnOiduix/fJlS/Cf35ZJo808RHWcmXJOJivzdvvXvo4YnhOsSh+CCEF2Xd9zXFtc RUB0nEd8Lxk6DqcUlyMvOeEo7yebJpLjuNmslbkRcagkgucEq9GHEEKI36ztOc7trSIfOA7sq5lj 03HYTyBW2sluP2cZk1p6+E0z5lJLsGFRVRSqQi9CCCHDAZCENVjQ2Cri4dsvyGUajvNcvvCvlCCi 40wqObmyTzu7Y+GK4J4Tqj4vQgghXkNIUmwWNbSKcOQ44DToOOXLlgp8UQxG6HMasCeXxnGcjdbJ 71q8JJzntBZpCSOEeA0iKXFZ1swqsqHjPOFZAXSe5suW6J1kaCF0pBSO4+s3y+0X2HNC1eZFQCFw UAASi8jSNrIweGxGlXS3Wq/AYgOG9ZxQlXkRWogVHGd5C1lYPC6jKi7omF4JD8uHMj3WE6ouL7IQ Yi1uQNkxFUP4jY/9QnkO1hOoKj+yEGItbkDZERWXjNuBIh4GDOY5XlIEIwcZ1uP6tR3RcNGoHSjj Y8BwnhOoIi/8ZchBC1u2JOsyhjVcpPdQIS8DhrJ+KA/0wl+GHLSwJZqsx975RIw036dcrsQl/OH5 aPrYTGBaMpQMJs4SsCrBq3CNOs7qxJJ1j3dA9zu0GR8IR7iYM6jgYOIsw6WW1VXiV7oiUDVeeMpA G1rLO8wzwN/iw5rSDQH96pvxgfBKjjOUZsFIsYW1CX6lS3KYcjxF2O/3Bv4i7HNEwd/gwzXQrTUM heAH/2MH43YFvx1jnilK6zH5wBsd+kRGuFf9Y+0dBpKsGCm3tDomyJA3OXiOvwRjNdC4ACTqT4Av sMTSdgd6HuhJT84AP7iEvxe84YbCL/yhTEnH2Qb++GY2+AvDQE1LKx8t5ydtiPEAVQSoxRN/CcZq oO1sSMKY3JOxGh5P4Dt0oIMx+MFlmbkK1+niODsIBvwKYL+mxXWPFvSUNoCyWEWAavyIJ8AVOg7N oONHdPX0AT9l+Iwl+uniOIHvlKZGmvQSbBkvuLhKwbc815B8Zy1e+7XjGHr1BARwNx8/YUwjkHb8 AfxCPn3Uq8x5xLEGEbyzmIYXr+REP2LVIKm4oCD8SJi8YiQd/8ActCYIvZrGqp635cR6X3l9y3MF 3rV4Eq/9huPg0yiwj0/f/sbNcrnjjyej6EPf+A6/MyRizj0eK8OGuNx+l6VDiOpfxXANdIwP+mEQ /u7hR8K44DBogU9Dl+niOFCUsgShW1PDPQYamWp36bomY97pvQHk8r61eBKveZwnABwgeLIWJpYT nbQtW4QlBcFBeC8fEzAHRqAYjrTifKxKVwU98K9iuIZH0PNwMfhmAWP2R9oWYPgBPB6j6Prm8RG3 D5QO/8Eu58se0/nFnyHoCNccoZ1Vc0xmH105sGIor6MsPbi8by2exGu+uasGPzD0aUktyo4/NY4r GMmJqeg4xLkqHULUAFUMs3sx5gU9HZ9fozeoYVMvptihO5H0EMLzgpiOUdBqh9sEXBeKdlWtLftw K6NtTwq1rFQD23zDlKX9avElXut9xznhq/iwxdI/qHF0nDJruQIDpWRl6SrBgwBVhOZcmcmbtnZt v2nFakYMMmOnsdW2bYwIY0lZ2KsSb+K13necB2wMDwSoUVzSJlheO0YJTcfBlZcMZxyeCkskcSH3 ZJNAtKtqxUYFHU6eEWqsLmvvnKl/mqqwVy2+xGvcXA4EhKqhb/h9luWO/94c9xdKMPtHdLSm4zzB Snxsvy7tfzCAVXtD/lIhiQs5BDzCaWvXFsxN0Nm8wxlGG+knu0jTpSrra3wv4rVNwwqAUDn0iyMe s8DOfbnjf3c2T7KCXrjcdBxcWb1mGTPRyy788K8BEL0IScqCljBtySZkHUqeVWs4g4s97HP2qIt6 VOLPio3v0QXwWnkJxvHVfasRRFkahYyk5EFTmo5kU8L20y3UGsoy0ciiNsZoFPWoxZs12zbPsEfW uKPxYva0N7Ya3m3R4CiRtFxoyNMVbUrcXrqVXgOZnBqxa2WIZsHFlQRgzbZ3J3Nu3aoJRzzh7gy2 wEvZamBQIGWfDdIQqCdcJfAbCn2WAK3rYaXZQCaqGgNU9799CaF/MX/EhOHssnSlVW5pJQFI2PT6 LFa2GhRIHWkkJqeWpCcUCUypb8zbovgFfsYPGC016mcr2xDvNG+Kz/D7K60bwLKdHq1ySysJQMKm 12eRsjQKJExQlFIBSUtPLUlPplpUcpyvzUvx6+fPMO8QneyWGtk08i9vi09lK30sG+rSKrawjhAk bHp9XJWtxkILTiUkZZpVvKtuo99aLaxMBpIka3kh9EuP0M1INUoj4Di/mq8pEX+HsW6pRafUskpC kK7lBDgoWw2DHryGkJQZbPN5UbUx3JikkuP8E4ffyqBuF7CWtZuRDCKOg+DRzRfVrtpQtdZNNekU WlRHENK1vBjqlxBWH2auel6PSMIcqzrOSGOSipPBr/D3xX95CztTA7OBg6j9rHUjX5ZivJgvODCA Q1s13UKLKglBsoZ9cRq7wkx2rnK2Tslm27Z9Tg+qJqbbor0olAf+Pg1ldRG1l1cSsJGvzSdYvkw6 jlNjJd0yS+oIQrKGw8BDGJD4NMO5pAZAEmZwykzZJRSRsomZpshxcFB/DVJBsIuTpGOZqRGc1/Cs 2vjJAcDdMP0S7nWEIVW7gcGRXCJJAzRXSWZAEmxxLeWUeSFlA+MNja5prnCUcyQ7OQ6oPX0dB3Fs D+iXcK8jDKnajQiN61kksytU0KW4T2PWSAO+7biW7+YfLT+2wlnggQLOdQQiVbsp8NZVfMDFE1Z0 nMl2RtY1k53FdC7QJUSL3kIsJFW7KfDVdYEHkN/EtrHUP93M4Npm4gIpu0Wcq3AsMJR9gdhBSNVu Cvx0XTT+2XEiG5mr921kQfmeYoN1TFTs2KZr9TFJ1GwSfHRdOPrZbyIbmar3bWOZerJcjFsFg7m9 ZVhGomaT4KHrwrEvfhPXyFy7RRudLK3oQhHni03ncGp2OPNCyX1J1GwSFuu6eOSL38Q1MtXu28Ri DWVZ0UmYq9el3ZG8LlWEI02raVioq+fAb7xdH2pqPZAUBqzdVsJSlG5+2/I9pm0zX61LwyN5F8vu R6JmU7BM1ZGhYV1ZbANT/Z6NeBQfKsppVtsbh5bHsjpUEZJEzaZgiaqjvW9dWWwDY/2ebVgN8TF8 25blPKM5PSVYSJpWk+Cu6sRemnVlsQ0M9fs24Vd+rdKjOX3VX0aaVpPgrOr4dMPQe3rmiGxgrN6z Cd/ifuVtS4/n85R/IWlaTYKjqhMDwuUbjpENDNV7tuAtoF8FtqUn8nlrsIg0rabASVOYUCQ0jHVl ce0LtXs2EEA+vyosS09kC6DCAtK0mgIXTWf3P6wri2tfqN2vAc8dLcarDrvCU7lCqOBOmlZTYK9p kNEkxLWv9yfdwojnU4td2alcYXRwJU2rKbDWNKTfxKVxdXUZgTT1ksKm7GSeQEo4kqbVFFhquh23 QZX8hA2mqo/RbIpO5wmmhhNpWk2AlaJbchtvaQPq6iGJTcnpPAH1cCBNqwmw6qAg1vhNlrHxnHCC biQ86povOpMjpB72pGk1ARb9E8gWqzmOl7xB/cZnHFl0jCxHCKuILWlaTcCcooEG0j//9h/Acf76 z3/5dxD5T7/9M/z+42//+jfsTr/9B8wSCL8JJ7DfeAyk2YL+GaKQptX1mdEzwED6d+Abv/1D8Q+4 +Gt0lL/8I0b+9Cfymt/Ak34rfvtHyeyPl8TB/cZjIM0VnK04vC42pGl1fSb1DDCO/vE3cBCeV4o/ wczyH/5EkX8s/o6T//5fi//wF1j89pe/hoQA+IgcwW+WC4TlJgSarzaGMvOkaXV9JvQMMIz+Inth 7Di/IX+hCOy2QVCScfet+GuKeeMjdBS/WTyU+J5ZifSZrzWONnOkaXV9JnomgAn+7rff4DimdJw/ U5gify6qA5y/YYf5U5jdNQ+hI/mNk0x7ycteA3C0j0WdsdSZIVGzazOmZrBR9Gd0iL/8A+yzFegi MAXBAc+f/rX4Mx3pwL7bX/6Mx0E87XjjIXY0v3EZS6XjVJ4j0R4WVcbTZ5JEza7NsJpBB9Hfwx/M J+Alf8e7bn/67T/B759/+7u/pykHDm7Ad8KwXO6IfuMglq3jWFUYU6Nx0rS6OoNqRh1EXXhPLRCL BY+sslXth6azNMN9rOqLq9IoiZpdmQEtV3WbP/2Gp9dCsVjy6DrbNHC33z/hs4Ac8/YbdZyY9LRc 1W1Cs1T2FXS2s2u1q4YF1HEypqflltVeKvsqOlt5TsNxyHMk2MFS3lXUGiBVu8pSlvXYWnOsazvq OMo6uHsAFljLbwDHlsYcx7aa9RRrk6pdZSHOHYYDc0W/cZVwq46jnrMtnF0A94VW9RtXGYdzW1ex rmoNkjXsD4+Js8QqBjSSF6GZJ/g5yC+l1GzEDq5iso0kshZODarjrA6Jfm8eKTKJvHrTXPCHeqrX Xduwg7MPJHEcNzGH8jqUX125kmQNe8OS23SSOM4zZuWHwMyRUmq2a4Yp2G/W95wVSabbdo3KkuOo MI/gGvc4Qu45mcKwfKClRIo7+IU/DJudZMICWBoSHzHxqkAFCYlfI8l0265RWXKcTWhk4Leb8Noa hR+K4gw7ZuQXL+WMg9HnC8YeWgUoon7TYxMOl07GLVhnkHpU4B/thxXmGSNHDnPaPUwnpePA2sfi yRQnWNEsAMtHdLKroraPLQN5XYq7cnc2FzxTw5KeYWO3gJgCTpOuZU/MAaDRjiqwcxxoT4w6AoaM OWFauY58hbJSQrMAFZFMVwPbwAW33L48m/PhmTd8F+jJs6Owwroyt0jYtBe13Bg6kZPAL0Qqh5Fz 1aVP3Jl7zGrwYKdVANJ2MBHlhecG2dVrgOESsexi6CIBTPnSX7veGRsbEvZabgPGllpuDNFhCx7c wJJ9wPDyREc1jCFvOb90C1AVy7Z40QizQXZipIlIDXO1T9AjsqGjbnElvlXGSdm2B7XYFDLm4QF7 HiPG7B+xN2D5DMf850v1/Afu2lG2dgH82cX4NPRywmyQa5o3JQ8zOkfNllxE/SlucRzaHXAljmx2 pGzbg1psDj0ZuimAIkfDF0aP5rzDMSf7bHxCoJyBmgXw58xrM4GF8d0g13g4Thx2tAeKpzJFQVHZ jVVF7pCy7fBcizZhNsg1Vo6ztvFg2wUT61Yd55o85y67Y/ylhNkgC61H/UeYyhDBqOUNhHi5jRV8 XNJKBMnsSdp4WA5XdTnGf4MstB/1H2bKcSJwwjsHYQFNioKLWk87dtO2rgwQaINcM7urRo5DmT5R 6C2E3poXTIjBHR1p7nGHlBVcdoiZduimbT02m9Qu0Aa5xslxiuILCprScfzaHuSR2qPTM8yiW54i COZC4ubjsknlAm2Q7ZHRi0F0nOIz/Hz6bxEdJwyJBcvWLiHYpnJhNsj2SCtoLN5V+wV21L5Qx5nh mj3nmnWLAjnOX4Hh3mbvOMnlUsdRKmBXDQ9xXmjiYc9RxxnjikeXOo4jeIzzYn5Rx7FBHUcpLSUn B97guTXZVcuVDPr2eoeXOo4to5ZyNSE9s47P4c4wUC9ewJpqrrrVncigbzMQIRLXq1muHPCm7uK5 PcYtmSuUneNc7/jKT7HVNsiBcLWgPAHBj7A7sj3HyXCAhSE7vdbbIDsTxFbV6x5BGHqH0DNsJvCR jiNuL3aYjgHMIGkQlHUUw/gFAnj3hMEVaC9cc6I6G2DO5GQhRASy02u9DXIayBEkgOE7dBa88wGX eC8Re88L/NH/4oIOUa4DBSCNbpTA56jwD5+oeCEv4vU1mCs9eUgRnNzUWnGDHARszgkSWAIYPNFz hJKIitKDhWgG/N+4ZZvWsePAf6AMcIzjTQXL9MRkIkZoclOrNa4gHHGDvASsuUEnagPemUqAJ2OQ ZYLQE3o3LClBHAcdH2/Ga67jNVyGAvhzrtdXcK705CJHWHLTCru/DGAw3gY5AGXVLlTPqpp7Kn+i i0EGVLoTvRqOAzyCIVrrqjVlQNKrZQnnSk/VpVdFbkqtt0FeSjkOlo4HKUfywJJeKIQvH0bZLpjY UBDXwU9rHS7w9lZ8nFfW18umgpSYA9kIEpLclFpvg5wMcPbDidyH5TN7OGwD+ff7ywWP1BoKGvOw B4ep1uEriSD53jzvn/FxXq4A/r/sYSMiZUtoZRbkI0k4stNptQ1yOh5O5kTXqUgumDfPGDqY811x ObYUxDkVzzKW6/CVRJi8gxrguI4rgJ/dBbJBmaaCtC4PpE+vivxUWmuDnAl7lGlHkoYlQpWLyUmW QGSo0job5GwAL3+kc+aBIeVzISthgpC7RtE2yNkAXn6efMPOQvJynGvrwfz1ibVBvnry6lp1nLWJ tUG+dnLr2SvznGvbECgl6jhRUcdJCF28nd39763GMyPzZNez1zXUNqEN3RdAp8kG2WyPkOPMHjb3 1m/Uca7LczahDH2XEa/T9METzJvtEHSc+dNNvQxWjpOhUbqq3uV4ccCWDO3bh4Wkuzu7ZHllxha8 HU90K5+VkM/k09VbiJe3P5Sf2IdEA3nrZbWiy2BiYjqSzn9bJWM2ITsLSWbvXNqkYYNhfNEZ3dX2 JJ/OeTbll+byxZz4aSHUDZSiZyVAaBhQFAS98PIuqfdQ8Cf2YeOxQ5VlWa3oQQbKjbZQ6jhLwWHf QFL78BrcseneTLOHOIVh+7ungWQennAwmdOellkDOh94B5RmU5hB8NkIiD3DTPNEDyFhDG+QoGSO o0fREjJUK7oMJOVASyx1nMWwwzCSNASte6GNcu/2TTnGwfujIUB9gd/NxuUjnbSaBbNGZ1BF9nQK 4R4nOA7veWIA5pLLgVWT0pQbV4O30BKzlSu6DCRlQSUX7ZsOir4N0gouxgMkYRjOIk9x8i8FcFk6 Dsf5M/OYjlPROFyjIGnRGG2Ez6rRjzhO/Zn8nSkezFP55Gq5CaBqXhqOU67oEl2phTQNoTPOMmg8 MZIyBq/HwwEJSQCXbcep68Nn24bOJjCcTZC0GEzXT8OePpNXOk71mfwTRApzwZ1NCOAcSwE6foMa y2W1okM/JRca5tiu42APSBBZUREZTzSuGqYcgTPgQ9Qcgl8K4LIz49ASwIE1eWuoNE1IUlBsaub5 AnOVjgMR/kz+Pa7j8vhj5BP7ezqUw13S4/5CBWVFByqYJ6QOhbbsOIxE11Kk0WQjOAFnQaeoX8MB xzR09Nx2HHq1B719ADbjM/dUY9tIMxQAh7pkxMNOaOU4OFPicRzNKbwZoJ+jfGL/7mIeMd/d2TxR /nJFGyqTKbhfIMGtIn1cqrGK4zTaAywHGP3SOClf/IQvEcBTSs9QA6ZTFvihtw+A89CXpwZGVAvM 05aGkagbUnZZYVfQz8o30A2wjhBLWc1K0aCOFiXWOMsRu353BiXCxCaSPIBkICRpHS5mv692S/tk ZuU2CcwVGlaBdbD5ZrkXVUt5YSETGWkQyZAA2M5NPKOU87BMbroQtHWIuKvWbEZh7EyyxGw5mxpH AiHxbdLWIJbjbN1KESDD21hlkenyNjfrvu0hEV+DzZsoAmR1QKKTLLFe7gZ3UD9b4iqwefOEB00i SMo0tvma5G9zBwNkSkT5LWv2bH5r1keDM5Iwg3XGBhuwiYMF8iSS+A5m8Wt/e9ZH0yASncE+Z802 TLJEs4yIIb2bSfza35zx0TiIROdwyVuyFZO4a5YToYV362jMDdB18EVAYQktZN2+Q3FJY4nP4pSZ WVcjH3z7LilBZXfu5P1+jxdd8VmaZTi32GXNvhNhHWSGrA65mTU1umGCmdm9hxkvAZY2WrPiMCtF dRAZ9XPUcEWFFG+cu7fGq6Pdx1ULKu6zp+jAIjlFQIlZ4WXPFWCN6AbwW8exZ0NCnSDhBXjvKVqz UErSz6ls7n5TmMvhcDimGzKZ4NitgaFR5df+KtIvlZH1uzLHoWeQ+EnXW8WxT8NDo8pPhhUUWC4h q+dSPG1/2FA+vIc/nVd5db9qhE+74n3g5Up6/dfmcevQONCoSi/GJL7yNUtDXdOPfWRuC4Qdh770 2nmVV/87euBIkGl/BK1xJX6sctvkMlpRjkxEGWNMOus70Z20y9oUDDnOPT7FSyZovMqr/+ov+KN9 umfDz5Zn/6K8SfIZquQ1gEQzZFy2KI6TsSUqpM/ABbqv8mLpMV4uwVnKt5RS2pF389ZExGXZarrx Cnq+f4CBOtLSlAZkm96TWZkpU92u49Dgp/epMBDjV3mx9LiiXILjyCFRI/PqTDyi3mfQcRIJPklT otPpBHvIuTBhLZf3OziYPL/eGUA8AWTtvsqLo/BLAVyC41Am3I/DtDR4Oo5lP69NlkIBk+Zyeb+D vYJ5dlCX2nG6r/IafPXXDiMQoJdLzr62KAriOOYRxQBQAZIOIxDufUliE+Qpp1hyggi7atvostJx wB+6r/LqvvoLHYdXYgFg/M2sMSkdBxYv8kpichx6lzl+VQKO15pfktgGOcrJPT1NeMfZSo9tjtJx 6BfAAPyRG8ME0/uSxDbIT87AprOtbTM9tjmajoOTIQbgj+ZDcBxMoUTKwG60AXKTM9n43UqHbY+G 45CzUEDC6Dhy3o974IUz509WctKGJw1b6a8N0nScRqB0nN6XJLZBRnImdJuczHB1NB3nZX/kkwLw XxwH+r39JYltkI2cIU32Kkt7ttJdW6ThOLuLObKzwP/ScXpfklDsCbulcXacLfXW7sDPP6HMM3LT 2OwBtq6RNB8CVaO4E9TwP79+D47z1fuP30LkD68/w+9Prx++YXd6/R6zdNlUv5/EWvg7ITg6zbDj NCHnqZFUN6Tspoy4DPc9maiENfnrj8WPoODrV6jmx58w8u4d6fwKnjSo+rb63MhDbPg7Ifi80/QR D2gia6aQnIikXCs5OU5wa6Ny4Csws3z/jiI/Fd9x8g8fiu8/YpYum+rvvZE7Z1Bq/CsfX4PjBXpi 7ZmOGGgYk/PIJ+royNv9lhusxwkpd5Xk4zgRDM2O84p8FE2/gqAk4+5bl231tXkp+IE0/IG/+vE1 fmLNnPcP4DB7fNSAdtfko6hg6v0hygM55C8lknZlfAWb3df3rzCIeCh9C5Efim8kCTK8Fj9wzjWI Y2ZW4z0c00jkfVEd4HyDv1021tfkKxLAv/LxteqJNVjQeSs+xqk+w03GlhNcYWGPQSTh2vgBNsEy rr5/X+DeDEfgcABDH/6Aiz+8wgHBGsSy88cfi59eYWMAyoCCPxbvPhTv6UgH9t0+gtpdNtbddLmQ Pl5KAV7gb/nEGuzMHVAncRx+2g1+qUyUk73DTkOJVhMcFMUXJaHAOfLz60+4YF95D77y1XuKAN/+ 9B5CX8GRAfgOTEOvvLmOyIChg/HuFRyn+O4jnUB794oqvX/97gdSHNTusDG/kVGKQssfy1/fuWLM 6dCYcXg4QgIFYjmOhBpQGr0RwYZcnQZ4/SBL+nt9j4jj/PTx2zKZ4rx5jod0fAL6em3Nbyo/qf7K BNoLezyd8cumDcfB53Ug8BzRcYYQu3Lr82TsOMVXvAlmD3kHhzLff8AIzDOyq1a8I4f56gMc9kQk mdfA7IOn11pszm/kHkh6jAWX/MQa3qIvT6ydy4daxHHoDjB8BmNlx2m8ahQ3lDgdmmfp+yoBwBOA FCABy2fajrLMhHfgGHg+ABZ8cgDPFHxbfA+/H3DvHz3m9WN/dyYcWZkDxZHAZpABif6DsuNf+fga P7EGTmPMPYxLGKX1WMSTbus6jiyB+uE18HYUvEzAk4N4ngP/o4fjX/lMG+S4yL7nBsAJJybYsTmx Pb/ZDF3LYpzSyhWwxJs9i8MdBdlx6mfarJ6Kz4XvBs45hSM3rwGyE+h6KEc+LhoPr/GPJJTmxyA7 DqbTKtxV28yE815OH8SAzZEZ+UkUmRUVlmFPr0fEfURsmppvJFBcguI4DWeBPU8J3SxZek3dbzdE pH4YqPVA+2F4No/X4g8m0WkKSaAbgDgujlM/0ybLGyZTr7nVbonSGUN1ns3lwPdx1w+vmcdHPPov Ex7p9jkqfr6U9wfxM23GPFzBm66Xk6vTADfbKxG6ZLDGu5Ph11vWD69BCI95qoS7M99+iifQz+Q4 1TNtsMQ7HZB8x1Acsp1qiBvrjCaB+wX7GcBRP8PSZrF6CV49met6axuxDkE7x/6rfB6N3obvZK/l jfsNENYClpV5tnnlzrMB7dRvgJBGWM2e1+o729BL3YbZ6Bi8NudBfbag0HVuspaxWVtci/NsSA/1 mxYbNsfWnWdb8qvfdElmkRDtbtR5UOxtya1+M0Aio4RqdmOjcGPiMuo2w6ToybDDZxvDcRtS9tii zGuxvm3CDyEalpn2Mcu2yQG4UbHXYnXzRGoQh2dWPc0CbXfsqdvMsXLvRh1NWHnyHmchtj3u1G1s WLOX1xhT1EaKrk/WcGjUbyxZr7fXG1nUEiDRmEhL1zLc1G1cWHU4S2QVuEVA4uGQegFJuArUbVxZ w2IpB5q0jUjKIqQKQBKuC/WbBcQfDDziUveNSNFF1jKS1kfWXyP/3e/qNguJPTB47OXZOyKbIIm3 hPn//a5+s5i4Y4YHpW7X8gM75ffff5eYsoDg47rtKeo0GUI99D+C4/zvkqAsIqzrnAAJAuo42SEb NvCb/+P3/5VSlKWEnnVq1HHyotod+F9/L37/H3RnzZvW/lVA1HFyotHL/wc4Dsw6ElOWE8d11HHy odXDsKeGSEzxIoLrqONkQne7CD7ze/Gf1XECEXzaUcfJgl6//m+///5/xV21/03iii+BXUcdJwMG +vT3/+X/hXtq/2+dcgISfNpRUqK9uR7qOteC9uTKqMGvAe3FFCy3euzPMys2qNckA0y/yPbqOOlR t0mLs/2/+/geHeen13cQ+er9x+/wFyMf/gAhdalVUK/JAfteePe++AZc4/W1+PCu+PEj+cnrV/j/ 3c+05t274uM3klmJhHpNNlh1xTevrzC7vIe/H15pZ+21+Pl7mIG+K8BVyJ94H+7D6w+UX4kBdJW6 TU7M9sfrz7zgn1eEI+BMr6/vIPjzj5LwA+3GKeFRr8mQmW3Zu9efcEGTTOkyOP38+ANF4O+r1z/8 iKnfvb5uaXdtM2NRvSZbpn3n+9ePX5GH4FzzHboP7KDRYQ4lyc+7LU032xmJM5s1JTWT/fMV+MQ3 Hz+gp7yjXbdvPnwAX/oewq/fYhokwYy0abIcnuo1W2BxL30A59kQw1rmN0TVa7bDor56jxPO5sls lKrXbI1r77ER7bJSG4RRt9kg19xtY5rlM1bVa7bMzXVeJsNVvWb7XGUXjqqUw4hVp7kWchhN64Ca JlX1dkx9I1xXh4oqn1Ar87Yofi21o4RkiqZsW4nGFXVr5ThF8QUo9da8fGl+wRTUMZGWyRpW4nNl nYuOU3w2MOFwXPwmgYpJGlVWJc3IigLvqv3Cyy8ggeIAr16J1RtUUnEtXU0O81e4PH5pPkECxhFe vQbrtqakZ9M9LpLDrhoe4tCu2ufPnLYiaEL1mltksx1fO07xArtqb81//ML8Sklr6aNOc+Nss/8b jlN8Nm+K/1ZpsYYyaLMNGk0JjY4De9RplBYbGxBJRN2YjZS10IExjtpGmWQrA2RYxjiSb8UmSmI2 MVCGBIwg9CZsoWRE9iMmunBkAXUaxZ28h05XsICC5q24sglubAyRuuozShgyHU6VSEFky1NHZfPQ wMrYezzIUzPlmqAxdj2D7MrUUfKGh9u2x9s16KBsEhl6Wxt7IrW6jJIWGYfZD0QRUx1GyQoZlhkO TJFLPUbJGRmlGYxTkUM9RtkUMmoBSVgDaZGRNEXZJjKOGUkLiFTMSJqiXBcyvpvIGgukQAdZqSi3 hYx/C6SAoiiKoiiKoiiKoiiKoiiKoiiKoiiKoiiKoiiKoiiKoiiKoiiKoiiLkAd1rJFiqyHN7iWq KIqibALZereRddZIsS6yNjgn5l6iiqIoSp7IbFAhyRGQBiokWVEURblqZKOPSMrqSPOEJCmKoihX gmzeCUnKA5EJkRRFURRlk8jGfAubcxEUkARFURRlC8i2e5Nbb5F8TnadmBRFUdIiG+tr2ByLJiOq jK9RFEVR4kIbZ0Ci18OwXpKqk46iKMqa3MS2V5QstZQYIimKoihKTG5vmysat5F1iqIoSgxufFsr 6tdIuqIoihIS3cQOHunIKkVRFCUEum1lxA49ZLWiKIrihW5Sa8gWg0gGRVEUZRm6MR2DLdNC1iiK oiiO6FbUBTWWoijKMnT7qSiKosRHZxtFURQlPjrbKIqiKPHR2UZRFEWJj842iqIoSnx0tlEURVHi c2OzDalbcS+pXYw5SKjNfn+Hi7HVYxhzklCuiGKKoijxwK2uBG+ExsZ/dzbmKOEOY1OK61Qj5D/j OCt2d1hkCUVRbhTayZfw7dDa+I8aQGecOfZ6GlZRFFtucrZBhmec+wsaBJDtbhk4SrI57SiVKFc/ Vdl3xrzgsltNCTcKyc+8+oiHV8gjry3TnzFKCY8Qg0qqCi94/m+2wbqmdgtD+pWqYZsS5HV26Iyj KIoVzluXa6I547wY80QB2Do/SOBCS9k0v5gLzjRFcWqnV6sNX/2AAC561ZSUM445Y3Wwsea5BWYQ nBAgStNHVR/2zx4DUCEtscgZFnMNjrUwoB9nLO6l7WouskVnHEVR5sGtmQRvEtS/hu8cgN19nlhw k0xXdrobYDhyoGV7ximPNOCABCeGfjUl5YyDswYF6oMZ+i0nwROHyoxlqwiVmWtwpIUh/SRjceA2 ugpPACWaWJdTFOXGwC2EBG8VYy4H5ohnmugQAs1SQZvickP6BEcHAsUlvVz9QMcOMA9IaoNyi05U Z9XKaCtQRbub/3pFuWqmwapAOyA5mJZ+S2YcRo9xFEWZAjc3ErxhmmfVykgrjeANMGyND3wWS7bL kl4u8Cjkgqe4eHrpV1NiO+O8lPJwghzyEBKebnCkhTH9EJ1xFEUJjk43Qmvre2KjPJWXS4ri0jwG qDfDcDhES0lprjg+lues+tWUzM04UgFsxelyS7kejmj4OhPVzVdiJhscaWFMP0RnHEVRwqLTTc3Q jIObZHPc7x8hzmt5Awxb45f9fn+8GJhxdriVP5vLA2y86+3zPdqW54KBakpmZxxzetw/QiNcU7Ue a39+2D/gDWjysOpkg2MtjOiHyIwjiimKoniBWygJKmiOxmQAW2I5Frk74hWbF76XuNoi7w4wC5yP d7BhhmMLTHihEvUGG7fYjZsEOtWUzM04hx1eVHopN/mN6ndPMEuY01N55X+6wbEWxvQDZMYRxRRF UZYDWxmdbnKnMcFkDg4nQuKKoigVumnYBJnOODy3DCNZFEVRGN0wbIVsj3FochlC1iuKoiC6WVCC QBNMD1mpKIqi040SFJpkWsgKRVFuHd0gNFBjBAIN2UVWKYpys+iGQOCNohojIGLS0qitiKIoN4du ABDaDqohotA3LaeotRXl1ojk9xvaoJCouvWLzJB91fCKclssd3jLgllvT3iLp5u8pGgnKMpt4OXo 9mWz3Jig7rqZywftD0W5bvwc3G37kNWmBEXXjVuOaM8oypXi69mu24Y8tiMktW7Sska7SFGuDH+f ps2CWx2JtyILJFZSoZ2lKFdDCF/mTcJGppwFsirp0W5TlO0TxIl5Y+BaU4KtxxIxlYzQ/lOU7RLI fWkzQEiCJetuOhYIqOQIdaT2pKJsjGBuy5sAQlKKN58kwfzbH7+UtOLFmLcSZNbabLAkEtk+rM5t b3Rv3gCKsi3COSw5vyBJjRkH+PULTDp+hmB7xlljyiEJJLx9bFW5Ho0nuK6uVZQrJqSrkuOXSBrO ODy7cAh//w1WrzvjNCW6Aux1uSq1J1nQxTdjG0XJhKAbJPL5CkmsZpwvfqFjnDf/0982ZqGKiL7f lOYacFLmulSfw62nb8o0ipKewJsj9PcGnIizi/D539NJteZxT0Uc5+d2JXIduGlzffrPYa2xZLsx 8yhKMmJti9q11sc4/xEa/KWdVhNeFNzyXN/WxE0jssH1GWEOG605wy1aR1FSEM/X2vU2ZpdfjPn0 BgPxZxyLTc4WcdUJzXCdlphlRnFed5umUZTVibkZateMs0sNzzNxZxxqSMLXhatWZAlAojfHuPKc fLuWUZQ1ibwRalXemHH+5W8bae0ZJ5Q81I6Erw13vcgaiMRvkSH1Oem27aIoqxHd05zrDyPQ0Mbl inC3ao2k3CZdC3Dkxo2iKCuxxvbHsYUAAnW3KtdHS7vmucrPdLj4IjG+N4OQFERSbpeGETigNlGU FVhp6+PUiK9EuDW5/u1HS8PqvCQ+5YQhWHz+uvgSkvm9DgCZpUTSbhkxA9tCLaIo8Vlx02PfkJ9I N7M5bWlZXwn7+rMxL8UX//N/ofjb8nZANkwNp906pSnUIIoSn3X9zLItH5HKDcgt0NazeVatcSIN JpzqlgxeVyGpN44YQ62hKLFZ388s2vMQ6cY2HG1d6xnnn/5KkmC+gcOd6pwac0sWsoBHDNmN4oqi xCGRj0026iHRDW4zWvrKWbUvfgU7yEENHt/8U3u+8TLx9cFjpvpV2yhKLBK610jLHgLd5taipXJ1 HQdvUcOzapjwggktbtBM4/CgqYeOTjqKEofkroXOLSI0gkvwLL5lmmpXMw7dOfDpTX2WrbpzALlR Sw3Cw6Y9eNBeElQUJRBX41W3vYFwV123pjVDEw6ik46iKAPopsFVfd2SVvDYGRlBOrIURWmhGwXC yQZqsAoePBNDSMeXoiiCbg4qHOygJquYnXAQHWXKDYLDvsFBkn3Y7+8kNMYhZ1dDM0hQAXPIcg61 WY3VhIPoUFNuDWNOEgrG/LyV74yj000fG4Oo1bpYDiQdcMptoTNOjXr/GNNmUav1cbCJDjvlhhiY cU4yZdyDJ+xgCdFn9ApjnjEZuL9wvJxaHiRqHtl/gIFchdRinnKccVAwCSoDjBlHrRYAHXzKrTB0 jAMTAiQ+lc+Ugzdw4MUYukJzNuaBEs7mgguYWe5xCVMUZpQpppvrzpgzTmDFDmciDGSEerwF3e2i Gi0gXeMqylWCA71Gjkbw6AamF54wIEs5KZ0odORDH+RsjnToIvH7wwGmJK6mmwsKnzma3aYKNZeg oiRDh6Fy/Yxcx8HDkHLCqE+L8dkw3EBXwCzSrYLzy3oG55q6GpyNJJQeFE+CipIWHYzKtTM848CU UK+op4oXSuvPMNXBC1HOOJ2KT/WLH+H4SUKJUQ9XMkNHpHLVDM04eKHl7g6GPj9XAwE+3NnzibYn Y/YUx0MhmGwg/sjRE12x4RmnmwtvL5AEqCcLr1LnVjJEh6VyxRhzOTTAOQGmBjpoKe9ZAw8wp8f9 I8xDfGUHJhNz3O8fIQNNV48QP+z3eCsaTk1nc3mAerq5aKKBbHT8lN6nshBCUQbQsalcLTi4G8AU 8wITBa878N1lkLo7wnTzUh6zFMXd8QyZX+TQRuLnJz4U2kENNGV1cxV3z1DN+TGD53FALgkpSobo AFVuFjnUuR7Am9WdlczRUarcKFc246gjKxtBh6pyi1zTjKM7jsqW0PGqKNtF3VfZHDpoFWWL6O6i sk104CpbZOjJm9tBvVbZLrq3pGyP/GecaBeM1GGVraNDWNkYNzvjqK8q14COY2VTyIyDm3V8D8D5 sSh2h3P1YCelY7R8YBMT9ieaBHZPUMCc6AlPyEKfJgDKrxfw6uoB0bEWBjPuoRJuE5YIrwpHhCqV vOCBU71U6XoBJSWkKNlTzTjGXJ72+Gaaszk97A8QwJkE0yGKUwW/cgCikPP0SN8ueH7YP+BbbO6L nbxQgF5ugzOFrH6qXoKDNQ21MJgR33uDGR6K/R5W7wNvNqBmCSnK9tHxrGyGesZpv6ATphA8jqnS JY4JtPl/MOYJl8ATzgwy0WA+/CYozBNyLuxOZpKRFiYy4ivcKC4ZAgH1q38qoSkHVZqxpWNa2QjV jCNvTau27xyo0osjf7OzXM+fYWMoLN8aeOFsjdXHyRYmMlYf3pH8QVDXVKJQzTiJxpcObGUTVDNO cxqoA/XmXt6zWSbUK+qZAQ5u4FCHDlDwQKKGU1oVlwHJIVTJRPgZR5pQlNDIyEo4wHRwKxtgdsbB c2TIhUPl+ufG8OZMD8bc78qP4vAJsSYjLUxkDD3jlFOaooRHxlbSIaYDXMme2RmHJ5rdmc+W1evP 5W1A+/KmgaM5v5Rf9LyDRLpag1MTTUIjLUxkDDvjqDcqMclhxqFRrsNcyZnZGYe+ZgPwsUu9vri/ 8ApzKe+LxgQJ8qfXCJlQxloYzygzDt4M5+1FAapQNgWOmjX7XBpLP850qCsbpt78bxl1wpuCJhtC ElagbCuHkbaq4ooSkmuYcdQBbweaZxpIcnxymnF0yCubZfszjjrfjUAzTBdZFx9pKpvBpqNeuT7W 9OiFbEBExReaW0IjddsiBfIZbu4qKErWLPHLlVGvuwloJA4jOdyR8j1kdQ9Zk9OAm5BWUbbGtP9l gXpcB+4z4VzeYbgU5xOufOthCcpQvy6v/1jWLO3qGNKshawIhdTaoFrRXGRCLZ6ibBp2tqzHc97S JUHuhEfw/alyv/tq9Geces4KNONUUO2IxKMhzdRIeiZkJ5CijLIfGa3sWYgkZEjWwqWiMePge1TX tlB3xjnBAJMHhoPPOGtTykJuUcFpaclEDEWZZXjGYV9iJCk7MhYtJc0Zp7JR9SCvHG9AAL8oAbEH Ti8PhgYy0uO7EoUpjKaPbjZ+ghd46s04+MIJfpNFPeP0incTRqpLTClLR8UaSUpBTnZSlHGGZhzx H0bSciNfyRLTnHFgE0+b8HP5WaL6NUZyfQW29HSp556nkoGMWEH5/b3y3eHdbNVbjHY4c2BAYGEg OxUvZ5xeK52E0eoSI7KMioRWLZGk9UjRpqI4ALuPTcrdzZbf5DqKsxUsPdxtJXTkcpSPFQFn/koE bNIpCscSsub+cLgbzIjjojy0geMinKd62U7ll/q6PSPTHzSD5WTG6RXvJoxWlxiRxUYkMj4hCSuw amOK4srdHnmCjQEhH0hjN6nh1LzIVKzV4R6qkcTLgXkqb1ST1QxtzMsdjNYpuImMD3QQwp/XG8jW 2F+B2UNCSFk/TFWQQ2YcKchw8QaQMFpdYioL08IO0QqQhJis04qieNA+q8a+0UDSs+KG3Up6pURS W3QmEaSfVG7TZV4pGc/4jKe7XiR3L9upujmgPO8mVDnprF0143SKdxNGq0uMyLJMJOkyQBKiELl6 K+4O1Q6DonTpXcdhryiRxIzIUqiYcEcIkjZBf9bAK//lQzEXnjTKiQTWyO3TJ5xSxjNC/AgHKnzy q5cNDoEkAYZTU8ZamN3FXM68rle8mzBaXVpKUTxFon5EJB6Y9AYbujSsKFOIS2Q4cnKUKQZsfkaS LBmYcXCTbo77/SMcZPDKaiKhO9b2e7w3DGeT8Yz4bI9c3h/IhjMDVHPETE15m8LA4Yqs6xXvJoxV l5ZSlEAikXKIxK8GnXEUV2DIZOkMV+iebdjqiCS409zI19zRF5BeyudBq4lE1pyfykv3oxkPMClI EOhkg4TnC1Tz2H8eR0IA3qoiwX7xTsJwdWkRUUJLBHoTEt0+OuMoruQ5ZK7JK1vwFoeQFCVDpHci dZIMgE0PgbHbXxVlkjxH/fVtjsUxr0+x60T6KXJ3bX9I6DGO4kaWA2bbTtiGtymAxJVNIP21SrfJ ANnkCNEZR3Eix/GyUd/rwluR23DIm1E0JmTErZlRZxzFifzGy+Z8rgdvOG7LE0VlRtKUJYgN1YjK NZLjhCOBDSLbitvcWIjuLWSV4k7fdg/43jnmUt653qV6m4ii5Eh22wTwJgltC94Q3PgWVozQRdYq XuCdYc88ndzhA1XDt4atfcuY9q/iRGbDZYvDF31ui3JHQYzRQlYpXpxaD0jhG+iGHsSCDlhrxpHe BSRBUWbJbsKRwCYQf1OHayFGqZF0xQs4wmlOODTlwNxSTzD08Gxt8rEPIV34fa9QTj5KdNzhw7hA J+PUxCVZSiRVUebIa7BsaOyqp03AxqmRZMWHvh0ppTPjVAkwb3Q+hMSvrtvLy1yhMH2TCOLmGROe eMqBjO1vGXWB/H1knaLMkNVY2cjAVR+bh21EcETSlcX0jSjGHZxxOh9CgijHAJ5hZOIpoxSAgnDg VL7/SL6Y1AA70hUpqihITgNiA6OTfUidyAaxlRirDikLOdUv3Gbg6OSElh2ccToXeepcZb4qpR2g PiuROalEUoeQHH1kfYUkKzdKPiMg98Go/uJMx2BqQD/wZd4SZCB+j7/lXAKHJ7jghM50cWpMQBwe nXEGb0foQ91ZI6lzSG5G0pTbIZ9Oz3n4qXsEQw3pAV5xqV++jZ+dwGMevkwDlDMSzyByVQagDyE9 GPPEUVyDF2pGZhxY2/p0UURwMAiSolw7uXR1tmNO/SE4atHl0PeDTofD4YQBvsqCnxp6ok8Lndmu Z3N5gEmj8yEknI+eH/YPGKc7CkZmHKqv9S2jFYAmGYkrV0omPZznSFMXiIdadjEPzzjbnJ4bbxx4 gpTLy768jrN7kTNqnQ8h7TCfOZXxsRln4FtGq4HjApGocm3k0bX5DTAd9vFRCytjkPshEleuBJ1w +uhIXw81tTIJDRAdItdDDn2Z04DS4R2Mu4OcqZlDTa7MQG6pg+QKyGPCkUBqdFQHxeWLKXOmp/XE uXn1Yobq6sQ8cv1DyRgZARJTNkn6/stkCOlYDo7LjINM9YAxlwODF7T5Rqt5dMa5QrD/tbM2S/Ku y2Ds6BCOg+uMA4yWaN6li++c7L56xZvtzjgDN67NUE7EDhNybqjPbpTUnZZ81OjAjQFsvpsE2K61 nwt5qR5l5Lt9X6o3v+yfL3A49CxxaRoX+xOFu/mLPdSF8Y3OOOXDOUdUy3Ye7sw4QTooBaiyeu+2 SNxfaZvX8RqXBcc4o7RnnHt52ESeaHyCWYb28B8g2+O+jlebVNgeX06Pvfw4z1ye9ntYyJOT22L4 BQSzdKaYzc44BCitXrwdUm/yJbA+Ok7jE2/Gwe6DX2hAtpV3nZe2PJ4oezXj8Ja4l//JGPk4M26t ObQhylfaVEC89ZK16sBt/9x8nrPMQEtIR/DDBuWHqiFYPjG6DVgDZQOk7Kd0g0TH5ypEn3Eab6Y8 UhDPMV2en6od/WrG4S1sL/+lPg8FR0ES2g4gc/uYBiwOavVmHDj0O8Oh3wPkb9mDlnso9Lzf4yQs 72YDK/IR4KZAp1avzp2UXZSobR2Ym6Q948ARCU4V1JcVtObuCa/LAPShsd4WtkljBbDF6zisRBNK qbUSpaqETlyWsoADPjoGgiOn4PdlrETZr0qupOueJCNDB+Rmac04sFdO3dg7Ltnv5cQQ3s4Gi/Ym tZ//uf7C5Rav4/RHM6WU6ram0f3+6YCTMYbLDB3zwGqcpsc++7kRQEdRU8mPZD2zfsM6DjdNY8a5 h8mB36B/J4cy9LFL3D+HbSY/qbO70Cmizia1l7+4mAsl0Ef+MbApYEJpH40cSdNS3WrGgZnWXE7H A94hgfEyQ8c8OzqvVl/b2jDq7XmSrFPWbljH39ahTUjJiacNAN+qT8hMgjcAMDShdDap/fxVgZfG 4cB2gKlEphyYTJ9wgsF5uVaXD9zO5Relp8+q0fWeB6hI7i/YOtitErwhaDQTLi/nWItEPQLWkNAa kPUlrChXBUwh5pkOSXZ4IMNTB4Q4SQ7cznJIuMPP4mBgbMbBY6R6eroC0CQSvBXgaHbByznWIk13 rNnqDQ455aZ4uOAYJy6wjXnGYzfa1gBHPqahmQc54O3UjZvZZIkTkXgJVLbpizh9at1ug+YFzygv 5/AiSV+s1iiOtZsabMrN81SeLVzI4zVcxOlyUxuC5ozTfDlH51t8uLPBr9uozqEOfKxPXtQRjhT9 sFKbtzTIFCUM+00+iWPDzWwP2jMOHNTyGVV520b1vXG0B36PHE/LUpd3M2BFeL/Jgot6WLU7Ujg0 8WpuElEBRblScONj95acbXIbW4X2jFNucB/qY50nmmIgXQ5mYV6B314GzBF+MKzeAys0iOPqBgaW oiiu3MC2YXjGabxtg8P1BR6+1tfLADnCnlAj1jZ/9PZ0trlO3F/IryiDXPsmoj3jyMs5ILWePmiK qRN4xullaKW4gSZ2RwoHJXJXxxL7BsnKklYv5I+yR6ZcJTiMJHh9tGac8uUceDsiLRGD9793Z5xe hkaOcKxr97jdfNWjaFVszbiSvdFp6quX+MDm4NllnXEUB653c9GYceqXc9AN8+w34E+Y1p1xehmi eNSqRo/Z2PWOn7VxMOM6NsdbaCTIQLz/Qn4cAADGdwe8xab8JNvAPaGPkHCGOWyHj8hVn2brfalt y/R6xqmrnDJvFxkv1wb6QUX9co7ivnxu6yJ3onVmnG6GRo5wrGnyeG2hkSSoeOFkxpXMDvNAexaA XTDYies4TPnGfToiOu73eCIOiw3dE3p52uOR0tmcHujeUHRKyVd/qW3LoJISFHoJk/TLdwAjS2jb zCqqBGZFe0drSgdNKBztiO66gun7jVBKbxeNEx6qdDovPX5PKARo929HBWATKsXuNj/lgGZdk/VT pqEqJkpcy4wDTCuqBGY1Y8fqVh0v4XA0JJp+DeP3G6GUkRmn86L98XtCq/IUaOTjL7VtFuqVjskG kqbhAoDEu1zRjAOM66mEZi1Tx2lnwiUUV1wticZHJBoPmFDad6eNvJCfE1o36jRzSb4qoR0QZQRe kS13h1qpDqJAW4WBpDmkCCIpAhixyagg2wJVkaASl3UMHaMVHSRBcbYl2h+RaERO7SkHJhycVOqt 3ZmF4ATILNdKH0+n3cQ9oe0AFOPYFhg9wpAuASSBkCQ3BaUMIUnE3R55MoaW5efvroCuokocVrFy +EZ0eATG2ZrYA4wkRAT3q/mF/MUd3gFAUwXMEZRUfUmN03cQo/RHjo/eE9oO9L/UljEjMw5oXiFJ hCQ59pSUESSx5LrOqpX09VSCs4aNQ7cx4AGKHy17vvmEFkb+7Y9fctKX/wKxf/lbjhCcgZCUmDRf yF9e18eZBpEX8uNUQQG8DY3gWzzH7gntBnpfasuXwe29SM9IGiFJgCRYIoUqJJm4zhmHdJbQZuDO IU7lTTI5s4KFwzaBlpWgEoyWSesZB/j1i6L4+rNE6DvOhMQJSVLiM3oVRRJKJBWRFERSLJFCFZJ8 5WxOUdiVku+v4ZcHysc98yW+fUO2cDsDf13aRsUZ520j9MWvPNW8NebTG0rnnqiQNGUlekcY0g8V koxICiFJtkgpRtJugI0p27xVBg7vs7/PMrp1wzVwW+N+Vdp2rWacL37hYxwBYr9IEPuiRhKVlXCY cSRBkERbpBQgCTfCpjRuTTIiOB79yqfUum/S2D9f4KioeiFHO1ofNfOZ6kY9wV7JEdu0oerf1CDY HG3TNs6qff731YSDp9aGJxztmZWZvY4jSb2OklRrpNQNdvACYyWiOeM8SAQWMI+cHntv0sAMj/sq 3olCue6MI/UEfCVHZMMGqn47/b9N2tatj3H+IxieZ5kjzDeNwx1C+yQnwEWgtwhJIb9pIckls9f/ yzJz+a6RvrnyRCYZ4AEPQug+TVjSsQh0sEwh8iaNKv54wlKdaB2vZpz6Rs92RR7EtGuYToNabnDA r0vLwPV1HDyRhpdu3kIXVDcNlGin5ETpI31vwZQSSRJmZ5yKm/TAnr2yhDuWuXTOjvXepIFvG7w8 P5WnxjrRqlzzrBoR8pUcEa0apGqwiYSUeLRs3DirBsDcA/OOUN05ACTrl6FbpecofUeW1/ToIjHl JaPr7GecyfqvFxhhEsqX+hinph7tTSjp7glvaQP4IYB2dHTG4TwlnLaUeDYNUbO3eoodTTM3Zhx6 BAePcITGjJOqY8AX+o+DztLJZ1tsK0y6ycBKNGIDC2NALgndFGgdCWbK1Ixz6gpf7Wnhc9O9aFWu fI9HFe9V5EHAqtr4V5x/b18P7oZO1DUw9gdeeTNLZ6tqtZHdDDN+MrB2ybtqbtUZM9d7asbpvUkD Dmj4uejdBU+Td6LoXDQUyvd4VG4S8pUcsezpXa9ON6viauxEnQM751av9cQz1IR8karMILkJyCoP ad/TK9e2yoyjjK92OKuG3KpDwlCRUI5MzTj9N2lUL+TgeaMT7b7Ho64n5Cs54pjTs1ZUTYLKSrgY PFnn9McFpdSuwa7yYi7sGCf5eEGZQZa8AP/iXJf2Jw62xZynjK93nHFmW7padGsUkijG9KtUOzgJ 9kZP1z2WM07Fs0QHZ5yd3IEHB0R8cmGLzPrKbAZ7Ala1MXSTFJAItvSpEvpWOzcRdoZP2T2n8gmB EthPP+Gg6cw4T+X5ARlMgzMOnlR4pJPUZentMessQb2pNOcNcruqB9c7vCU9arzhIZ0F89ZP2z/4 7LMEi3s4MMGPE8CinjPgeIWmnQNfDS8PecoMsiyjdAh03sD7D0ewcJf5HE4Erm5L3Oq2Kbjewe24 vMJb7dOsmOqC9N0DxzRylRM/QwCHPHTMUz2gyjNSPQFBHlqOzDgQeH6qvuG2OWzcJbRL3bKL3qru 4FRBNc9kTIZWS1nMYEfk0jt0G9rpcDjgdCPTD95J87Tfwyp6kACObF72EL0YmHF2OJ90ZpyzuTzQ 2TmcoXxf25EMqx4J3m25jIMUwGCR0K0RVPPAVlxW3e32Za7gtrhC0jLh4Rlnm9PzQ7F7ltul8c22 l5e9nEbbHWCqOR/vYPK50PrOjLN7gdWUAPnbt1tvB6teidB1N+2p2fnCagTcDIS14ZLaAiqjKC6c 7Z4gzRA7l4nhWLftrTesfTDVQ5pwQV063ShJuN8/nLf6JI6t08Txrdv22Nuec0LoHtCAzlUFUkFR nDkYc97oNRxbp4nkXLfus7esf5AtdjADulak042iuGPtNrH869b99rb1999sh7KfYz063yjKAuz9 JpqH3brr3vi2C9T30z+M+dxq0flGURbg4jjxfOzmvffWDeC3/Q5iPadKdL5RlCW4OE5MJ7t5B775 TRgYYLkFAhjPpQqdbxRlEU6eE9XN1IfVAh4bcn/j2deg842iLMLRdeI6mrqxbsnQBMts4G066wq0 lxRlGa6uE9nV1JPVBMDCLbqn6WyL63yjKAtx9Z3ovqbOrBs0BIzgbgU/w1mW1u5RlIW4O090b1N3 BtQIyIJN+0yJu4O84H0Iu9Z0vlHWAMaZNVJkAyyQNb566tHApoZRPNzdaTr/1EfRrVrSflFCgAN7 BslphRQZR/KlZoEga8iuTo2oFRhHd5nO7Tnj5OO6ymagLX4PWbkS0mgHWbkai5pcRUz1a0StILg5 x2TeiRlnvo0EPmoDmmcJUlwJjhi4RFKzQ8QrkdR4LGtiHfupOyBrjIKN4GKK4awH8qqK3uWc2Qag kISSwaL3kLXOSPEOslJxQownSOKmENEFSQzIwkrXMqYOfELNUGHvBlP5usc4WCsya2nMszYsWhNZ ERNpqYGsULqIfRhJuxJEKUESvVhay2qW1YFOqBka2I79iWxjM06JJBONeGdNTLDVEklKi8hCSNJN I6ZAJOXaEW0RSXFmedHVrKyjm1E7NLEc9OOZ5macxto6gX+jwm0RkpIjIiEiKdfEtFqkNSEJt4hY AJAES5YbbUVz33TPNnDu3SunssfUuLe2GVbSRJIBSSAkKThSPSIpW0GkRiRl44gyPW0kGZAEBRGb AJIwhV2uYda0u/axoIZoQ+Mcf3A5gq3NpBpBEglJYiQtEFIpIAlbRjQBJGGDiAJEN4XjyghiJUAS +njZcM0O0M4uUUt0kUGOSEoXS5tJJYykEZJUIclzTGeUumwr2xai2+aUE7E7yErFFrFbz3L9FBfW 7Qjt9hK1RBse2oKkdbGzmdRBSBIhSRWSPMNoVloBSPSaEU03oqoI20TWKMsQK5Zm9LTnyt2hvV+i lmggQ7pG0jtY2UxqQCSFkTRBEqeRvMP1SPR2EL2zVlxE7CArFS/EmJ7mXL03tPtLfLvuiuCB3ELW dLAxmVTQzSqJhCTNIJmRVpwit4tYIUMziGADSAbFGzEoIAmurN4Z2vs1aosKGcVNZE0bC5NJ8U5G SUQkpUn//dOSt4WsUpDsTMIC1UiyEpCGWdnI7mZev2N0KNSoLVrIGC6R1DbzJhssLYljpWef6Zlt VVGungE3EPew9o8EnqTO20CN0UUGMCNpLWZNNliUE0eLtmYcydtBVirKjTLlBOwjFk6SwpHUeRuo MYaQ8TtsnDmTDZWjyibKNWYcztpHVivKbWLhAhaeksKR1Hmb3LA1Jj/eOTF8Z8d0b/1IRUjn/dNd JJei3Db2vsCOM5I7jUepHze5XWt0L54MMJxjplh/9WxDpSijnqIoN4y7X9Cs0y+VyL/UrZvcrDUs Zpy1yEgUJRLax4tZbLnetJOoD7TrW9yqOXTGUVZE+3ghA4cqTvC0Q3Uk6wLt+ya3Z425j3cqSnB0 xllGILOJr0tsbbTvW9yoOXQTsEWOsukAlu4pSMn9/q4Rm0Ny22Zvojs4ywF7SSgE3AESWRXd1rS4 TXNsb8aZubvuBoA+O99z8BG2HRJchtu232OmuNsjT8bQUmYuxYLA0wPXlmTWuc1N7Dg3aY/tzTh6 VAYTjoSAszlJaBGrzTiMdp4zoS1W10ezzpr9oZ3fQQ2yBXSjdR48rrm/8BZEJgVYlufenimhOhN3 pCjlkxSJkW0raCKrCp12jdxl9rrNCwvUa7SLdp4jYEkJBaJbH/eWRGKjvd9BDbIBdKO1gykHOB0e YBoogbQHCVxwARnOtPremBdYnORYaHfhgEwa7UXJSWaMF3PhJk5lpZxNltDmnuLQJ3TY1W1U8QPs KaFgDNaIw2kNr9INbBe1SM7oxeeK3eMRZgWCjy7g0KKcfs50FFOfegOzwS8ch/DsILSnmpY1H6DW znWWZ/aMMhsvJZHgKarbqOJFDBuO1smjSSKx0FHRRS2SPXqM0+AODjPoaIS3FwJu9us5hDf+u/J0 1+mRUttTTZ2bjqCeJFw88eEUgtEyGy8bhapprUzRGccbsXlYZuqsuzoOOip63JxJdk8vF9hGPfN2 KAjNLVF4bn7GaV8jgUMdXMh1l5rhjf/9IxyYyOEIrW8vAMjNJ8Y4fOCDHamjzMbL8kQdwuFWNRJS FhFpw29Ta8xZR4dFl9uyCF8ReDkcXnBZbi18aW+XPBis4OZnHDhYqY5Biju5YIK3HVNCUVwGj3Hq eepA12RkfXuB1cnlIKSuA3ZKcFEm8PKhFgSax2J1AZ1xvIBukFBYrKvF7UEMEXRY9Lglk7Se5oAt eWDV6+3PQrwruE6w23A34fCMt4rxrWe4zTfH/f4RjnmadwYAvPHH7j0+7PdPUAbnJll/NpcHiEoM DoDO/LwMQCVfIHC8GCi0gyMfyV1mv4c6nx/2D3jcROOo26iyCDCnhELjVDGIEVwQHRZ9bscmsI9a XuhF9ic5xY+n2vC69OmJT6/gdgS3ZGdYvTvAYdEL705PpeMvMZ6tbKaKYsY9Hm29kBxUXEfoEHwq 1JxfHssTYMDdEY9Y2XZlJyDlxv+ObjY4H1uvDdiBvWEQSAztXYFrD9AMlYAATG2Su668PVAGGlWc YdPHwbnqciQEQ8dFn5uxCWwsBp7r6O+64qC7PO1x1/psTg972JrQjVHj6bjd2cNe9TPuKY9lk2Zw p5tP5GBGc9hTBkipKlCU2yHm5mdZ3eSXEvZGZ5w+N2OTkXHUOz0P+cr9Yr4Fd8dzyng67+nKciQb zCecDS8e0JRTZawvh0sORfEABpaEsieuqMsrB7nCSLadrliRWzHKyBjq3YJUXSuoZgAOjKdzVJYj 2RrNHMtLD5KxPCdTFVCUhVg7cw5eH3e+8VUxzKyztp1hz1ZCGbMFGQPwbIyc9CfK256a23na9Ldn ijowly7LkWw0fiuqZEJnHCUELo4sgzAh0SUIUH/lrItZ28w64+TDDgZPfZlkd5GTWjARUQJi8J7a kSljNl2WI9nkzFmDar3OOIo/bl7svSX1JX77oRpAUy2vam0zb2LGWd0qqThX7z65w3vE6CpL/3VZ I1PGbLosR7LBIZU8algea1XrdcZRvHFzYdqKJvT6NRoP2cRya61nZdiKNMl7W5Jy8K3JDu9HY05y 1R7ovBK4PVPUgbl0qns8Gz1CQsjMU60vZxypQFFccR02NA7TjbVVmr41X9rWJ5l0S6com2XZhJPK 6ddp+EY3ads4q6YzjjIMb5iuY3A09JjWaE5jXA/k8+iUc/+IBkn6da1m02iXnK3MOLfaP8o4liNi IyOnuYVtBAehvIBEc8dZTlEPkIT1WK3NzfTeraIdpDSxHw6bGDm8fRVJG8ERKAcjKRnTEvHNJ5Hb /Nsfv2zFza9fcJZ06q3ZYMqe4xcwXaq3ITUMfn7mF44oSXtIyQuXoYBuJMFsIV8HWlGJDMNZSiQx U1riNWYYYz69GZxxJE5I0hqs3ZoEVgdvADq3XzwL0w8kIDgVDb9sKxC5j9aa7UiqxMVtIKAH5TB0 xs9fk4REK86RMSRTA1mRHW3BcIZ5S6GvP8sjzsAXvxrzi4Q7qklidFZsCknXXy/Vy6toUMoHBOv3 muAnU8qXjYSFOzTbgdpjQ6Iq8XAcBdkM8rEZhwUkOikSHUEytZBVedGWqppxvoRJ5vPXlNaYhhBR RpDEyKzWUEm6zmrOLsXTSV5o1UjDOan+4lMYuC8FScue7UiqxMN1EGQzyIdnHBGP6SZxfBTJVSPp mdEWq3lW7Y9yGm1qwllFq3VaaZKws/BBzGPnPsb2jHPPT5oHgjqxhazInw2JqsTBeQTIGE86csaf tZYUoZcoCaNINkESs6MtGM8ueIDTOqVWhkvW1CaF7VJ2V/2Y+bn+kFJzxgllEW6kj6zOnw2JqkTB eQDIEAckIQVjz1qLZBX9VE4ZR7IRkpQfbcnK4xm8ivPpDSW9rUI166mTxHQ5dNf+ie4SoOEYYcbB uq2Q/FmSt3RKdJr9X5+e4dtsmZfm+ZnmsJeEdPTOqolgNQOplDSBZIN89JMnLcGqM2h4ZEOhoUOc 1WacRGZL2Fmt18vsjLngsj3jPAa7dQDH5gCylpAkRtKyIV+nygYrE2XYtVa0pK5nHED2kY+w49yc cXglI0nJGLiOI5IJ42k1d4fGOTmkkWsgex60xKpmnKL4BSSGqaaRUrGSJqlMlrKnTjzHCNW3Fhsz DozU4PJBlQ0ksYesBiQhOflIkim2BtqmIVtC1xsquc0WE/4NBuvIjJOlxiIa0UtAKLFmaNqSJTBQ IAuchVpHi3TWStlNd6D2QS7f4NxC9xA0Zpz7c9D7BnpYDVLMxEhCKvJ0qHywt0/6vnSnLXE145S3 2b75n/62s7/MY7ZEEnOChWqKx+EaTq0YmHHa9IvkgKNMq6iQ0FKJ++iRRhYjd0FLjDmVbyLIABFJ YgnI0p/ywcU8SftxEW15cXIpKW+znZxxslO3KVIZlLQxYWdnnHat+eAi0wrypx0OI22jUFZI/tsh od43aG0HHK2zNWO2xeXJpXWbbXfGIbJVcsr8/XUOn7PC9RLMB2uJVhA9sX2wfwaR9cowaayk3TKB q3HW7z4/WtKWk0vjNtuhGSdXDadtP7bS4hiHyLFnLSWXZTxWtw002EFWKAtY24TaW+MssM2aXedP S9ZqcqluswU2M+PM2H1ste2MQz2bneqzAq0g8kpmQfNXSJqQX79skCHDxkG7a5RlptmSQVuiNiYX uc0W2MqMM2f1sfX2Mw6wkks6MSHRCtLG3Uph7RWSNkCGvbJRZgwdCO2vMRZaZo1OC4W7pFnqNm/y QH2SZd8OyrSGoHGsAbWWSMo0OXbJhnGw/EK0w0ZYbpjIPRYSV0GzVMzC3Fc/ynlDwUhSZMI2xJIT kmJLLDGMOcf8rA22NXW7SlJIfQkHZ60Bujl8DLMhozpJmqVaNsbWUR6WUFsk2rQRkuBM2J5tPrkJ Qj1K+Bbx6pVJ1BkH8TNLrM6KgL2gWapkZ2nf7nh9lYACBBjduDlDJLqcsI7WfDvNLoR42yZMF3W5 ebMO4m2VKH0VBVsxs1TH0si+faEzTo3XwEa3ICTuS2Ana70PrZTSmAO+VuAAxz34XWnkIifcHiTO R0PVajlddpSovMezE5VssChX0OdD+SvWFD0E1m4RKIkEA5GDVvkRwirBuyoWNnJmqYq1hRf3xHc/ f3x9/73MOF/99P7147tvaUXx1R8g8vN3HIYVrx/efYPhD69/4LTX1+8pcFUs3f5gOULioQhcYXPG OZUzB4pNb0s7yxJvcaRXpcEMQ1PPPd3bCasfMAYBernnSSrbXSjQiUK1MuOYM70GhyvB97RxHL9W Hdpcy0ADhJQkE7WyIpBNchky80zLmakW9tZ17Ydv372+h8U3r68/wuLHV5pxPry++wojHyH81cfX n3gNJL2jFbD4GX6hDM1JkAjHRh9/omnoSlgwnmlrBUg0MKHrFWEFuYxTvokTjj1oidABCSTIK9Pu D4c7OFIpX6B2psMYOBRqfhq0E4W4zDjlez75kOZUv/cTphwJpYcMImFfMlIrGwIadzPWHRM0VwVc TOuQ9ZufYH55x8cu7195+QPOOO/kmOV7nEp+lsh3P0GO73hWgbkGFz+8foDf72ligtiH19ePP+CE tHVcNzmY37GIM6Grh1nhwDzVN6rVxzq8RGh2aJ2Dg1gDnDV25dmyE01dnWhZXV0rzziNVrI4q9YA hZegF5mplQMhTRKol9ahPaZyFt1NNtvMH19ff26cC6su32AAJiIB5pJqDfLVe0p9J4k/44GRHOkQ X/0A9cI0tWUc7I2DCJFoRIK30Z5DhHIOKE+LIRSuD0+QwbJw+POI12XkEk0zOjLjnOrXGuY24wBB +jU/tZIT1iSrON9t4WpS2+zfwazxWp8Iq45kcC55/9o4QVYe/fz4/gc83cZrZMb56vX1mz/Q6Tim U+kGaW9nxo2J+VpZIxO8qckZ56H6GEHxRJds4FdOvOFn2fAz6BwrLjQV1fPMAS/sdKJltd0ZB1qR avDLOxzKigA9nKVeKYkwkNXEAXE3p1OB7+GQ5eNPdCLsI00ceJ6NTprhLAOzD0xDfIXnq3d0Bu19 eU1HDny+f/1Il4HoehAc3dRHO1uks4XBaN+alLr2KA/f3uSMQ4/oPD/sH/AohU660S1s+z3GdzQB meN+/3iSWvYYf9jvny40iXSiZbXdGYfz7fcHuvGNVmSHr2S56pWMCAbJdvBsjyWmdC7y1Q98Fuyb dx9fP/wkRy/fQaQ66/bNuw+vH/7AF2hwjvr5O7zcw5MLzDO84n3jFN026VgbtzWIRJFewmqEb3V6 ximK3RNMJ+b0VN4iUNwd8ROfZZxi5kUOfDCO2c/Hu6Ho2IxTVVonZAgosly4jPVKQxSD+PSQUrHM jCvb/kPjIs6W6W5WMC40orQqAQtadnpzaxr2h3IG2pVP7mTK8r7PvxfWJZY9UnrntbDQgmsa/h0c 8PBFno3THa44ftvIikQsaH8DMw4+5PO855Nz1f0GubJwEGygF1Yloj2Se+m2WWw+NfsC2jbDjUsL SU/GEgm2MOMUuwOdfHtuPb2T7RBeNBK20A3rEdcaOfjqRvGwnNrcExy2PWRdItzaP4jMQnVlZjug 2BLMiwWCqT82iW6NXEdO3nhZTS3uBW5TBpC1aXBs/m6P4B3MhFzL7+GrWLNseAv5yRYRV7kyVSMN axgj25GTLZ4GU3N7gKO1g6xJySIhxs+qiWKIpCyhVdizrmFi1BkCN7kyVSINKxkj15GTI/6uq8Ze DBq/RJJyYJkwAzOOqFYj6YtolfaubZg4tfrjIleeGiRiNWPkOnJyI4SZ1NKLyXOUBhkTQ8jKhbTK h6hwmFj1+mItVp7ip2FVW2Q6cHIijInUzldGgA7FzXYXWbWUdgVh6hwhXs1eWIqVpeyJWNkWmQ6c TAhmHTXydRGkP3F0tZD05bSrkFqjDb2YdXtgI1WWgidifVtkOnDSE9AuauHrIkx/oufVSKIH7Tqk WkRSwhOz7uXMS5Wl2GlIY4qoo3KbhDWJmjcWSZ6pDNUmDrISSfKhXYnUS0hSBOLWvpQ5oXKUORHJ TJHnyElFaGNcj21xnDRffoLvLZ5RbuSFkGEeg9zwjIOWK5EkLzq1SM2MpDUIZ7jB6lMzI1SOIqch pSWGR+btEcEO12NYNE75VRbggeISGeHqZpwgTbLZyHyBNOjUw1WXSGJNSMMNNpCaSZkylDcRiS3R HDo5jqIViKL29ZjSmFPjg/oQxTfgS2SESDNOsvfGBOhMFLgKccCbbkXYRgNJrQg8VQ+0kJwJmTKU Ng0ZGKIanlXghoil8vUYEr/gcqk+TPxsLoXMOPf0BS/gIl/op/NtwFM541Q5eHLwnSQs3xsTHu/O BBNIKCTdStnWNZIcbaqGqiSUD6MyZShrGjIxBI3EEkm7fiIqez1WxBnnvjyv9oDfouQZ51x+rBj2 nfGTx3ewoCOhHc4zGIAcD7iEAH70GGoKsa1b/6yaZ4OxRlmvVmyoRJKYaFN1r6UMGBEpP0ETkY8h cPSUSNJVE1fP67EhfaWyPK9Gn+yiGQcOaGg1QrcWnGjeIdiyjXNxZ/rS103OOPFGWa/iakQPNxnH cFG9aBlDEuUnZSqysQQO1yaSfJ3E1/B6DEgzjpxXe6GDFZpxmtMHnUVrJMBcA79k5BKcjcKdz1kV j65EzSUYnImah1fFmqoj6riQAYmykzEV2RgCfaODrLk6VtHteszHMw6dV3vEc2oy45womaHwqbrW AxMTas8FG9zajBN3nE1VHrXhPvltLHoSZSdhKnIxBG6F+8jKa2Itta7HeDJxwHHMnTFPGKQZ50Ei wBNdr4EE+YYk7Eyj9njdgBPgCGm7xzhLezLyQJuuPW7bffLbWHQEyk6+VORiCNwQDyLrr4I1Fboe y5WHKmcwHl+p4TsH4KjHPD/sH/AONbpZDSeaw35/hAVrD1OOOfL386mKG5pxShNEY676yM33ia2w M22BcpMuGfkZAn2lhaRvnZVVuZ4RXs44cIRj+C4nnnGKYvcEIXN6qp7VuXu+wKz0WD+Pc3fEeepF nh/d5IyzpCNXGGpzLcSXoMe6DmZBU6DcZEtGzoaADmMkvmHW10JH+HWwoB/XGGvzTaQYgNltK2qB cpMsGWqIa0V79ipw7sZVtro2bSQZgBnOOe3lzaOGuFa0Z68B115caYtr00qiAZjbnCPyZCZVMtQO V4t27RXg1omwcVun0+2aSTUC85tzyh8lBzvcHTb5kET26BC/Alw6cb0NrW1DyYZgZmMfxMlMonRk YIj1XxpyG2zRrHxr2aVx91mXudvNuuvLuCw3dreaQx+uuWNv3VSyMZjZYQ6Ik5U8CcnAEDrjxGF7 ZsUHa86HwwFvcab3oA3QmUF6dNM7+eeKZ4Z1H666RXNoK90gzGwbn5c0CcnAEDrjxGFzZn0pH7cB YFA0P/vZZ2zKsEzfxoxj24Xrbl1dGks5CLNyAOiinMRJR1IzRPpqhkLkMMKd9ibKJz2JpxNH6mHB T3VyXEYMJu+fm8940np8x0D3oU9ZtorDoVQ5xUFw9EReMiyNB5pIaBXcWltXtjYrG2YSECUjaRKS gRWcj3Foa1FTbpGUNjkMcKe+xR2QY/kitJK6f5szzh6PgfaQ9wFfMbDfP8Acw/lwRJwe6MU2dF6u Tqdlq/gdTEyYSO+a5g/pZIWV8UBfCa2Da3Mri9dmbeOMQnLkIkxSMjDCghnncmjQ3Ualp9zKpSWH 8e3Wt7vyG57mXN06UNuyOeNUy2o1r8UEOW6B6QRXjeTn5ZN85+1+9LJRSmxsB+pKaCXc21tbwjZp W69gMVbvrQzJwAQLZpzG2ZccKTdraUnbtXjA0sDFIPsnPE8mE0dddHDGQfb7p8MLFKBIPXfg56l7 +TtRKIZTm3wiNC8s+q9Uej2WNLi6kC3Wt9EQpRBZCJOULVpgaMbBLcgeNzvVCf1ij3vMLw/V3m/3 jH8/A78Y8qU8aMI68ezMGUrsDlC2WtPO2GkbAgitSklaEdy/M9zKtIMDWQqUU8TIjIP9cDkdD/uy E2fyd6LQzAsd6ljItzbz/Zeghxc1mUDOJlk5YwaypGWLBhiecYDDHjc8fEYeApcn2OThjbakY/eM fy+DvPweE/icPq6ALI+wOOO1Aawb94i7GTFfo+3qGkNicuhal+PXU+tAA7qJluUUQR8rgN8yzstz dUcbGJ+WYHtaluva+btRHBUPd3JuLS9mLQejTUJOLCzGLCzr02QIUrffFCC5LInZov64ga8ptyDl bipvqurdVpwfcFnmlG1TLwNsHCUDbIHKmYSzQIAuK8AeMWTpZey2XTeVFJYlLS4zDljTHOTyDZST j6mBScm4Ozw+hWVpW16e5YM5dAWIQrCkKQfy0wTWzt+N0j0D9bSVEzOWK/XtYGlvy2xdFhZbVHC+ xIgJhlgseCCa7aeWJTFbVB+OPOSmAYQ3TPXpe55QLvWlYP7mPdE449/L0PiI8ZGDVZ3V5okCvYzd tuv8SanV3gp4NFlSft4TD22IIxu3tC3dZMDzEHLA/QbpDEnj45YyvyzbxRE4Us3wIg4IKoFBSuG7 jKUPYJ+zYkGREueitgUs8zkYJgat1hPLkpgtKj92HYdpb5gAmQZgZ7l5xr+XAVY3wPQqSzsgOYTm ap1xNghMc3KEmhOTncfDboByRFriOEC8BpRrYQdF7HJ6Se9Jt+2UsqRmi7rbzDjHescVDmrgt3vG v5ehvHBQ055oqkAvY7ftRkJKevooA+zlFGpmTHTexLbYccaBArK0wXM8OQrmpolNVkfThKTXcjpR krNF1W1mHDxZ0jr/3zvj381wZ8yZryJADrnprDnRVIFexl7bdUJKWJYcAAOPI3mSAP1VXi/Kiwmz TK4iJGaFfWbvnnKqIIoi3iospd9wMlGSs0XNaTTW0Na9t9WvLgqc+TJN/4x/JwPdTMDIhFLV2Q10 Mvbari8SpCQDEQSy1TCSQ2kxbpdJk7FJHW1qmT1AVzlUsUATm8wBlFjCULOJREnPDSj+MnBI1GI2 wzbJqGtlA9JF1ipdxkwzbTM2KiBxS6yyB+ks+0piKeJcZxAGG00iSQ5cqeIP1d1OcMAxdN5kNsPm yaRnedvRQ9YqA4xZZ8ZqYllAEiyxyB6ov2yrETUiKBJKEyeG20whSQ5cq973Fxm05lme8egwm2Hr JO5ZMS5LIcESyqCMMGKfObuxaQlJKd58kgTzb3/8klK++FUS5BWmxGx/BOsxu4pEREASbLHJH0wX a8ZaXF+SLLhRtW+ARD0r24p265JESBKjw6/PoE26huvBxhUkrZ5xgE9vIOXrzxJzmXECdpJVVSIi IiktTT6/xRR8rg4jX9N6wa52CazFaIOrS5IFt6n1LbByz/IGAJB4m/Y6iRGSpJQMmcTCTmxNQdJw O02bZ5ppcJL5pUxoMlN30D6yqEx0YCSt0uQL0ABDMOF8+rL4950px0rSutZVmGhtXUEy4SaVvglW 6lnaLiASH0bydJG1AbiaYTxkFAtDiUFLOLHaTn/5K2+aq0OcX2h9yWT1IXsJgMYlNAZLKEhaf+5E vvgnOXQrsRQ1sErTTDW2qiCZcIs63wYxe1Y2B4QkTSAZe8jqEIStLSV9Rax0I4PWcGLzXNQfv4CE f/9fzB+/LL6E5F8xWjJRP5SUUDBmamRxKzixqUk1XcLhzue/lbBgKWx4pUaZbmpFQXLhBlVOgLiK xNYhdHOiAyNplkihNrIuCKHrS0dfDyfN2nn5yAAPcFrXbfA4wfJkVBSzTleKfdmAE+sZ55/+ilOI 5gEPYStuFL0GmWlpPUFy4fY0Tof4DCNp8QjShAhLSNISpIYGsiIMEapMRE8LV71auctzUbhhxrNP eKcaHiC8bZ+MGm8hklFtqm1nEU3oVjvU6Mv//r/QDQTWmnRZa7jMtrOWIPlwexpnAW0jG0hyQBbV KdLUSLovUluJpIYiSqUp6CnhrFUrfznjVFvq6lDB7hAnmk1BAgmN0s5QaYK3qOGkyWfU/ham0uYl KQd5VxovFoquI0g+3JzCWUKbgRayYjk2Y72PrAqMVM5IWjik3isYyB0dlujULFFtp2kLTeefvvwj BP6FH84RRtuIadH5ulsZak3K47W3sAT4VukSF4FXGS8WjawiR07cnMLbgNxpGsk5iGSZQTLHRVqi BSCpAZGKr2Agd1RYpJF7mZESkQ06X3swTUZYY8DYtLGGHFlxcwpfCbyVHYbXU7a0lMJIMIZIVC8j KVulrcBifdyKjeWObs3ZBpwFcC0Qf8TYNRBdjMy4NX1vhfT92pkEIgmErQiSslVCWcul5FjeFYw5 32FuMiyQOLKWttWvYOycuDF1b4a0/braDEANCZK0UZry+yljXXYs40q2nG3FRYolEkdW07b6dayd DTem7s2QsF9X3PpjUzWSuEma0ntrYld+LNeKvSeBMawFWShxVE3tK1/N4HlwY+reCqm6ddUtP80z NZK6SWrpgygyW8d4hhXtOK+qnSyLJY6pq0PdK5o8A25L25shRbeuvtmnBhtI8gapZQ+mxURFk6tW teJ8a7M5vOSNp61LzevaPDW3pe3NsHq3ptriY7slksRI2ia+t1eLHtSIQ5WBSSQ0RNDmbZgWh5nI 4i1uLIXd6l3d7Cm5KWVvh3W7FTftEpzl7nCQUCiG2z4x9xLNmUoBBzPag50jSMooMZqfw6rNIdnD CBtJZcdqI0mRJzel7M2wXq9abcoa7IOLtvkRXCqQWBG3fgyGfbM01AhJCEEUpZ0rTWP6NNySrrfD Sr26wPt1xulSyp9Wj7DbcSdSKy6BcLhXmdYE63JLut4Oa/Tqsp1NnXE6iPgJt/hI0tbT6h6+8QU1 pu39dbklXW+G2J2Ks41rEwcqVBHscs7GBzCLn1YJ6A4J/f/bOxfeOI7sCo9JWDukKVMbUx4ZYlZL K/DIQGgasgPCwAR0ForDRLtwkI2Qzea902HA//8Hcu+tU/2anpmemepHdZ8PkKbr9rPurarTVd3s 6oguzx/83PscsOsAtMmY8joaGg2q6gUWd4d9nCLu6rvNQw882KXmBT71fofrQQxaY0x5HQvNxfQg uRGoOAXs4rtsbrs+e0qHlxH0zHserB9BaIcx5XUsNBNTVZtDD0zFyWPX3mkGeqI3SneXEvLE+x6r P3FonjHldSQ0ENIAakPKqEs7dWu/YtrV1QQ8796H6lckmmVMeR0JoUNKuWkEdWqXju1dVLu6oGCn PeBAfYtFk4wpr+MgaEQpNw2hbu3StX0Ma0dlLdBZDzlMH6PRFGPK6zgIFlFVm76UjocHLAwEcWyX zu1PYIt0cl1hznnYUXoaj0YYU15HQagK1KuCMTDFEd926N6+6o3SxaUFOedhB+lxRIIzpryOggAB 7ZncCINTnO4c3Ge9Ebq4vCBVBgt70u+gBGVEWR0HBwZUG8M+FIlPf6X/f/nw8PDjw8NXpjifa+L9 w8PnusYS8u9LWf6lLmtC13z18F7XT36l++ja/tGhi/sR3I20f4mHn/DgI/Q/LOEYU17HwCHx7LAp zPOlqMd7FYtvHr4xg6RVQn60xHcPIkZfPvxgiXcqOQ8Pn1rC9YTeuZ0edLNvRIa++0KTPaI7L/cj vFtp/TIPPd/h1xtHYMIwpryOgb3j2V1DmOOLH0Rsvv4lUn4wTTo0KjtOVz5V5XmHBPj8q69/0E6O Ln/68CD7fwexknXfyYpv/CG7pzM/9yG+NWn7UvV0Gpf9zhviYuOJzeGMKa9jYJ947lvXQvPw8C4/ EPZOtUMQEdF1P3omk/d5xflaekQ6oAaB+vLh3eQLjK05Pv1KdsZy53Tk6X4EuDZNXe7qtIBa9HPA ugNBrjSu6BzIqDI7fHYO5371rCE+/fr9w8MP9hBHtcMPpImWfGfPbHR07Z0+rflOlz99//CFKo3J z5dQHNnyq/fQqsmnX74ryVjHdOPrPoW4Js1c8sqnlrT054G5PmEuM774HMCoMjt8dgvnXpWsaX4p EmNa8/nDw/sfHx5McdxrBKJHpjWS0DX2ssCv3PI37x5+tLcKRIKgTrLiq8LwW+d04u0+xrgGTVz2 6sf9tAbkgLU2ga4xzgjty7hyO3TqR3OvGhYDXztV6iFd+DviIIe/9IrPyVo1SIGxLsEuMN4g7cO4 cjtwagZzj9oVC1/056FNiQ5cHnmYw13++mkBYTFgqks458Ydpl0ZV24HTp1g7lG3ouHHXj22KdC6 14cQ57B5qJwyQ08BYKlJwCuLP1A7MbLsDpqtsdy9YpEgtO33wcQ5YEaqJ2nSKuGAoR5B/TuUYNVj XLklpAN2bc8OpOXTNUuwzFQrjh7fgXQtwjp4SOGqwciyS0jb7NicHcaujWf/aThHengFyToEvp6h BWwbY8svIa2yW2u2H/4UbZyrAxrNlsrNLifYZdtaDDNm6xlbfglpk51as/3QU+hJmj9TZ7gMNoMe u/7Rw1/HcKO2htFluBe4Ym7Mz2FbT+GdzposlsspFqdylmMsnyyXN1isZp9zkXVogLHYEHoGAMsw aTB/O/iugYsYeNwqGF+Oe8ByubhwXElx36wBunUtFShsdrZcXmHxRk7hl+fL5QkWq6HiBGSHtmxP 9AwAlsHSXBZrH7iRKxh+5EqMLsN9QLo2WDJtyBKHUBQL6eQc2YJ0a86Xyye2/GSrvFFxIsJJTQqs ZFc69dz44saS2j4FkUFboW39dO4a/KNz6Yws5+dOMzIVcPYrP142ObqQ9OJS09rkCM4uiJC5vW6k gzPH+S7TLs7qGdy5/V6y+40fiiO9xAU8D1aQmBhh2FhSWyevONIHsYT8iHrMz6wnsrw8mZ6IPljf xKsA7OfSfTHd0Ac0s+l0Jj/TyVRSl9NUi6yToz8iHce6p6458l2c1TP4c7tzqd44LSJ9RUJXBmtI TIwxbCyqbZMpzol2NawzIb9OL3QYzBYmk3PTFiiOSIpTnsmxmWU7pEU45P806RDV0MMslpfy/5VJ zQWkquIM/j0DPYjsuaDe9BsVmDwwt0tX5x0Uo/QhC07LuFbCsci19YYfAlNsGWty9pku3iwXSDpK iiNaI+tFUVQ8nEZ5oVt3BsF6O6UDk77hSo4DpvDUPHScjYcODICs6OeYuwefLTDOxpeS0y5ZHycj Lfp55ZBeSWpAXQCrB8nvp0hXZSrGmSUupZNjBmXdGQQ9dP51atJDNEgKkg1R//hNX0lwpITfQFKk UuC1mlx9enLTXjc/OucFYZy57o6NiuPGyBxLHRPDGul8mM0jaVSKs/lclsqKI52cuXRx3LJ0cs5u /FnXncGSuiQV7sylSRWd3iHbGbDcILudpYULCkjhlU1fLQqVUp90tiM5bcSyh4w0212xUXG0vXd9 Eb0Vkx+sEdHA43xRDBGEI6kU1hWR2zTdIDsA0Nu31GaNJAbw1p0hW5Iz6OMfUkWf7pArWZ3Vf3e0 uOzUKsTUgkiAVu8JipVSIuv/iK1Zxtr0UnLaZLPiTJ4sXH1fLqxepGukx+KA8pikKLaZqEQpinoY LJo+ZSddd4Z0SU7FhzlrcCoNOr5DrkQkEUv744oHEvWIpwk5EskR5hcnuSiVKuWuud+Xlk7TP0ab 8f6T0yLSA/p0h1xJAMWxFllAsh4xNSFHZzN9R0ZBMKk4LUPJ6StUnH7RpzvkSrpSnMie5hjHEkw3 gFyMoPiwENDGGHG7S8npIzZPe5cPBUgFvblDLrF+Vv/dwP4CDDWJowkpPqT0b+QUIyhW+9u1xhlz s0vJIWQnOr9DruTwPg7kRoBhMvn4Z1iWv/32F7BNJt+Xhg+jaEJm2V9A2ws5Lgf5kGk3tqWBBSoO iRLGri16dYdcycGKA2kxYMopjvDzx5mt+MAqinJor9xcXVxcXOobNO4v1iTT/oPuNmq6+qiuGUbd 6lJy4oWxa4te3SFXcqjiaIObAaOqy2e29MkHZPozWx+h4kiIzq9UbG6uztIRa8uMcWPfxm2JcVdc NlvRwtC1Rp/ukBtBM5ABY6o4v/jNcvnhE1n4XjIvy1EqTn8YecXNChiJCsatTfpzh9wEyEeKs+ZH 1b79yNI/f/wRFedAWHHpgShh2EhoikXK9XG0g2Ma88mH5feTCRXnUFhx6YIoYdRIaKoUxz3F+fnj iU6X7slrDsvhbrDi0gdRwqCR0FQrjvVr8A7Bah+HxXBHWHEFOiE+GDMSnEKZShXHXhmAzrSvOCeX +qe388sgL5/v9krh3i8gbtqRFVehF6KDISPh2blQNVwK7QPo84sL98EHvCV4ADU1BJs1oTistw76 ITYYsVoM7Q65aXYsVc0WwqmELpu2Sd9Rb+mlwEMjQMXZDh0RGQzYdoZ3h9w8uxSrhougTgGBRYek nzj3TOfOR1OdsePqxE1sa2n946grL1O2qb7y4C3etVP9y6pF9lZ7YT9ZUrKtJ0fndt9yjlfjVw5b PnG64yqstx56Ii4Yr20M8Q65DWoXrKZLoLTyxYhJROfqHlmxmEtoRWcW59Ppuf6plF7MyXJ5czad nsh650G1Ly+mU/3eqfVy3QrZbi7b6X5mLe03lfNcTuXUOIwq3+XJ9ETVzf7QV49aOGz5xPipgvU2 ha6ICoZrC4O8Q26FmiWr8QJoXiwAv0KIzjElbhrr1HE+oGLGFhIB/XFbpNudze1LRRX7mcH9iJz4 jxzJGVVh1hxWwAHS9Ao4AVHojJhgtLYgjcHw7pBbYnvhaqP0iX+w5DFL6p5FNlA6SzeVwFyonFsi G0otSIGOti4uzwvFo7RfLhDz3Af03PLKYZX8AdZHMNueqDfojmhgrLawWprNIv/Fe4fcIshLJRtW hUTcUXz2Jkohnkndk/OT85z4U24mZhcq5mbOtii59vhcxUGw6dzX7ed+cqfBYVYOWz5AfpciOAEB 9Ec0MFRbkEYASx6zpI1BjHfI7ZJdXZ5KYzNIQ56XHHG88x/cM1su3MJEP4igk4P7WSW8YzNPFiI4 nULy9ZvfG/ZzP9I51YThJq4oH3blANkGJXKHIgY9EguM1Bak8g/uDrkDLJ8e2FpDHLK8dOpwrKOS Ob8qC/QWbVZwbfhvzHykm9rSiqudQaLnPvV9tNA/Z127H37k6O72YioR19/yYVcOkG1QAscnGd7n pOcwTtsY3h3yCDmxp2zGwh56Fdxj00gIN9ZLNeFRLnSctBDskmv9fu5lxtX9VDlke7/7E38RCydU 5cOuHCDboIS7ClKATokChmkr0hwM6w6ZrOPKhKL3oICQInRLDDBKNRjYHTIpkL2UIR4vPFbrK6y0 1Ui5xxLpLYxROCK5QyYlUi1fXqYT5fUZ1tm10DV9hxE6lPjukEnksNKuh77pOQzQwcR2h0wih3V2 E/ROv2F8CIkL1tmNyK0flkgPYXTIOHFvZzj0HQ7/avke1HhFA++MhIBVdhv0UI9hcMg4yRTnQL2h 4vQOdnP6C0MTCCnkOdz7yzXAn4HyRebW8YozlXAdpDe1ohdOcVhj60Av9RVGJhC5QRr9w5jih3HW Q6npChcw/dOlTG80GqUJIPJTREhczeb/Blf31g2zILqtr7JXFt3RpqnilCe2WN1jG6yxtRCnYqkS CSGWSLvQ8YHIKc7W4p6DitMVGrCi3ljcJCC5CSBsg3SKCGmm7EV41QhbfVX8+gO2TuefUF3RiSzk x4kV0unEFqt7bIUVti4bPUXF6YrxOl4r/VqwzQ5UK86W7wRgZWaX3xmMriVMD4D9/NranSiyBomJ 82SuqZcUvnUnoiL/l6eIuLJv6IlMOKmRBeubIDrSiiFKx+6o2UQW+qioYmKLlT22Y/uROjgfV0PF 6YrxOl7K41qwyS7kFefKN1RyZ+uGS6SAV34LzRu8Xc5t35G2Vk1+5ACuIbpx3wv1cxYcLfICR4rU CqFuJKouHlZHOzIhd+EpTxEhunCm4Z3JggT2CrsiermtZ7aYm8jCFGxlYouVPbZSI2MkpaocSGTz +PpIWmLEJRhFrgzW7gr2Bq5Hc5k7muu0bFcc94AA66Vd8n9UemOtldyY1x/x3wSuMwXmqEFWBBg2 4l2tLRB6HmIrhiffIJnlUnYStTmSBRuTczumQcyT2RXbu5xe3WMbtTYiGasOO54q0t20X//9dtIW Yy3CqOQlsHIfRAsuHDMdrcmPthjlJsylvcHbS+vdVQFtII/8qJpOd70r2LUSbBIhyIACSz3STqmO cMHr5fCs3DIcSZ/zUrVfFp5IX8evst3cSFyOy2wiC3uOU57YYnWPbey6PVlTLDiq1hXrHH984eve wLCmScgtOtzqvSk9x7FEeVBGV3i3umEVb/D2UpNXOGjGkzN9kp1/5F0Xl9VVsDoecN0KLLuS863I gevvlNxva4rDohf6DoD2O2d4GUDBbtL5cUOiqlR2R7BYLsyAiSzKE1tU7LGZvTM7ZiqdRsVpHaus HthyDDAiq3mFRYDhAArigHvX8oNn3QoPDfDoWAybFEf7/kgvrMXLdOYiu1/eEZfjtWCr3oHL88C6 P/mAiZ/N0SuKs/Lqh16GbSOdnDS46W56HAM6kk5IcYXj+bSb2EJY2WMT/Q1OrxHvuv/pvi7RAOSB 2TMkxUEOVzO0xrwXVYpjupK9XCtoA3M+nUp7gzvkm+XiRNq6NYpj28+m0zM5oB1ewrKcnbj3a70W 7YMcJg+sCiwpMHcCLgHAOAz2mthiYD5oD5Qg+q9TEAMAY8owFGdN5lIC5rGgOCIUbpim8AeEhqYX 2Z8EHl3ZpusUZzI5nukITPYXicczPeDN7PAnnuoZBwxVYIsM2AODg5fB2qFw4MQWg/NHa6A4CTCQ DkAIAIyCNHV5fAsYF7h4FrAt7Owlt0N4cPiBc9DEFizNewKXO2AjHYAQGDBlRNvHWZchQnIEKyGt FTWW6f1Ag5ABO2kdBMCAKSM+xUFOWKDIJlBKgpWTtgocC/a+IN4ZsJPWQQAEGHJEpDjIAwsS2QRK CYDxYEIeayMs3wdgIc+AlbQN/C/AEBtxXz1pB5SSPFgTgMCHWwtL+aFYpABMpG3g//gCgOsOceHd /qkrC3+zoJwUwboQBD/gGlhOQuCipcBAWiZC9we/5G6HD4NmhaziikserAgCDtl4DFlKQoGA0aEd EZHz3aWGv9hOFaeJDJECVmgyYA0EDtp0DFlIQtJOzEglMbjerlFAMjRdKk6jGavFYD+f5zD3mpMd MIcCRxVgaIZui8ggaTxmZA299rxeXIPX1/2furoTI9EJ8b0EX5vMt7YkWCIkOK4AQyMMN0SdQrd2 QsOVZU9cLW7n0jpsc5HLLiMwUMUpubWUDIUdFsDUAMOMEBkrPSvOjdffFag4Q6PKpY3k0oLngS04 AwwQId2Dett+9equzUWOBRhaZRCfz1vB8oLlprFzpcAYms5K52BAfADmnCDjBSVhhBULGVdgaZ9B 9XHa9aQFLgfMYRljvQhM7qPuOhEepm0lI6TJmhoByL4BU/sMRnHad6OdMQfMQRlv7QhHYRqRhuJE +o2roSOPPXwAYGydQShOpx5cd2a7qMOmzVt7bLID1YqTzhuB4eQZkugDlad+XZm3Sgw6n6tYT9yG ftbw8oFJpyAYSI0auALASHZmR+8F/wOkdWefOw55bsBiEYK84lz5KfFu3CTwNgev/syx0dHCFmS1 u1WQOzKbWrFCcbCJCIzF+ImbUL58YNIRGiAFSQJ/pMBMdmEPzwXv1DUXOhaKIFghSXF3ANKj8TPi 3VivRjozud7oZc71y+Wl/b+iOG6SX9kUR3pycXG8euCBA69mwF7NHh0/uHsX6lzJCIFbUmAmddnT a/EoDstEGERMLhwzHfAyYbHC41HpOPKjanMdG8u3jK7Jq1AcZyiM2VUceODAs+JYLMFeTcOKA7ez 3mxinXvgu4OeAgwY9Q0WdyQWxdk7g6RE6TmOJUo64XlyJl0W6dP4MTbFLWdtpUiT/mSKU9CVNQce OvPGSmstxdHmQEGSbIBe2pl9y5aU3Tw7322toZkIslwEoyACaBrPs5u5hUmGGztTLpYLfRnAPe6x LfW5jHtIIzyRoqO/vgDJevfGgBx6UXHgcVBQHHXNdG7+mV7eiL+u4CHvNNvgKr9icnQuh1heZXfY bv20juIgIqQWdNZOSOE60GNx9HFYLMJRpTiqDMvZdHomaVsrxWI5O5lOzxcmGaorlyfTE+3y2JMf 3f58OpUOjjShakhvWeyNtelUt9QnOOUDj4OS4khyMT9T4b45m05PJOmclSqO85neA9prFnC3Ot+9 diFrFuJu+YG7SSjoz7pYMT3cWzEoToh8Ek+h6RdBQM/jeFa4/Za0NIzLm9mxS7qb7vm5fw9goulF dtOdKg6OdJNuWT7wGBDfYEmQ3Lu+Suoj31HJFAdedvtJncSGx05yJErYQPXVVXUAAA5GSURBVPXc LZEw0J91kGIXylERKA7LBImMkuKkYiz1bXp+oQNklkgVx7/F56Qo99hsZouL7DW/wpHJ4dCf2wio Ns0Q+OJ6nltCVqlWHLEuF/PZhY6OmSFVHC9JboVV8RQzpJrldyWBoD834UvgiGCBIPFRqTg3ubcx 3Oo1irPSj7nM/nqWz3ECQ3+uwcRmfM5heSARskZx3COzI32rwpbWKM7xcnnjnoLJlvb8a7FcmEE/ vcoaERT6s4J+ik2SYKE5WL1IlFQqjsmFcqHvounzmTWK497wM6A89saAcsVRNdIsVs6w3C+aVxxW rqFipdoBS6/o63UR0iRWIftb8ptWHNb6ptAb5tw3zvwtdnarvRPTqXtzd7/drYyvA9u0Dk5vwETI oOlxYX+ZJMltkrwyxXmmifskeaZrLCH/XsryU13WhK55ldzr+smLHVSKdb0pjq1wuT8tVA5UnD13 q4Fd5zqwTSPgFHmwhkRLC08BYqXfJfxN8sZ+RU1UQm4tcZ28UCl6a4k7lZwkObWEi/Od2ynRzerB Ot4Y+rmZRfZN51Qyeqc4m7BKciA41CpYXwW2INFBxakiglLtAycdGpUdpyunqjx3SIBnr16/1U6O Lp8myVPVJSdW22HVbo5LFRvMXmOUFac8+1ppjjX/VenlXDULy7ZUvbvY/S7+7eB+gIvaFexNYuH5 2/vk9gUartPXt8n9tQ3JSOKNJN4+d8uyIrm7lmYqvUHWZqv2LXJ8xFKc71Q7BImGys+tZzK5zyvO 6+T+pcYVAvUyuZs8x9jaVlitG+TMCYeIgP84Z0lxbvxHWab4Ao4oSG6OtSu8qDuxL3UK23aXaLo3 rvIq13OsLq6CtSQGnl3bAMzTJHklP6/cve9dci2NlBvlP71PXrs1Yrq2FfKj4zSyj2mSGKUFu3/t WrzhEFdxfpkOpEkEr+2ZjY6u3WnoJD4WSLlrwKjaSyiObPnqHlq1DdbsBjn2PQ3REXyrqygZ0gWy lGLbWp/IsDnWUvyGW3aX//03o+N5sxdVMgXmSo7Or8SXN5cBPxznXQpKSbKNp69FX65d3+VWWyPB WiIb/RdeaFP1Fonnr2WL565tEq3RH71B1q3cLfLLu0Tun3O30xGzvTz3j2fifumAmuJoHO3NAdMa Segauz944Zbf3CW3rgsrdqdOW4jOH3Hhh7wU/CF7UTLyzZtJROHLn8K5/7MSBGrL7jlLfIqD5Hrc 39hcXdi30nJZPwwcyR8w3IHHgLRGb3NjYf6W1xakEQKiJeka5VQbruTetWqqRtIxQk/HOH3pW7lo 0RIaTQ0MwOta8RqVSzpAuiAzzE4pi663U2zYVmZfy/ooiqgGOjpeP7bsnq6PSXHqou+Z42GXDSOG zV/mOVKf56IaSTYQlvZkVEtu88Msvvfz6lZuhf3DAiiOPnh+Y8NxjtJBY0OlZmwt63MMxm1kdF5p G2kh/dMbfSLjXpEuSsbK7GvyPwaM9MlN1gpKb8l+t+ye22NwiqMT3mBRmc5tjm5dWp157UwsuSkb SltMji7m0um8zE1roG2E4JNKeZ626aUEwe9EcryQLsv9axsIuzfh0HE2GzRTlRH1ERlyT3hOr20E 7dY/00HH50VyjxbrmYqNf9cgPtJSNC5uk7vtQ2pjdEy7HBVaSEnZExrfoOEX04Fls6/pjXw6x5qo xtV0Op0tltLYHenuN8vFibZ563ZP28vhKY60/2kPJ0fFzGvL5fzEpqVzf3lb3kK7RzOb4M5euzDr VIyX01XPpvO0yUHmcpBs3jZS4PSlG1V5en2f3L1G7+W5JNJRt6fXd8ndG/eARjXq7XN9MuDERXTG rbjNDdFFhZY6ASlShr5pHrmtzj36VynJD3v539XZ1/JzrB1dSAtnE7XJgrafR9JXUh1bt3tqH57i rCmzaY59hmU753cReVtV2kK0A2nRafm/tJX7FQHCRpinLU2fzbORTBKIu9xDnOiQArembBJA/5D4 2FBqSzOv+Y8KzbJ5B3JbSDfR2UCl4qzM06Y9osXlOcfUwnMtHR73kCc6pFC4QkU2QRcNnGEGWHok 2ZMZ63vYHxxpF69q5jUBltIWrq+ZUak41pKk2Irjc3tFTvqYaXeUjBZXFAZZ0UJDNw2fyOrC8YXX iE3ok7Csi3G0cINnVTOvecvClspbiABBMs7m+iWHSsWRjSyV4j+haq9ouyUyRrRuKUiSLdBVIyGm WjGteaXS1i+c5hxrd8N0o2rmNScxIg02fFbeQpXL1OPMd2cqFGdlnjY5oXtvQaQulo85kKBIuVGQ InWgv0ZFLBWkruI40XDMc10OIzfzmr56obhBuNUt9H1AI/96nx06S67M05buVBjbIyMAcWfbuSv0 2QiJoabUVpxaeMloCXUwK9ZAccFldPeBjhstPa40F3ZtKUGkomXFMXD9rGGDgQE9DPpu5PS6+kTd x8ljXhaQJBGCEDKGh0D/EaG39Sis4nSPOlpBksQBoxYGOpGk9LNKDU1xgDlbQJL0FISJgQoC/UhK sHK1i/lbQZr0A0RFgIEcDL1JqmFFax/zuYI06QZEgXEIDn1KNjHKWteDHJvfFaRJO8Dr9Hsz0LOk BmOrgX3KrfnegIE0AXwswEAagO4ltRlTbexlVi0ABgwkAHApndo89DLZlZGUGc1mj/Npl+eAhewI 3KfAQpqFrib7MYZaanmMIZPuQg1YyFrgKAdspBXocXIQA6+zlj0BySjAJTtgI3RLD6DrSQiGW4ct ZwrS0YHLd8A2IpBxB2ykGxgDEpJhlifLlQFDzCAnKTAPDeTOARvpGMaCNIDV8SEVLJchA5YBgYyl wBwXuPYCWEX6AoNCGmRIld7yAmAaLMhmCazsBbikIlhHegqDRFpgIMXMsuGBbVwg75Vgk6Dg0GvA RiQWGDTSHtZGxF3eXBY8MBIHvBIUHJpEz/L/Hh8ZUNI6UbcjdvE5YCaEbEDryv8+Kn8FCyEtEmtr bdedB3ZCSDVpRfkv0Zv/eXz8c2cmpGXSkthT3PUtp0gWoNQQshVXg5BQwTH+BQZC2idfJCOCikPI Rso1+0+Pj398fPzp70Vy/gQTIZ1gZTOuJpyKQ8g6qir0fz8+/utEFMe6Ov8EIyGdUVFIewwVh5AK rBpXVQ4bT/P8AUZCOmVtce0dVBxCSmyqvb97fPzTTz89Pv7xp59k8XewEtI9Vm773qBTcQjJ2FZp /1p7Nv9oo2qT38siX5Em/WJLAe4cKg4hjhp19c8fH//wzyo6j//+b/bDV6RJ/7CSzJadkL5St4r+ 4fHxLyaTv/kP1Zr//Aft8fweawjpF3XLNCGkRVgxyXBh6SakP7A6khFgxbz1cp4kWCCE8OaPjIvW CzwVhxDFVT2KDRkfbRZ9Kg4ZPW1WOEL6SWO14PSF/v8ySZLbJHllivNME/dJ8kzXWEL+vZTlp7qs CV3zKrnX9ZMXuo+uJSR2GqtmhESIqw/hKsRLUY97FYs3yRszSFol5NYS14mI0cvkrSXuVHKS5NQS rid053ZKdLM3IkPXzzVJSIyErluEDIUgVeP5WxGb10+R8oNp0qFR2XG6cqrKc4cEePbq9Vvt5Ojy aZLI/tcQK1l3LSve+EMSEglBKhQhg+bAWpIkd/mBsDvVDkFERNfdeiaT+7zivJYekQ6oQaBeJneT 5xhbc5y+kp2xTEjfcbWIYkNILQ6pMKev75PkrT3EUe3wA2miJdf2zEZH1+70ac21Lp/eJ89VaUx+ XkJxZMtX99CqyenLu5KMkUDsH2SyFnMqvUrIzhxQd56KxJjWPEuS+9skMcVxrxGIHpnWSELX2MsC L9zym7vk1t4qEAmCOsmKV4XhNxKGuoFl41kbV1/oL0IOoJtq9NqpEmmGHeLZfuxjpJNKQshgcTWq tSr1nA9tmmOnMLYZ9TixikEfERIeV7kar123fGzTHDtGr5WAR4r5ht4hpFlYzyJmH8FhrMs4t9Av hLQF6hwrXVzsGi9GuQj8QYcQ0gmsgDGxc5wQXgaYJZ2Q/sDaGAX7C86YQwsPsHQT0i9QM1k1+0o+ Mh//jGgtf/vtL5zpo9lvJTVzCQNbKLCMihFnnZBoYD3tKYWQZIoj/PyxWL5H4sMnbouC4IwrnMgz yzAhsYA6y0rbH1YU5zNb+uTDcnllgvObjyaTqw9/+5fyYyCEDtgGzqgyS8jgQA1mFe6eYgxSxfnF b6xbo+nZrz8sP/za601RcIYeQeSSBZWQAYDqzPrcIauK4/lWRCaXlg6PgaQH1sEx8OwRMl5QuVm7 u2BVcT6zDo5TGE1/L7+fSDcnfZAjDDhWriyyNBIycFDTWdXbpeBvpzjuKY5/cUCf44xAcVD6WP4I GRWo96z4LVGpOJOPtJsjS/Zr+FE1ZUjBQfZY4AgZM2gG2BA0Tt7DqeK416JVZT76tfR3/u7PnBEM ISiudAlIE0IIG4bG2d2zUccCxYkFihCyHjQTAgwkFLt6NM4IoPSw/BBCdgDtBluOgOziy9j8jtLC 8kIIOQC0I2xJQlDfidG4G6WD5YMQEhC0KwosZA9qOq/3PkZREGAghJAmQEsjwEB2YbvX+utYxF2B hRBC2gFtjwADqccmf/XQmQiyAgshhHQGmiMFFrKZNY7qkf8QTwMmQgjpFWiiDJjIOjI3pQtdYxfi gIUQQiIADZcDNtJHECMDJkIIiRY0ZwZMpGMQDgUWQggZGGjkAIykBeDyFJgJIWQcoO3zwEoCAbd6 YCWEEMIG8mDguRSYCSGEbASNZg6sIBnwTArMhBBCDgKNah6sGQfIcxGsI4QQ0ixodVfB+ihBFirA BoQQQvoDWug1YKOuwdWsgvWEEEJiB+169+B6CCGEEEIIIYQQQgghhBBCCCGEEEIIIYQQQnrMZPL/ wYOoFH7cSv4AAAAASUVORK5CYII= "
     id="image10"
     x="80"
     y="120"
     inkscape:export-xdpi="96"
     inkscape:export-ydpi="96" />
</svg>
